{"componentChunkName":"component---packages-blog-gatsby-blog-core-src-templates-collection-category-js","path":"/category/microsoft-365/page/5/","result":{"data":{"collectionInfo":{"id":"b0babac0-675d-51af-aa7a-ce603b3a7af4","name":"Microsoft 365","slug":"/category/microsoft-365/","description":"This category involves all things Microsoft 365"},"posts":{"nodes":[{"id":"75b10dd1-1fc9-58d5-8891-113fc66c2467","title":"A collection of Microsoft Ninja Training","slug":"/a-collection-of-microsoft-ninja-training/","link":null,"excerpt":"Introduction Recently, I completed two pieces of Ninja training; Microsoft Purview Information…","timeToRead":1,"featured":true,"thumbnailText":null,"date":"February 09, 2023","category":{"id":"b0babac0-675d-51af-aa7a-ce603b3a7af4","name":"Microsoft 365","slug":"/category/microsoft-365/","color":"#f25022","icon":"/static/363fdd53d34303b727d9dab161b8e88b/microsoft365.svg"},"author":{"id":"6f313320-531a-5f32-9a22-708cb7653896","name":"Simon Ågren","slug":"/author/simon-agren/","title":"CTA & Microsoft MVP","description":"Solving business problems with tech","skills":["Microsoft 365","Azure"],"social":[{"name":"Github","url":"https://github.com/simonagren"},{"name":"Twitter","url":"https://twitter.com/agrenpoint"},{"name":"Website","url":"https://agrenpoint.com"}],"thumbnail":{"__typename":"ImageSharp","ImageSharp_small":{"layout":"fixed","backgroundColor":"#f8f8f8","images":{"fallback":{"src":"/static/bdc8525039042bedd52c0cf7d15e8521/ac0cb/simon-agren.jpg","srcSet":"/static/bdc8525039042bedd52c0cf7d15e8521/ac0cb/simon-agren.jpg 48w,\n/static/bdc8525039042bedd52c0cf7d15e8521/73f48/simon-agren.jpg 96w","sizes":"48px"},"sources":[{"srcSet":"/static/bdc8525039042bedd52c0cf7d15e8521/a3542/simon-agren.webp 48w,\n/static/bdc8525039042bedd52c0cf7d15e8521/0f66d/simon-agren.webp 96w","type":"image/webp","sizes":"48px"}]},"width":48,"height":48},"ImageSharp_regular":{"layout":"fixed","backgroundColor":"#f8f8f8","images":{"fallback":{"src":"/static/bdc8525039042bedd52c0cf7d15e8521/f679f/simon-agren.jpg","srcSet":"/static/bdc8525039042bedd52c0cf7d15e8521/f679f/simon-agren.jpg 150w,\n/static/bdc8525039042bedd52c0cf7d15e8521/78d3d/simon-agren.jpg 300w","sizes":"150px"},"sources":[{"srcSet":"/static/bdc8525039042bedd52c0cf7d15e8521/ae23d/simon-agren.webp 150w,\n/static/bdc8525039042bedd52c0cf7d15e8521/bd37b/simon-agren.webp 300w","type":"image/webp","sizes":"150px"}]},"width":150,"height":150}}},"thumbnail":{"__typename":"ImageSharp","ImageSharp_vertical":{"layout":"constrained","backgroundColor":"#f8f8f8","images":{"fallback":{"src":"/static/aa6b304aeede00e2d25f6bbeab7fb0f6/144fe/image.jpg","srcSet":"/static/aa6b304aeede00e2d25f6bbeab7fb0f6/9d7b9/image.jpg 190w,\n/static/aa6b304aeede00e2d25f6bbeab7fb0f6/144fe/image.jpg 380w","sizes":"(min-width: 380px) 380px, 100vw"},"sources":[{"srcSet":"/static/aa6b304aeede00e2d25f6bbeab7fb0f6/228d6/image.webp 190w,\n/static/aa6b304aeede00e2d25f6bbeab7fb0f6/6b99c/image.webp 380w","type":"image/webp","sizes":"(min-width: 380px) 380px, 100vw"}]},"width":380,"height":290},"ImageSharp_hero":{"layout":"constrained","backgroundColor":"#f8f8f8","images":{"fallback":{"src":"/static/aa6b304aeede00e2d25f6bbeab7fb0f6/fb1e2/image.jpg","srcSet":"/static/aa6b304aeede00e2d25f6bbeab7fb0f6/737e6/image.jpg 500w,\n/static/aa6b304aeede00e2d25f6bbeab7fb0f6/fb1e2/image.jpg 999w","sizes":"(min-width: 999px) 999px, 100vw"},"sources":[{"srcSet":"/static/aa6b304aeede00e2d25f6bbeab7fb0f6/e3a40/image.webp 500w,\n/static/aa6b304aeede00e2d25f6bbeab7fb0f6/e62d1/image.webp 999w","type":"image/webp","sizes":"(min-width: 999px) 999px, 100vw"}]},"width":1600,"height":650.2502502502502}}},{"id":"3775249d-bf27-553b-88e8-4f4354b2e1f5","title":"Custom Azure AD registration with Microsoft Graph PS","slug":"/custom-azure-ad-registration-with-microsoft-graph-ps/","link":null,"excerpt":"Introduction Similar to my post  PnP PowerShell - MFA account and Client Id  from a while back, I…","timeToRead":2,"featured":false,"thumbnailText":null,"date":"January 02, 2023","category":{"id":"b0babac0-675d-51af-aa7a-ce603b3a7af4","name":"Microsoft 365","slug":"/category/microsoft-365/","color":"#f25022","icon":"/static/363fdd53d34303b727d9dab161b8e88b/microsoft365.svg"},"author":{"id":"6f313320-531a-5f32-9a22-708cb7653896","name":"Simon Ågren","slug":"/author/simon-agren/","title":"CTA & Microsoft MVP","description":"Solving business problems with tech","skills":["Microsoft 365","Azure"],"social":[{"name":"Github","url":"https://github.com/simonagren"},{"name":"Twitter","url":"https://twitter.com/agrenpoint"},{"name":"Website","url":"https://agrenpoint.com"}],"thumbnail":{"__typename":"ImageSharp","ImageSharp_small":{"layout":"fixed","backgroundColor":"#f8f8f8","images":{"fallback":{"src":"/static/bdc8525039042bedd52c0cf7d15e8521/ac0cb/simon-agren.jpg","srcSet":"/static/bdc8525039042bedd52c0cf7d15e8521/ac0cb/simon-agren.jpg 48w,\n/static/bdc8525039042bedd52c0cf7d15e8521/73f48/simon-agren.jpg 96w","sizes":"48px"},"sources":[{"srcSet":"/static/bdc8525039042bedd52c0cf7d15e8521/a3542/simon-agren.webp 48w,\n/static/bdc8525039042bedd52c0cf7d15e8521/0f66d/simon-agren.webp 96w","type":"image/webp","sizes":"48px"}]},"width":48,"height":48},"ImageSharp_regular":{"layout":"fixed","backgroundColor":"#f8f8f8","images":{"fallback":{"src":"/static/bdc8525039042bedd52c0cf7d15e8521/f679f/simon-agren.jpg","srcSet":"/static/bdc8525039042bedd52c0cf7d15e8521/f679f/simon-agren.jpg 150w,\n/static/bdc8525039042bedd52c0cf7d15e8521/78d3d/simon-agren.jpg 300w","sizes":"150px"},"sources":[{"srcSet":"/static/bdc8525039042bedd52c0cf7d15e8521/ae23d/simon-agren.webp 150w,\n/static/bdc8525039042bedd52c0cf7d15e8521/bd37b/simon-agren.webp 300w","type":"image/webp","sizes":"150px"}]},"width":150,"height":150}}},"thumbnail":{"__typename":"ImageSharp","ImageSharp_vertical":{"layout":"constrained","backgroundColor":"#f8f8f8","images":{"fallback":{"src":"/static/277677938ffc6d236164bf3a4fef9f3c/6b99c/image.webp","srcSet":"/static/277677938ffc6d236164bf3a4fef9f3c/228d6/image.webp 190w,\n/static/277677938ffc6d236164bf3a4fef9f3c/6b99c/image.webp 380w","sizes":"(min-width: 380px) 380px, 100vw"},"sources":[]},"width":380,"height":290},"ImageSharp_hero":{"layout":"constrained","backgroundColor":"#f8f8f8","images":{"fallback":{"src":"/static/277677938ffc6d236164bf3a4fef9f3c/c9f06/image.webp","srcSet":"/static/277677938ffc6d236164bf3a4fef9f3c/6a2da/image.webp 400w,\n/static/277677938ffc6d236164bf3a4fef9f3c/c9f06/image.webp 800w","sizes":"(min-width: 800px) 800px, 100vw"},"sources":[]},"width":1600,"height":650}}},{"id":"593fb66a-b319-5393-815c-d30d3d567283","title":"Is scheduling messages in Microsoft Teams a good idea?","slug":"/is-scheduling-messages-in-microsoft-teams-a-good-idea/","link":null,"excerpt":"Introduction Many of you have waited for the possibility of scheduling chat messages in Microsoft…","timeToRead":2,"featured":true,"thumbnailText":null,"date":"December 18, 2022","category":{"id":"b0babac0-675d-51af-aa7a-ce603b3a7af4","name":"Microsoft 365","slug":"/category/microsoft-365/","color":"#f25022","icon":"/static/363fdd53d34303b727d9dab161b8e88b/microsoft365.svg"},"author":{"id":"6f313320-531a-5f32-9a22-708cb7653896","name":"Simon Ågren","slug":"/author/simon-agren/","title":"CTA & Microsoft MVP","description":"Solving business problems with tech","skills":["Microsoft 365","Azure"],"social":[{"name":"Github","url":"https://github.com/simonagren"},{"name":"Twitter","url":"https://twitter.com/agrenpoint"},{"name":"Website","url":"https://agrenpoint.com"}],"thumbnail":{"__typename":"ImageSharp","ImageSharp_small":{"layout":"fixed","backgroundColor":"#f8f8f8","images":{"fallback":{"src":"/static/bdc8525039042bedd52c0cf7d15e8521/ac0cb/simon-agren.jpg","srcSet":"/static/bdc8525039042bedd52c0cf7d15e8521/ac0cb/simon-agren.jpg 48w,\n/static/bdc8525039042bedd52c0cf7d15e8521/73f48/simon-agren.jpg 96w","sizes":"48px"},"sources":[{"srcSet":"/static/bdc8525039042bedd52c0cf7d15e8521/a3542/simon-agren.webp 48w,\n/static/bdc8525039042bedd52c0cf7d15e8521/0f66d/simon-agren.webp 96w","type":"image/webp","sizes":"48px"}]},"width":48,"height":48},"ImageSharp_regular":{"layout":"fixed","backgroundColor":"#f8f8f8","images":{"fallback":{"src":"/static/bdc8525039042bedd52c0cf7d15e8521/f679f/simon-agren.jpg","srcSet":"/static/bdc8525039042bedd52c0cf7d15e8521/f679f/simon-agren.jpg 150w,\n/static/bdc8525039042bedd52c0cf7d15e8521/78d3d/simon-agren.jpg 300w","sizes":"150px"},"sources":[{"srcSet":"/static/bdc8525039042bedd52c0cf7d15e8521/ae23d/simon-agren.webp 150w,\n/static/bdc8525039042bedd52c0cf7d15e8521/bd37b/simon-agren.webp 300w","type":"image/webp","sizes":"150px"}]},"width":150,"height":150}}},"thumbnail":{"__typename":"ImageSharp","ImageSharp_vertical":{"layout":"constrained","backgroundColor":"#081838","images":{"fallback":{"src":"/static/4cbcdfdf18ce0651ea35957cd315f636/144fe/image.jpg","srcSet":"/static/4cbcdfdf18ce0651ea35957cd315f636/9d7b9/image.jpg 190w,\n/static/4cbcdfdf18ce0651ea35957cd315f636/144fe/image.jpg 380w","sizes":"(min-width: 380px) 380px, 100vw"},"sources":[{"srcSet":"/static/4cbcdfdf18ce0651ea35957cd315f636/228d6/image.webp 190w,\n/static/4cbcdfdf18ce0651ea35957cd315f636/6b99c/image.webp 380w","type":"image/webp","sizes":"(min-width: 380px) 380px, 100vw"}]},"width":380,"height":290},"ImageSharp_hero":{"layout":"constrained","backgroundColor":"#081838","images":{"fallback":{"src":"/static/4cbcdfdf18ce0651ea35957cd315f636/5639a/image.jpg","srcSet":"/static/4cbcdfdf18ce0651ea35957cd315f636/ff41a/image.jpg 283w,\n/static/4cbcdfdf18ce0651ea35957cd315f636/5639a/image.jpg 566w","sizes":"(min-width: 566px) 566px, 100vw"},"sources":[{"srcSet":"/static/4cbcdfdf18ce0651ea35957cd315f636/e0c00/image.webp 283w,\n/static/4cbcdfdf18ce0651ea35957cd315f636/2d7be/image.webp 566w","type":"image/webp","sizes":"(min-width: 566px) 566px, 100vw"}]},"width":1600,"height":650.1766784452296}}},{"id":"794c3ec0-2ada-5da3-8a05-c9a74586d576","title":"Groupify a SharePoint site - the collection","slug":"/groupify-a-sharepoint-site-the-collection/","link":null,"excerpt":"Introduction It's been a long time since I worked in the classic experience in SharePoint or even…","timeToRead":2,"featured":false,"thumbnailText":null,"date":"September 10, 2022","category":{"id":"b0babac0-675d-51af-aa7a-ce603b3a7af4","name":"Microsoft 365","slug":"/category/microsoft-365/","color":"#f25022","icon":"/static/363fdd53d34303b727d9dab161b8e88b/microsoft365.svg"},"author":{"id":"6f313320-531a-5f32-9a22-708cb7653896","name":"Simon Ågren","slug":"/author/simon-agren/","title":"CTA & Microsoft MVP","description":"Solving business problems with tech","skills":["Microsoft 365","Azure"],"social":[{"name":"Github","url":"https://github.com/simonagren"},{"name":"Twitter","url":"https://twitter.com/agrenpoint"},{"name":"Website","url":"https://agrenpoint.com"}],"thumbnail":{"__typename":"ImageSharp","ImageSharp_small":{"layout":"fixed","backgroundColor":"#f8f8f8","images":{"fallback":{"src":"/static/bdc8525039042bedd52c0cf7d15e8521/ac0cb/simon-agren.jpg","srcSet":"/static/bdc8525039042bedd52c0cf7d15e8521/ac0cb/simon-agren.jpg 48w,\n/static/bdc8525039042bedd52c0cf7d15e8521/73f48/simon-agren.jpg 96w","sizes":"48px"},"sources":[{"srcSet":"/static/bdc8525039042bedd52c0cf7d15e8521/a3542/simon-agren.webp 48w,\n/static/bdc8525039042bedd52c0cf7d15e8521/0f66d/simon-agren.webp 96w","type":"image/webp","sizes":"48px"}]},"width":48,"height":48},"ImageSharp_regular":{"layout":"fixed","backgroundColor":"#f8f8f8","images":{"fallback":{"src":"/static/bdc8525039042bedd52c0cf7d15e8521/f679f/simon-agren.jpg","srcSet":"/static/bdc8525039042bedd52c0cf7d15e8521/f679f/simon-agren.jpg 150w,\n/static/bdc8525039042bedd52c0cf7d15e8521/78d3d/simon-agren.jpg 300w","sizes":"150px"},"sources":[{"srcSet":"/static/bdc8525039042bedd52c0cf7d15e8521/ae23d/simon-agren.webp 150w,\n/static/bdc8525039042bedd52c0cf7d15e8521/bd37b/simon-agren.webp 300w","type":"image/webp","sizes":"150px"}]},"width":150,"height":150}}},"thumbnail":{"__typename":"ImageSharp","ImageSharp_vertical":{"layout":"constrained","backgroundColor":"#a82828","images":{"fallback":{"src":"/static/b84fdeaa6d6ddfa3bba9145b83d179fc/144fe/image.jpg","srcSet":"/static/b84fdeaa6d6ddfa3bba9145b83d179fc/9d7b9/image.jpg 190w,\n/static/b84fdeaa6d6ddfa3bba9145b83d179fc/144fe/image.jpg 380w","sizes":"(min-width: 380px) 380px, 100vw"},"sources":[{"srcSet":"/static/b84fdeaa6d6ddfa3bba9145b83d179fc/228d6/image.webp 190w,\n/static/b84fdeaa6d6ddfa3bba9145b83d179fc/6b99c/image.webp 380w","type":"image/webp","sizes":"(min-width: 380px) 380px, 100vw"}]},"width":380,"height":290},"ImageSharp_hero":{"layout":"constrained","backgroundColor":"#a82828","images":{"fallback":{"src":"/static/b84fdeaa6d6ddfa3bba9145b83d179fc/5e493/image.jpg","srcSet":"/static/b84fdeaa6d6ddfa3bba9145b83d179fc/696c0/image.jpg 800w,\n/static/b84fdeaa6d6ddfa3bba9145b83d179fc/5e493/image.jpg 1600w","sizes":"(min-width: 1600px) 1600px, 100vw"},"sources":[{"srcSet":"/static/b84fdeaa6d6ddfa3bba9145b83d179fc/c9f06/image.webp 800w,\n/static/b84fdeaa6d6ddfa3bba9145b83d179fc/f47df/image.webp 1600w","type":"image/webp","sizes":"(min-width: 1600px) 1600px, 100vw"}]},"width":1600,"height":650}}},{"id":"10e371af-625c-5cd0-a411-b450635fb2b6","title":"Groupify a SharePoint Online Site using M365 CLI","slug":"/groupify-a-sharepoint-online-site-using-m365-cli/","link":null,"excerpt":"This post will explore connecting a new Microsoft 365 group with an existing SharePoint Online site…","timeToRead":1,"featured":false,"thumbnailText":null,"date":"September 09, 2022","category":{"id":"b0babac0-675d-51af-aa7a-ce603b3a7af4","name":"Microsoft 365","slug":"/category/microsoft-365/","color":"#f25022","icon":"/static/363fdd53d34303b727d9dab161b8e88b/microsoft365.svg"},"author":{"id":"6f313320-531a-5f32-9a22-708cb7653896","name":"Simon Ågren","slug":"/author/simon-agren/","title":"CTA & Microsoft MVP","description":"Solving business problems with tech","skills":["Microsoft 365","Azure"],"social":[{"name":"Github","url":"https://github.com/simonagren"},{"name":"Twitter","url":"https://twitter.com/agrenpoint"},{"name":"Website","url":"https://agrenpoint.com"}],"thumbnail":{"__typename":"ImageSharp","ImageSharp_small":{"layout":"fixed","backgroundColor":"#f8f8f8","images":{"fallback":{"src":"/static/bdc8525039042bedd52c0cf7d15e8521/ac0cb/simon-agren.jpg","srcSet":"/static/bdc8525039042bedd52c0cf7d15e8521/ac0cb/simon-agren.jpg 48w,\n/static/bdc8525039042bedd52c0cf7d15e8521/73f48/simon-agren.jpg 96w","sizes":"48px"},"sources":[{"srcSet":"/static/bdc8525039042bedd52c0cf7d15e8521/a3542/simon-agren.webp 48w,\n/static/bdc8525039042bedd52c0cf7d15e8521/0f66d/simon-agren.webp 96w","type":"image/webp","sizes":"48px"}]},"width":48,"height":48},"ImageSharp_regular":{"layout":"fixed","backgroundColor":"#f8f8f8","images":{"fallback":{"src":"/static/bdc8525039042bedd52c0cf7d15e8521/f679f/simon-agren.jpg","srcSet":"/static/bdc8525039042bedd52c0cf7d15e8521/f679f/simon-agren.jpg 150w,\n/static/bdc8525039042bedd52c0cf7d15e8521/78d3d/simon-agren.jpg 300w","sizes":"150px"},"sources":[{"srcSet":"/static/bdc8525039042bedd52c0cf7d15e8521/ae23d/simon-agren.webp 150w,\n/static/bdc8525039042bedd52c0cf7d15e8521/bd37b/simon-agren.webp 300w","type":"image/webp","sizes":"150px"}]},"width":150,"height":150}}},"thumbnail":{"__typename":"ImageSharp","ImageSharp_vertical":{"layout":"constrained","backgroundColor":"#080808","images":{"fallback":{"src":"/static/fbd187d766ca3c3fe34f18c0b145ab0c/19188/image.png","srcSet":"/static/fbd187d766ca3c3fe34f18c0b145ab0c/db297/image.png 190w,\n/static/fbd187d766ca3c3fe34f18c0b145ab0c/19188/image.png 380w","sizes":"(min-width: 380px) 380px, 100vw"},"sources":[{"srcSet":"/static/fbd187d766ca3c3fe34f18c0b145ab0c/228d6/image.webp 190w,\n/static/fbd187d766ca3c3fe34f18c0b145ab0c/6b99c/image.webp 380w","type":"image/webp","sizes":"(min-width: 380px) 380px, 100vw"}]},"width":380,"height":290},"ImageSharp_hero":{"layout":"constrained","backgroundColor":"#080808","images":{"fallback":{"src":"/static/fbd187d766ca3c3fe34f18c0b145ab0c/5fb32/image.png","srcSet":"/static/fbd187d766ca3c3fe34f18c0b145ab0c/739fd/image.png 600w,\n/static/fbd187d766ca3c3fe34f18c0b145ab0c/5fb32/image.png 1200w","sizes":"(min-width: 1200px) 1200px, 100vw"},"sources":[{"srcSet":"/static/fbd187d766ca3c3fe34f18c0b145ab0c/288e3/image.webp 600w,\n/static/fbd187d766ca3c3fe34f18c0b145ab0c/5b893/image.webp 1200w","type":"image/webp","sizes":"(min-width: 1200px) 1200px, 100vw"}]},"width":1600,"height":650.6666666666666}}},{"id":"89611302-1830-55b2-a6fe-97f9eb744016","title":"Groupify a SharePoint Online Site using PnP PowerShell","slug":"/groupify-a-sharepoint-online-site-using-pnp-powershell/","link":null,"excerpt":"This post will explore connecting a new Microsoft 365 group with an existing SharePoint Online site…","timeToRead":1,"featured":false,"thumbnailText":null,"date":"September 07, 2022","category":{"id":"b0babac0-675d-51af-aa7a-ce603b3a7af4","name":"Microsoft 365","slug":"/category/microsoft-365/","color":"#f25022","icon":"/static/363fdd53d34303b727d9dab161b8e88b/microsoft365.svg"},"author":{"id":"6f313320-531a-5f32-9a22-708cb7653896","name":"Simon Ågren","slug":"/author/simon-agren/","title":"CTA & Microsoft MVP","description":"Solving business problems with tech","skills":["Microsoft 365","Azure"],"social":[{"name":"Github","url":"https://github.com/simonagren"},{"name":"Twitter","url":"https://twitter.com/agrenpoint"},{"name":"Website","url":"https://agrenpoint.com"}],"thumbnail":{"__typename":"ImageSharp","ImageSharp_small":{"layout":"fixed","backgroundColor":"#f8f8f8","images":{"fallback":{"src":"/static/bdc8525039042bedd52c0cf7d15e8521/ac0cb/simon-agren.jpg","srcSet":"/static/bdc8525039042bedd52c0cf7d15e8521/ac0cb/simon-agren.jpg 48w,\n/static/bdc8525039042bedd52c0cf7d15e8521/73f48/simon-agren.jpg 96w","sizes":"48px"},"sources":[{"srcSet":"/static/bdc8525039042bedd52c0cf7d15e8521/a3542/simon-agren.webp 48w,\n/static/bdc8525039042bedd52c0cf7d15e8521/0f66d/simon-agren.webp 96w","type":"image/webp","sizes":"48px"}]},"width":48,"height":48},"ImageSharp_regular":{"layout":"fixed","backgroundColor":"#f8f8f8","images":{"fallback":{"src":"/static/bdc8525039042bedd52c0cf7d15e8521/f679f/simon-agren.jpg","srcSet":"/static/bdc8525039042bedd52c0cf7d15e8521/f679f/simon-agren.jpg 150w,\n/static/bdc8525039042bedd52c0cf7d15e8521/78d3d/simon-agren.jpg 300w","sizes":"150px"},"sources":[{"srcSet":"/static/bdc8525039042bedd52c0cf7d15e8521/ae23d/simon-agren.webp 150w,\n/static/bdc8525039042bedd52c0cf7d15e8521/bd37b/simon-agren.webp 300w","type":"image/webp","sizes":"150px"}]},"width":150,"height":150}}},"thumbnail":{"__typename":"ImageSharp","ImageSharp_vertical":{"layout":"constrained","backgroundColor":"#2878b8","images":{"fallback":{"src":"/static/62d18fa354fac9b087b2bd843ff58cb5/19188/image.png","srcSet":"/static/62d18fa354fac9b087b2bd843ff58cb5/db297/image.png 190w,\n/static/62d18fa354fac9b087b2bd843ff58cb5/19188/image.png 380w","sizes":"(min-width: 380px) 380px, 100vw"},"sources":[{"srcSet":"/static/62d18fa354fac9b087b2bd843ff58cb5/228d6/image.webp 190w,\n/static/62d18fa354fac9b087b2bd843ff58cb5/6b99c/image.webp 380w","type":"image/webp","sizes":"(min-width: 380px) 380px, 100vw"}]},"width":380,"height":290},"ImageSharp_hero":{"layout":"constrained","backgroundColor":"#2878b8","images":{"fallback":{"src":"/static/62d18fa354fac9b087b2bd843ff58cb5/5fb32/image.png","srcSet":"/static/62d18fa354fac9b087b2bd843ff58cb5/739fd/image.png 600w,\n/static/62d18fa354fac9b087b2bd843ff58cb5/5fb32/image.png 1200w","sizes":"(min-width: 1200px) 1200px, 100vw"},"sources":[{"srcSet":"/static/62d18fa354fac9b087b2bd843ff58cb5/288e3/image.webp 600w,\n/static/62d18fa354fac9b087b2bd843ff58cb5/5b893/image.webp 1200w","type":"image/webp","sizes":"(min-width: 1200px) 1200px, 100vw"}]},"width":1600,"height":650.6666666666666}}}],"pageInfo":{"pageCount":9,"hasPreviousPage":true,"hasNextPage":true,"currentPage":5},"totalCount":52}},"pageContext":{"slug":"/category/microsoft-365/","limit":6,"skip":24,"collectionType":"category","paginatePostsPage":true,"basePath":"/","services":{"algolia":true,"mailchimp":false,"disqus":false,"graphComment":true,"facebookComment":false},"siteUrl":"https://www.agrenpoint.com","mobileMenu":{"title":"Topics","items":[{"name":"Azure","slug":"/category/azure/"},{"name":"Endpoint management","slug":"/category/endpoint-management/"},{"name":"Microsoft 365","slug":"/category/microsoft-365/"}]},"darkMode":true,"includeExcerpt":true,"includeTimeToRead":true,"includeTableOfContents":true,"imageQuality":75,"currentDate":"2026-03-02"}},"staticQueryHashes":["1992822086","2409295108","2925947909"]}