{"componentChunkName":"component---packages-blog-gatsby-blog-core-src-templates-collection-tag-js","path":"/tag/msgraph/page/2/","result":{"data":{"collectionInfo":{"id":"3854a95d-b2b2-52b0-a0d7-8e558721d1e6","name":"msgraph","slug":"/tag/msgraph/"},"posts":{"nodes":[{"id":"0ed2d4e8-d282-5d9c-b490-c2ce1b500a61","title":"Bot Framework in Node.js - Calling Microsoft Graph (part 6)","slug":"/azurebot-nodejs-part6/","link":null,"excerpt":"I the previous post, we created a new Azure AD Application registration, gave it permissions to…","timeToRead":3,"featured":null,"thumbnailText":null,"date":"March 22, 2020","category":{"id":"64f10eaf-091c-555c-a28e-13a12e934b04","name":"Azure","slug":"/category/azure/","color":"#007fff","icon":"/static/660faf3683bb1a8489baa9402bf62165/azure.svg"},"author":{"id":"6f313320-531a-5f32-9a22-708cb7653896","name":"Simon Ågren","slug":"/author/simon-agren/","title":"CTA & Microsoft MVP","description":"Solving business problems with tech","skills":["Microsoft 365","Azure"],"social":[{"name":"Github","url":"https://github.com/simonagren"},{"name":"Twitter","url":"https://twitter.com/agrenpoint"},{"name":"Website","url":"https://agrenpoint.com"}],"thumbnail":{"__typename":"ImageSharp","ImageSharp_small":{"layout":"fixed","placeholder":{"fallback":"data:image/svg+xml,%3csvg%20xmlns='http://www.w3.org/2000/svg'%20width='150'%20height='150'%20viewBox='0%200%20150%20150'%20preserveAspectRatio='none'%3e%3cpath%20d='M60%2012c-4%201-13%208-10%208l2-2%204-1c1%201%203%200%205-1%2011-4%2024%205%2024%2018l1%204%203%206-3%201-7%202c-3%203-3%203-3%2010l1%209c2%204-1%206-6%205l-4%201-1%202c-4%203-5%202-5%200a1139%201139%200%2001-3%201l-2%205%202%204c3%205%202%207-1%202-1-2-2-3-4-3l-2-1h-1c-1%202-3-1-4-7l-1-6c-2-2-2-14-1-15v-4l-1-4c-2-2-1-11%201-16%202-6%202-8-1-3l-8%2010a58%2058%200%200037%2098c46%206%2080-47%2055-88-6-10-23-24-31-25l-6-4c-9-8-20-10-30-6m21%2043l1%202%201%201v4l2%206%203%205h1c2%200%204%205%203%207l-2%202c-1-1-1%200-1%202s0%202%202%201c3-2%203-2%203-10%200-18%200-18-2-18l-6-2-5-2v2M68%2081c-1%201-2%201-1%202v2l-2-1c-4-3-5%201-1%207l2%205%201%201%203%201c1%202%202%202%203%201h3c6%200%204-7-2-8-3-1-4-2%200-2l3-1%202-3v-2l1-1c-1-1-10-2-12-1M51%2097v2l1%203c0%206%205%2011%2018%2017l12%206c1-1-1-5-4-6s-3-3%200-3c3-1%203-3%200-3l-4-1-3-2c-2%200-10-6-15-11-4-3-5-4-5-2'%20fill='%23d3d3d3'%20fill-rule='evenodd'/%3e%3c/svg%3e"},"images":{"fallback":{"src":"/static/bdc8525039042bedd52c0cf7d15e8521/ac0cb/simon-agren.jpg","srcSet":"/static/bdc8525039042bedd52c0cf7d15e8521/ac0cb/simon-agren.jpg 48w,\n/static/bdc8525039042bedd52c0cf7d15e8521/73f48/simon-agren.jpg 96w","sizes":"48px"},"sources":[{"srcSet":"/static/bdc8525039042bedd52c0cf7d15e8521/a3542/simon-agren.webp 48w,\n/static/bdc8525039042bedd52c0cf7d15e8521/0f66d/simon-agren.webp 96w","type":"image/webp","sizes":"48px"}]},"width":48,"height":48},"ImageSharp_regular":{"layout":"fixed","placeholder":{"fallback":"data:image/svg+xml,%3csvg%20xmlns='http://www.w3.org/2000/svg'%20width='150'%20height='150'%20viewBox='0%200%20150%20150'%20preserveAspectRatio='none'%3e%3cpath%20d='M60%2012c-4%201-13%208-10%208l2-2%204-1c1%201%203%200%205-1%2011-4%2024%205%2024%2018l1%204%203%206-3%201-7%202c-3%203-3%203-3%2010l1%209c2%204-1%206-6%205l-4%201-1%202c-4%203-5%202-5%200a1139%201139%200%2001-3%201l-2%205%202%204c3%205%202%207-1%202-1-2-2-3-4-3l-2-1h-1c-1%202-3-1-4-7l-1-6c-2-2-2-14-1-15v-4l-1-4c-2-2-1-11%201-16%202-6%202-8-1-3l-8%2010a58%2058%200%200037%2098c46%206%2080-47%2055-88-6-10-23-24-31-25l-6-4c-9-8-20-10-30-6m21%2043l1%202%201%201v4l2%206%203%205h1c2%200%204%205%203%207l-2%202c-1-1-1%200-1%202s0%202%202%201c3-2%203-2%203-10%200-18%200-18-2-18l-6-2-5-2v2M68%2081c-1%201-2%201-1%202v2l-2-1c-4-3-5%201-1%207l2%205%201%201%203%201c1%202%202%202%203%201h3c6%200%204-7-2-8-3-1-4-2%200-2l3-1%202-3v-2l1-1c-1-1-10-2-12-1M51%2097v2l1%203c0%206%205%2011%2018%2017l12%206c1-1-1-5-4-6s-3-3%200-3c3-1%203-3%200-3l-4-1-3-2c-2%200-10-6-15-11-4-3-5-4-5-2'%20fill='%23d3d3d3'%20fill-rule='evenodd'/%3e%3c/svg%3e"},"images":{"fallback":{"src":"/static/bdc8525039042bedd52c0cf7d15e8521/f679f/simon-agren.jpg","srcSet":"/static/bdc8525039042bedd52c0cf7d15e8521/f679f/simon-agren.jpg 150w,\n/static/bdc8525039042bedd52c0cf7d15e8521/78d3d/simon-agren.jpg 300w","sizes":"150px"},"sources":[{"srcSet":"/static/bdc8525039042bedd52c0cf7d15e8521/ae23d/simon-agren.webp 150w,\n/static/bdc8525039042bedd52c0cf7d15e8521/bd37b/simon-agren.webp 300w","type":"image/webp","sizes":"150px"}]},"width":150,"height":150}}},"thumbnail":{"__typename":"ImageSharp","ImageSharp_vertical":{"layout":"constrained","backgroundColor":"#3898d8","images":{"fallback":{"src":"/static/fb02b1615213cb512da7d1c78b9ad995/19188/botframework6.png","srcSet":"/static/fb02b1615213cb512da7d1c78b9ad995/db297/botframework6.png 190w,\n/static/fb02b1615213cb512da7d1c78b9ad995/19188/botframework6.png 380w","sizes":"(min-width: 380px) 380px, 100vw"},"sources":[{"srcSet":"/static/fb02b1615213cb512da7d1c78b9ad995/228d6/botframework6.webp 190w,\n/static/fb02b1615213cb512da7d1c78b9ad995/6b99c/botframework6.webp 380w","type":"image/webp","sizes":"(min-width: 380px) 380px, 100vw"}]},"width":380,"height":290},"ImageSharp_hero":{"layout":"constrained","backgroundColor":"#3898d8","images":{"fallback":{"src":"/static/fb02b1615213cb512da7d1c78b9ad995/5fb32/botframework6.png","srcSet":"/static/fb02b1615213cb512da7d1c78b9ad995/739fd/botframework6.png 600w,\n/static/fb02b1615213cb512da7d1c78b9ad995/5fb32/botframework6.png 1200w","sizes":"(min-width: 1200px) 1200px, 100vw"},"sources":[{"srcSet":"/static/fb02b1615213cb512da7d1c78b9ad995/288e3/botframework6.webp 600w,\n/static/fb02b1615213cb512da7d1c78b9ad995/5b893/botframework6.webp 1200w","type":"image/webp","sizes":"(min-width: 1200px) 1200px, 100vw"}]},"width":1600,"height":650.6666666666666}}},{"id":"31e75b40-8c93-54fb-bbfe-58e742083902","title":"Bot Framework in Node.js - Auth and Microsoft Graph (part 5)","slug":"/azurebot-nodejs-part5/","link":null,"excerpt":"In the previous post, we had a look at user interruptions. In this post, we will look at how to…","timeToRead":3,"featured":null,"thumbnailText":null,"date":"March 13, 2020","category":{"id":"64f10eaf-091c-555c-a28e-13a12e934b04","name":"Azure","slug":"/category/azure/","color":"#007fff","icon":"/static/660faf3683bb1a8489baa9402bf62165/azure.svg"},"author":{"id":"6f313320-531a-5f32-9a22-708cb7653896","name":"Simon Ågren","slug":"/author/simon-agren/","title":"CTA & Microsoft MVP","description":"Solving business problems with tech","skills":["Microsoft 365","Azure"],"social":[{"name":"Github","url":"https://github.com/simonagren"},{"name":"Twitter","url":"https://twitter.com/agrenpoint"},{"name":"Website","url":"https://agrenpoint.com"}],"thumbnail":{"__typename":"ImageSharp","ImageSharp_small":{"layout":"fixed","placeholder":{"fallback":"data:image/svg+xml,%3csvg%20xmlns='http://www.w3.org/2000/svg'%20width='150'%20height='150'%20viewBox='0%200%20150%20150'%20preserveAspectRatio='none'%3e%3cpath%20d='M60%2012c-4%201-13%208-10%208l2-2%204-1c1%201%203%200%205-1%2011-4%2024%205%2024%2018l1%204%203%206-3%201-7%202c-3%203-3%203-3%2010l1%209c2%204-1%206-6%205l-4%201-1%202c-4%203-5%202-5%200a1139%201139%200%2001-3%201l-2%205%202%204c3%205%202%207-1%202-1-2-2-3-4-3l-2-1h-1c-1%202-3-1-4-7l-1-6c-2-2-2-14-1-15v-4l-1-4c-2-2-1-11%201-16%202-6%202-8-1-3l-8%2010a58%2058%200%200037%2098c46%206%2080-47%2055-88-6-10-23-24-31-25l-6-4c-9-8-20-10-30-6m21%2043l1%202%201%201v4l2%206%203%205h1c2%200%204%205%203%207l-2%202c-1-1-1%200-1%202s0%202%202%201c3-2%203-2%203-10%200-18%200-18-2-18l-6-2-5-2v2M68%2081c-1%201-2%201-1%202v2l-2-1c-4-3-5%201-1%207l2%205%201%201%203%201c1%202%202%202%203%201h3c6%200%204-7-2-8-3-1-4-2%200-2l3-1%202-3v-2l1-1c-1-1-10-2-12-1M51%2097v2l1%203c0%206%205%2011%2018%2017l12%206c1-1-1-5-4-6s-3-3%200-3c3-1%203-3%200-3l-4-1-3-2c-2%200-10-6-15-11-4-3-5-4-5-2'%20fill='%23d3d3d3'%20fill-rule='evenodd'/%3e%3c/svg%3e"},"images":{"fallback":{"src":"/static/bdc8525039042bedd52c0cf7d15e8521/ac0cb/simon-agren.jpg","srcSet":"/static/bdc8525039042bedd52c0cf7d15e8521/ac0cb/simon-agren.jpg 48w,\n/static/bdc8525039042bedd52c0cf7d15e8521/73f48/simon-agren.jpg 96w","sizes":"48px"},"sources":[{"srcSet":"/static/bdc8525039042bedd52c0cf7d15e8521/a3542/simon-agren.webp 48w,\n/static/bdc8525039042bedd52c0cf7d15e8521/0f66d/simon-agren.webp 96w","type":"image/webp","sizes":"48px"}]},"width":48,"height":48},"ImageSharp_regular":{"layout":"fixed","placeholder":{"fallback":"data:image/svg+xml,%3csvg%20xmlns='http://www.w3.org/2000/svg'%20width='150'%20height='150'%20viewBox='0%200%20150%20150'%20preserveAspectRatio='none'%3e%3cpath%20d='M60%2012c-4%201-13%208-10%208l2-2%204-1c1%201%203%200%205-1%2011-4%2024%205%2024%2018l1%204%203%206-3%201-7%202c-3%203-3%203-3%2010l1%209c2%204-1%206-6%205l-4%201-1%202c-4%203-5%202-5%200a1139%201139%200%2001-3%201l-2%205%202%204c3%205%202%207-1%202-1-2-2-3-4-3l-2-1h-1c-1%202-3-1-4-7l-1-6c-2-2-2-14-1-15v-4l-1-4c-2-2-1-11%201-16%202-6%202-8-1-3l-8%2010a58%2058%200%200037%2098c46%206%2080-47%2055-88-6-10-23-24-31-25l-6-4c-9-8-20-10-30-6m21%2043l1%202%201%201v4l2%206%203%205h1c2%200%204%205%203%207l-2%202c-1-1-1%200-1%202s0%202%202%201c3-2%203-2%203-10%200-18%200-18-2-18l-6-2-5-2v2M68%2081c-1%201-2%201-1%202v2l-2-1c-4-3-5%201-1%207l2%205%201%201%203%201c1%202%202%202%203%201h3c6%200%204-7-2-8-3-1-4-2%200-2l3-1%202-3v-2l1-1c-1-1-10-2-12-1M51%2097v2l1%203c0%206%205%2011%2018%2017l12%206c1-1-1-5-4-6s-3-3%200-3c3-1%203-3%200-3l-4-1-3-2c-2%200-10-6-15-11-4-3-5-4-5-2'%20fill='%23d3d3d3'%20fill-rule='evenodd'/%3e%3c/svg%3e"},"images":{"fallback":{"src":"/static/bdc8525039042bedd52c0cf7d15e8521/f679f/simon-agren.jpg","srcSet":"/static/bdc8525039042bedd52c0cf7d15e8521/f679f/simon-agren.jpg 150w,\n/static/bdc8525039042bedd52c0cf7d15e8521/78d3d/simon-agren.jpg 300w","sizes":"150px"},"sources":[{"srcSet":"/static/bdc8525039042bedd52c0cf7d15e8521/ae23d/simon-agren.webp 150w,\n/static/bdc8525039042bedd52c0cf7d15e8521/bd37b/simon-agren.webp 300w","type":"image/webp","sizes":"150px"}]},"width":150,"height":150}}},"thumbnail":{"__typename":"ImageSharp","ImageSharp_vertical":{"layout":"constrained","backgroundColor":"#3898d8","images":{"fallback":{"src":"/static/d069abc39a202859cea11fc120ae11c0/19188/botframework5.png","srcSet":"/static/d069abc39a202859cea11fc120ae11c0/db297/botframework5.png 190w,\n/static/d069abc39a202859cea11fc120ae11c0/19188/botframework5.png 380w","sizes":"(min-width: 380px) 380px, 100vw"},"sources":[{"srcSet":"/static/d069abc39a202859cea11fc120ae11c0/228d6/botframework5.webp 190w,\n/static/d069abc39a202859cea11fc120ae11c0/6b99c/botframework5.webp 380w","type":"image/webp","sizes":"(min-width: 380px) 380px, 100vw"}]},"width":380,"height":290},"ImageSharp_hero":{"layout":"constrained","backgroundColor":"#3898d8","images":{"fallback":{"src":"/static/d069abc39a202859cea11fc120ae11c0/5fb32/botframework5.png","srcSet":"/static/d069abc39a202859cea11fc120ae11c0/739fd/botframework5.png 600w,\n/static/d069abc39a202859cea11fc120ae11c0/5fb32/botframework5.png 1200w","sizes":"(min-width: 1200px) 1200px, 100vw"},"sources":[{"srcSet":"/static/d069abc39a202859cea11fc120ae11c0/288e3/botframework5.webp 600w,\n/static/d069abc39a202859cea11fc120ae11c0/5b893/botframework5.webp 1200w","type":"image/webp","sizes":"(min-width: 1200px) 1200px, 100vw"}]},"width":1600,"height":650.6666666666666}}},{"id":"084e9867-ec33-5a14-9e1f-d91f4280dac2","title":"Azure AD & Microsoft Graph OAuth Connection, with Azure CLI","slug":"/azcli-connection/","link":null,"excerpt":"In the previous post  Azure AD & Microsoft Graph permission scopes, with Azure CLI , we registered…","timeToRead":1,"featured":null,"thumbnailText":null,"date":"March 11, 2020","category":{"id":"64f10eaf-091c-555c-a28e-13a12e934b04","name":"Azure","slug":"/category/azure/","color":"#007fff","icon":"/static/660faf3683bb1a8489baa9402bf62165/azure.svg"},"author":{"id":"6f313320-531a-5f32-9a22-708cb7653896","name":"Simon Ågren","slug":"/author/simon-agren/","title":"CTA & Microsoft MVP","description":"Solving business problems with tech","skills":["Microsoft 365","Azure"],"social":[{"name":"Github","url":"https://github.com/simonagren"},{"name":"Twitter","url":"https://twitter.com/agrenpoint"},{"name":"Website","url":"https://agrenpoint.com"}],"thumbnail":{"__typename":"ImageSharp","ImageSharp_small":{"layout":"fixed","placeholder":{"fallback":"data:image/svg+xml,%3csvg%20xmlns='http://www.w3.org/2000/svg'%20width='150'%20height='150'%20viewBox='0%200%20150%20150'%20preserveAspectRatio='none'%3e%3cpath%20d='M60%2012c-4%201-13%208-10%208l2-2%204-1c1%201%203%200%205-1%2011-4%2024%205%2024%2018l1%204%203%206-3%201-7%202c-3%203-3%203-3%2010l1%209c2%204-1%206-6%205l-4%201-1%202c-4%203-5%202-5%200a1139%201139%200%2001-3%201l-2%205%202%204c3%205%202%207-1%202-1-2-2-3-4-3l-2-1h-1c-1%202-3-1-4-7l-1-6c-2-2-2-14-1-15v-4l-1-4c-2-2-1-11%201-16%202-6%202-8-1-3l-8%2010a58%2058%200%200037%2098c46%206%2080-47%2055-88-6-10-23-24-31-25l-6-4c-9-8-20-10-30-6m21%2043l1%202%201%201v4l2%206%203%205h1c2%200%204%205%203%207l-2%202c-1-1-1%200-1%202s0%202%202%201c3-2%203-2%203-10%200-18%200-18-2-18l-6-2-5-2v2M68%2081c-1%201-2%201-1%202v2l-2-1c-4-3-5%201-1%207l2%205%201%201%203%201c1%202%202%202%203%201h3c6%200%204-7-2-8-3-1-4-2%200-2l3-1%202-3v-2l1-1c-1-1-10-2-12-1M51%2097v2l1%203c0%206%205%2011%2018%2017l12%206c1-1-1-5-4-6s-3-3%200-3c3-1%203-3%200-3l-4-1-3-2c-2%200-10-6-15-11-4-3-5-4-5-2'%20fill='%23d3d3d3'%20fill-rule='evenodd'/%3e%3c/svg%3e"},"images":{"fallback":{"src":"/static/bdc8525039042bedd52c0cf7d15e8521/ac0cb/simon-agren.jpg","srcSet":"/static/bdc8525039042bedd52c0cf7d15e8521/ac0cb/simon-agren.jpg 48w,\n/static/bdc8525039042bedd52c0cf7d15e8521/73f48/simon-agren.jpg 96w","sizes":"48px"},"sources":[{"srcSet":"/static/bdc8525039042bedd52c0cf7d15e8521/a3542/simon-agren.webp 48w,\n/static/bdc8525039042bedd52c0cf7d15e8521/0f66d/simon-agren.webp 96w","type":"image/webp","sizes":"48px"}]},"width":48,"height":48},"ImageSharp_regular":{"layout":"fixed","placeholder":{"fallback":"data:image/svg+xml,%3csvg%20xmlns='http://www.w3.org/2000/svg'%20width='150'%20height='150'%20viewBox='0%200%20150%20150'%20preserveAspectRatio='none'%3e%3cpath%20d='M60%2012c-4%201-13%208-10%208l2-2%204-1c1%201%203%200%205-1%2011-4%2024%205%2024%2018l1%204%203%206-3%201-7%202c-3%203-3%203-3%2010l1%209c2%204-1%206-6%205l-4%201-1%202c-4%203-5%202-5%200a1139%201139%200%2001-3%201l-2%205%202%204c3%205%202%207-1%202-1-2-2-3-4-3l-2-1h-1c-1%202-3-1-4-7l-1-6c-2-2-2-14-1-15v-4l-1-4c-2-2-1-11%201-16%202-6%202-8-1-3l-8%2010a58%2058%200%200037%2098c46%206%2080-47%2055-88-6-10-23-24-31-25l-6-4c-9-8-20-10-30-6m21%2043l1%202%201%201v4l2%206%203%205h1c2%200%204%205%203%207l-2%202c-1-1-1%200-1%202s0%202%202%201c3-2%203-2%203-10%200-18%200-18-2-18l-6-2-5-2v2M68%2081c-1%201-2%201-1%202v2l-2-1c-4-3-5%201-1%207l2%205%201%201%203%201c1%202%202%202%203%201h3c6%200%204-7-2-8-3-1-4-2%200-2l3-1%202-3v-2l1-1c-1-1-10-2-12-1M51%2097v2l1%203c0%206%205%2011%2018%2017l12%206c1-1-1-5-4-6s-3-3%200-3c3-1%203-3%200-3l-4-1-3-2c-2%200-10-6-15-11-4-3-5-4-5-2'%20fill='%23d3d3d3'%20fill-rule='evenodd'/%3e%3c/svg%3e"},"images":{"fallback":{"src":"/static/bdc8525039042bedd52c0cf7d15e8521/f679f/simon-agren.jpg","srcSet":"/static/bdc8525039042bedd52c0cf7d15e8521/f679f/simon-agren.jpg 150w,\n/static/bdc8525039042bedd52c0cf7d15e8521/78d3d/simon-agren.jpg 300w","sizes":"150px"},"sources":[{"srcSet":"/static/bdc8525039042bedd52c0cf7d15e8521/ae23d/simon-agren.webp 150w,\n/static/bdc8525039042bedd52c0cf7d15e8521/bd37b/simon-agren.webp 300w","type":"image/webp","sizes":"150px"}]},"width":150,"height":150}}},"thumbnail":{"__typename":"ImageSharp","ImageSharp_vertical":{"layout":"constrained","backgroundColor":"#080808","images":{"fallback":{"src":"/static/fba499085724398a27f00be5af554b7e/19188/azcli-connection.png","srcSet":"/static/fba499085724398a27f00be5af554b7e/db297/azcli-connection.png 190w,\n/static/fba499085724398a27f00be5af554b7e/19188/azcli-connection.png 380w","sizes":"(min-width: 380px) 380px, 100vw"},"sources":[{"srcSet":"/static/fba499085724398a27f00be5af554b7e/228d6/azcli-connection.webp 190w,\n/static/fba499085724398a27f00be5af554b7e/6b99c/azcli-connection.webp 380w","type":"image/webp","sizes":"(min-width: 380px) 380px, 100vw"}]},"width":380,"height":290},"ImageSharp_hero":{"layout":"constrained","backgroundColor":"#080808","images":{"fallback":{"src":"/static/fba499085724398a27f00be5af554b7e/5fb32/azcli-connection.png","srcSet":"/static/fba499085724398a27f00be5af554b7e/739fd/azcli-connection.png 600w,\n/static/fba499085724398a27f00be5af554b7e/5fb32/azcli-connection.png 1200w","sizes":"(min-width: 1200px) 1200px, 100vw"},"sources":[{"srcSet":"/static/fba499085724398a27f00be5af554b7e/288e3/azcli-connection.webp 600w,\n/static/fba499085724398a27f00be5af554b7e/5b893/azcli-connection.webp 1200w","type":"image/webp","sizes":"(min-width: 1200px) 1200px, 100vw"}]},"width":1600,"height":650.6666666666666}}},{"id":"d45b509b-06e7-5f59-9963-ab5041c1c9ec","title":"Azure AD & Microsoft Graph permission scopes, with Azure CLI","slug":"/azcli-adscope/","link":null,"excerpt":"In this small post, we will look at a scenario where we want to register an Azure AD Application…","timeToRead":3,"featured":null,"thumbnailText":null,"date":"March 09, 2020","category":{"id":"64f10eaf-091c-555c-a28e-13a12e934b04","name":"Azure","slug":"/category/azure/","color":"#007fff","icon":"/static/660faf3683bb1a8489baa9402bf62165/azure.svg"},"author":{"id":"6f313320-531a-5f32-9a22-708cb7653896","name":"Simon Ågren","slug":"/author/simon-agren/","title":"CTA & Microsoft MVP","description":"Solving business problems with tech","skills":["Microsoft 365","Azure"],"social":[{"name":"Github","url":"https://github.com/simonagren"},{"name":"Twitter","url":"https://twitter.com/agrenpoint"},{"name":"Website","url":"https://agrenpoint.com"}],"thumbnail":{"__typename":"ImageSharp","ImageSharp_small":{"layout":"fixed","placeholder":{"fallback":"data:image/svg+xml,%3csvg%20xmlns='http://www.w3.org/2000/svg'%20width='150'%20height='150'%20viewBox='0%200%20150%20150'%20preserveAspectRatio='none'%3e%3cpath%20d='M60%2012c-4%201-13%208-10%208l2-2%204-1c1%201%203%200%205-1%2011-4%2024%205%2024%2018l1%204%203%206-3%201-7%202c-3%203-3%203-3%2010l1%209c2%204-1%206-6%205l-4%201-1%202c-4%203-5%202-5%200a1139%201139%200%2001-3%201l-2%205%202%204c3%205%202%207-1%202-1-2-2-3-4-3l-2-1h-1c-1%202-3-1-4-7l-1-6c-2-2-2-14-1-15v-4l-1-4c-2-2-1-11%201-16%202-6%202-8-1-3l-8%2010a58%2058%200%200037%2098c46%206%2080-47%2055-88-6-10-23-24-31-25l-6-4c-9-8-20-10-30-6m21%2043l1%202%201%201v4l2%206%203%205h1c2%200%204%205%203%207l-2%202c-1-1-1%200-1%202s0%202%202%201c3-2%203-2%203-10%200-18%200-18-2-18l-6-2-5-2v2M68%2081c-1%201-2%201-1%202v2l-2-1c-4-3-5%201-1%207l2%205%201%201%203%201c1%202%202%202%203%201h3c6%200%204-7-2-8-3-1-4-2%200-2l3-1%202-3v-2l1-1c-1-1-10-2-12-1M51%2097v2l1%203c0%206%205%2011%2018%2017l12%206c1-1-1-5-4-6s-3-3%200-3c3-1%203-3%200-3l-4-1-3-2c-2%200-10-6-15-11-4-3-5-4-5-2'%20fill='%23d3d3d3'%20fill-rule='evenodd'/%3e%3c/svg%3e"},"images":{"fallback":{"src":"/static/bdc8525039042bedd52c0cf7d15e8521/ac0cb/simon-agren.jpg","srcSet":"/static/bdc8525039042bedd52c0cf7d15e8521/ac0cb/simon-agren.jpg 48w,\n/static/bdc8525039042bedd52c0cf7d15e8521/73f48/simon-agren.jpg 96w","sizes":"48px"},"sources":[{"srcSet":"/static/bdc8525039042bedd52c0cf7d15e8521/a3542/simon-agren.webp 48w,\n/static/bdc8525039042bedd52c0cf7d15e8521/0f66d/simon-agren.webp 96w","type":"image/webp","sizes":"48px"}]},"width":48,"height":48},"ImageSharp_regular":{"layout":"fixed","placeholder":{"fallback":"data:image/svg+xml,%3csvg%20xmlns='http://www.w3.org/2000/svg'%20width='150'%20height='150'%20viewBox='0%200%20150%20150'%20preserveAspectRatio='none'%3e%3cpath%20d='M60%2012c-4%201-13%208-10%208l2-2%204-1c1%201%203%200%205-1%2011-4%2024%205%2024%2018l1%204%203%206-3%201-7%202c-3%203-3%203-3%2010l1%209c2%204-1%206-6%205l-4%201-1%202c-4%203-5%202-5%200a1139%201139%200%2001-3%201l-2%205%202%204c3%205%202%207-1%202-1-2-2-3-4-3l-2-1h-1c-1%202-3-1-4-7l-1-6c-2-2-2-14-1-15v-4l-1-4c-2-2-1-11%201-16%202-6%202-8-1-3l-8%2010a58%2058%200%200037%2098c46%206%2080-47%2055-88-6-10-23-24-31-25l-6-4c-9-8-20-10-30-6m21%2043l1%202%201%201v4l2%206%203%205h1c2%200%204%205%203%207l-2%202c-1-1-1%200-1%202s0%202%202%201c3-2%203-2%203-10%200-18%200-18-2-18l-6-2-5-2v2M68%2081c-1%201-2%201-1%202v2l-2-1c-4-3-5%201-1%207l2%205%201%201%203%201c1%202%202%202%203%201h3c6%200%204-7-2-8-3-1-4-2%200-2l3-1%202-3v-2l1-1c-1-1-10-2-12-1M51%2097v2l1%203c0%206%205%2011%2018%2017l12%206c1-1-1-5-4-6s-3-3%200-3c3-1%203-3%200-3l-4-1-3-2c-2%200-10-6-15-11-4-3-5-4-5-2'%20fill='%23d3d3d3'%20fill-rule='evenodd'/%3e%3c/svg%3e"},"images":{"fallback":{"src":"/static/bdc8525039042bedd52c0cf7d15e8521/f679f/simon-agren.jpg","srcSet":"/static/bdc8525039042bedd52c0cf7d15e8521/f679f/simon-agren.jpg 150w,\n/static/bdc8525039042bedd52c0cf7d15e8521/78d3d/simon-agren.jpg 300w","sizes":"150px"},"sources":[{"srcSet":"/static/bdc8525039042bedd52c0cf7d15e8521/ae23d/simon-agren.webp 150w,\n/static/bdc8525039042bedd52c0cf7d15e8521/bd37b/simon-agren.webp 300w","type":"image/webp","sizes":"150px"}]},"width":150,"height":150}}},"thumbnail":{"__typename":"ImageSharp","ImageSharp_vertical":{"layout":"constrained","backgroundColor":"#080808","images":{"fallback":{"src":"/static/e5aceb9744ad9f189605a624aef5497e/19188/azcli-scopes.png","srcSet":"/static/e5aceb9744ad9f189605a624aef5497e/db297/azcli-scopes.png 190w,\n/static/e5aceb9744ad9f189605a624aef5497e/19188/azcli-scopes.png 380w","sizes":"(min-width: 380px) 380px, 100vw"},"sources":[{"srcSet":"/static/e5aceb9744ad9f189605a624aef5497e/228d6/azcli-scopes.webp 190w,\n/static/e5aceb9744ad9f189605a624aef5497e/6b99c/azcli-scopes.webp 380w","type":"image/webp","sizes":"(min-width: 380px) 380px, 100vw"}]},"width":380,"height":290},"ImageSharp_hero":{"layout":"constrained","backgroundColor":"#080808","images":{"fallback":{"src":"/static/e5aceb9744ad9f189605a624aef5497e/5fb32/azcli-scopes.png","srcSet":"/static/e5aceb9744ad9f189605a624aef5497e/739fd/azcli-scopes.png 600w,\n/static/e5aceb9744ad9f189605a624aef5497e/5fb32/azcli-scopes.png 1200w","sizes":"(min-width: 1200px) 1200px, 100vw"},"sources":[{"srcSet":"/static/e5aceb9744ad9f189605a624aef5497e/288e3/azcli-scopes.webp 600w,\n/static/e5aceb9744ad9f189605a624aef5497e/5b893/azcli-scopes.webp 1200w","type":"image/webp","sizes":"(min-width: 1200px) 1200px, 100vw"}]},"width":1600,"height":650.6666666666666}}}],"pageInfo":{"pageCount":2,"hasPreviousPage":true,"hasNextPage":false,"currentPage":2},"totalCount":10}},"pageContext":{"slug":"/tag/msgraph/","limit":6,"skip":6,"collectionType":"tags","paginatePostsPage":true,"basePath":"/","services":{"algolia":true,"mailchimp":false,"disqus":false,"graphComment":true,"facebookComment":false},"siteUrl":"https://www.agrenpoint.com","mobileMenu":{"title":"Topics","items":[{"name":"Azure","slug":"/category/azure/"},{"name":"Endpoint management","slug":"/category/endpoint-management/"},{"name":"Microsoft 365","slug":"/category/microsoft-365/"}]},"darkMode":true,"includeExcerpt":true,"includeTimeToRead":true,"includeTableOfContents":true,"imageQuality":75,"currentDate":"2024-12-08"}},"staticQueryHashes":["1992822086","2409295108","2925947909"]}