{"componentChunkName":"component---packages-blog-gatsby-blog-core-src-templates-collection-tag-js","path":"/tag/pnp/page/3/","result":{"data":{"collectionInfo":{"id":"6713309e-fa1a-584b-960e-f8bec674ab65","name":"pnp","slug":"/tag/pnp/"},"posts":{"nodes":[{"id":"64a6b995-03f8-5c5d-838a-7578336e266c","title":"Create a Microsoft Team using site designs, Flow and Hub Sites","slug":"/create-team-site-script/","link":null,"excerpt":"I was asked a few days ago if we could automate  Microsoft Teams  creation when a Modern Team Site…","timeToRead":2,"featured":null,"thumbnailText":null,"date":"November 08, 2018","category":{"id":"b0babac0-675d-51af-aa7a-ce603b3a7af4","name":"Microsoft 365","slug":"/category/microsoft-365/","color":"#f25022","icon":"/static/363fdd53d34303b727d9dab161b8e88b/microsoft365.svg"},"author":{"id":"6f313320-531a-5f32-9a22-708cb7653896","name":"Simon Ågren","slug":"/author/simon-agren/","title":"CTA & Microsoft MVP","description":"Solving business problems with tech","skills":["Microsoft 365","Azure"],"social":[{"name":"Github","url":"https://github.com/simonagren"},{"name":"Twitter","url":"https://twitter.com/agrenpoint"},{"name":"Website","url":"https://agrenpoint.com"}],"thumbnail":{"__typename":"ImageSharp","ImageSharp_small":{"layout":"fixed","backgroundColor":"#f8f8f8","images":{"fallback":{"src":"/static/bdc8525039042bedd52c0cf7d15e8521/ac0cb/simon-agren.jpg","srcSet":"/static/bdc8525039042bedd52c0cf7d15e8521/ac0cb/simon-agren.jpg 48w,\n/static/bdc8525039042bedd52c0cf7d15e8521/73f48/simon-agren.jpg 96w","sizes":"48px"},"sources":[{"srcSet":"/static/bdc8525039042bedd52c0cf7d15e8521/a3542/simon-agren.webp 48w,\n/static/bdc8525039042bedd52c0cf7d15e8521/0f66d/simon-agren.webp 96w","type":"image/webp","sizes":"48px"}]},"width":48,"height":48},"ImageSharp_regular":{"layout":"fixed","backgroundColor":"#f8f8f8","images":{"fallback":{"src":"/static/bdc8525039042bedd52c0cf7d15e8521/f679f/simon-agren.jpg","srcSet":"/static/bdc8525039042bedd52c0cf7d15e8521/f679f/simon-agren.jpg 150w,\n/static/bdc8525039042bedd52c0cf7d15e8521/78d3d/simon-agren.jpg 300w","sizes":"150px"},"sources":[{"srcSet":"/static/bdc8525039042bedd52c0cf7d15e8521/ae23d/simon-agren.webp 150w,\n/static/bdc8525039042bedd52c0cf7d15e8521/bd37b/simon-agren.webp 300w","type":"image/webp","sizes":"150px"}]},"width":150,"height":150}}},"thumbnail":{"__typename":"ImageSharp","ImageSharp_vertical":{"layout":"constrained","backgroundColor":"#f8f8f8","images":{"fallback":{"src":"/static/b3efa29ae13967ac3136f9727b3cd824/144fe/success.jpg","srcSet":"/static/b3efa29ae13967ac3136f9727b3cd824/9d7b9/success.jpg 190w,\n/static/b3efa29ae13967ac3136f9727b3cd824/144fe/success.jpg 380w","sizes":"(min-width: 380px) 380px, 100vw"},"sources":[{"srcSet":"/static/b3efa29ae13967ac3136f9727b3cd824/228d6/success.webp 190w,\n/static/b3efa29ae13967ac3136f9727b3cd824/6b99c/success.webp 380w","type":"image/webp","sizes":"(min-width: 380px) 380px, 100vw"}]},"width":380,"height":290},"ImageSharp_hero":{"layout":"constrained","backgroundColor":"#f8f8f8","images":{"fallback":{"src":"/static/b3efa29ae13967ac3136f9727b3cd824/49675/success.jpg","srcSet":"/static/b3efa29ae13967ac3136f9727b3cd824/7463f/success.jpg 626w,\n/static/b3efa29ae13967ac3136f9727b3cd824/49675/success.jpg 1252w","sizes":"(min-width: 1252px) 1252px, 100vw"},"sources":[{"srcSet":"/static/b3efa29ae13967ac3136f9727b3cd824/509fe/success.webp 626w,\n/static/b3efa29ae13967ac3136f9727b3cd824/41f78/success.webp 1252w","type":"image/webp","sizes":"(min-width: 1252px) 1252px, 100vw"}]},"width":1600,"height":650.479233226837}}}],"pageInfo":{"pageCount":3,"hasPreviousPage":true,"hasNextPage":false,"currentPage":3},"totalCount":13}},"pageContext":{"slug":"/tag/pnp/","limit":6,"skip":12,"collectionType":"tags","paginatePostsPage":true,"basePath":"/","services":{"algolia":true,"mailchimp":false,"disqus":false,"graphComment":true,"facebookComment":false},"siteUrl":"https://www.agrenpoint.com","mobileMenu":{"title":"Topics","items":[{"name":"Azure","slug":"/category/azure/"},{"name":"Endpoint management","slug":"/category/endpoint-management/"},{"name":"Microsoft 365","slug":"/category/microsoft-365/"}]},"darkMode":true,"includeExcerpt":true,"includeTimeToRead":true,"includeTableOfContents":true,"imageQuality":75,"currentDate":"2026-03-02"}},"staticQueryHashes":["1992822086","2409295108","2925947909"]}