{"componentChunkName":"component---packages-blog-gatsby-blog-core-src-templates-collection-tag-js","path":"/tag/powershell/page/3/","result":{"data":{"collectionInfo":{"id":"321da9ae-ab2b-531e-8eef-7345d17e4396","name":"powershell","slug":"/tag/powershell/"},"posts":{"nodes":[{"id":"548d5f1d-a4c6-531f-8c21-b9ae76576627","title":"When the UI fails - Update Sensitivity Labels via PowerShell","slug":"/when-the-ui-fails-update-sensitivity-labels-via-powershell/","link":null,"excerpt":"Working in  Microsoft Purview , I recently came across a bug. After creating  Sensitivity Labels…","timeToRead":1,"featured":true,"thumbnailText":null,"date":"April 30, 2023","category":{"id":"b0babac0-675d-51af-aa7a-ce603b3a7af4","name":"Microsoft 365","slug":"/category/microsoft-365/","color":"#f25022","icon":"/static/363fdd53d34303b727d9dab161b8e88b/microsoft365.svg"},"author":{"id":"6f313320-531a-5f32-9a22-708cb7653896","name":"Simon Ågren","slug":"/author/simon-agren/","title":"CTA & Microsoft MVP","description":"Solving business problems with tech","skills":["Microsoft 365","Azure"],"social":[{"name":"Github","url":"https://github.com/simonagren"},{"name":"Twitter","url":"https://twitter.com/agrenpoint"},{"name":"Website","url":"https://agrenpoint.com"}],"thumbnail":{"__typename":"ImageSharp","ImageSharp_small":{"layout":"fixed","backgroundColor":"#f8f8f8","images":{"fallback":{"src":"/static/bdc8525039042bedd52c0cf7d15e8521/ac0cb/simon-agren.jpg","srcSet":"/static/bdc8525039042bedd52c0cf7d15e8521/ac0cb/simon-agren.jpg 48w,\n/static/bdc8525039042bedd52c0cf7d15e8521/73f48/simon-agren.jpg 96w","sizes":"48px"},"sources":[{"srcSet":"/static/bdc8525039042bedd52c0cf7d15e8521/a3542/simon-agren.webp 48w,\n/static/bdc8525039042bedd52c0cf7d15e8521/0f66d/simon-agren.webp 96w","type":"image/webp","sizes":"48px"}]},"width":48,"height":48},"ImageSharp_regular":{"layout":"fixed","backgroundColor":"#f8f8f8","images":{"fallback":{"src":"/static/bdc8525039042bedd52c0cf7d15e8521/f679f/simon-agren.jpg","srcSet":"/static/bdc8525039042bedd52c0cf7d15e8521/f679f/simon-agren.jpg 150w,\n/static/bdc8525039042bedd52c0cf7d15e8521/78d3d/simon-agren.jpg 300w","sizes":"150px"},"sources":[{"srcSet":"/static/bdc8525039042bedd52c0cf7d15e8521/ae23d/simon-agren.webp 150w,\n/static/bdc8525039042bedd52c0cf7d15e8521/bd37b/simon-agren.webp 300w","type":"image/webp","sizes":"150px"}]},"width":150,"height":150}}},"thumbnail":{"__typename":"ImageSharp","ImageSharp_vertical":{"layout":"constrained","backgroundColor":"#d84808","images":{"fallback":{"src":"/static/5d507db04dc02dcc7458f69b1f0cc4b8/144fe/image.jpg","srcSet":"/static/5d507db04dc02dcc7458f69b1f0cc4b8/9d7b9/image.jpg 190w,\n/static/5d507db04dc02dcc7458f69b1f0cc4b8/144fe/image.jpg 380w","sizes":"(min-width: 380px) 380px, 100vw"},"sources":[{"srcSet":"/static/5d507db04dc02dcc7458f69b1f0cc4b8/228d6/image.webp 190w,\n/static/5d507db04dc02dcc7458f69b1f0cc4b8/6b99c/image.webp 380w","type":"image/webp","sizes":"(min-width: 380px) 380px, 100vw"}]},"width":380,"height":290},"ImageSharp_hero":{"layout":"constrained","backgroundColor":"#d84808","images":{"fallback":{"src":"/static/5d507db04dc02dcc7458f69b1f0cc4b8/7a1ff/image.jpg","srcSet":"/static/5d507db04dc02dcc7458f69b1f0cc4b8/a6b27/image.jpg 512w,\n/static/5d507db04dc02dcc7458f69b1f0cc4b8/7a1ff/image.jpg 1024w","sizes":"(min-width: 1024px) 1024px, 100vw"},"sources":[{"srcSet":"/static/5d507db04dc02dcc7458f69b1f0cc4b8/99476/image.webp 512w,\n/static/5d507db04dc02dcc7458f69b1f0cc4b8/251f6/image.webp 1024w","type":"image/webp","sizes":"(min-width: 1024px) 1024px, 100vw"}]},"width":1600,"height":650}}},{"id":"3ef466ca-640a-51af-9dc9-ec47bcf869bb","title":"Microsoft Purview Custom SIT via PowerShell","slug":"/microsoft-purview-custom-sit-via-powershell/","link":null,"excerpt":"Introduction It's really about defining what is sensitive in your organization, and we could use…","timeToRead":2,"featured":true,"thumbnailText":null,"date":"March 01, 2023","category":{"id":"b0babac0-675d-51af-aa7a-ce603b3a7af4","name":"Microsoft 365","slug":"/category/microsoft-365/","color":"#f25022","icon":"/static/363fdd53d34303b727d9dab161b8e88b/microsoft365.svg"},"author":{"id":"6f313320-531a-5f32-9a22-708cb7653896","name":"Simon Ågren","slug":"/author/simon-agren/","title":"CTA & Microsoft MVP","description":"Solving business problems with tech","skills":["Microsoft 365","Azure"],"social":[{"name":"Github","url":"https://github.com/simonagren"},{"name":"Twitter","url":"https://twitter.com/agrenpoint"},{"name":"Website","url":"https://agrenpoint.com"}],"thumbnail":{"__typename":"ImageSharp","ImageSharp_small":{"layout":"fixed","backgroundColor":"#f8f8f8","images":{"fallback":{"src":"/static/bdc8525039042bedd52c0cf7d15e8521/ac0cb/simon-agren.jpg","srcSet":"/static/bdc8525039042bedd52c0cf7d15e8521/ac0cb/simon-agren.jpg 48w,\n/static/bdc8525039042bedd52c0cf7d15e8521/73f48/simon-agren.jpg 96w","sizes":"48px"},"sources":[{"srcSet":"/static/bdc8525039042bedd52c0cf7d15e8521/a3542/simon-agren.webp 48w,\n/static/bdc8525039042bedd52c0cf7d15e8521/0f66d/simon-agren.webp 96w","type":"image/webp","sizes":"48px"}]},"width":48,"height":48},"ImageSharp_regular":{"layout":"fixed","backgroundColor":"#f8f8f8","images":{"fallback":{"src":"/static/bdc8525039042bedd52c0cf7d15e8521/f679f/simon-agren.jpg","srcSet":"/static/bdc8525039042bedd52c0cf7d15e8521/f679f/simon-agren.jpg 150w,\n/static/bdc8525039042bedd52c0cf7d15e8521/78d3d/simon-agren.jpg 300w","sizes":"150px"},"sources":[{"srcSet":"/static/bdc8525039042bedd52c0cf7d15e8521/ae23d/simon-agren.webp 150w,\n/static/bdc8525039042bedd52c0cf7d15e8521/bd37b/simon-agren.webp 300w","type":"image/webp","sizes":"150px"}]},"width":150,"height":150}}},"thumbnail":{"__typename":"ImageSharp","ImageSharp_vertical":{"layout":"constrained","backgroundColor":"#080808","images":{"fallback":{"src":"/static/f3aa06e1ac1b82e7664e4cbf387037b8/19188/image.png","srcSet":"/static/f3aa06e1ac1b82e7664e4cbf387037b8/db297/image.png 190w,\n/static/f3aa06e1ac1b82e7664e4cbf387037b8/19188/image.png 380w","sizes":"(min-width: 380px) 380px, 100vw"},"sources":[{"srcSet":"/static/f3aa06e1ac1b82e7664e4cbf387037b8/228d6/image.webp 190w,\n/static/f3aa06e1ac1b82e7664e4cbf387037b8/6b99c/image.webp 380w","type":"image/webp","sizes":"(min-width: 380px) 380px, 100vw"}]},"width":380,"height":290},"ImageSharp_hero":{"layout":"constrained","backgroundColor":"#080808","images":{"fallback":{"src":"/static/f3aa06e1ac1b82e7664e4cbf387037b8/739fd/image.png","srcSet":"/static/f3aa06e1ac1b82e7664e4cbf387037b8/a16e7/image.png 300w,\n/static/f3aa06e1ac1b82e7664e4cbf387037b8/739fd/image.png 600w","sizes":"(min-width: 600px) 600px, 100vw"},"sources":[{"srcSet":"/static/f3aa06e1ac1b82e7664e4cbf387037b8/797c8/image.webp 300w,\n/static/f3aa06e1ac1b82e7664e4cbf387037b8/288e3/image.webp 600w","type":"image/webp","sizes":"(min-width: 600px) 600px, 100vw"}]},"width":1600,"height":650.6666666666666}}},{"id":"794c3ec0-2ada-5da3-8a05-c9a74586d576","title":"Groupify a SharePoint site - the collection","slug":"/groupify-a-sharepoint-site-the-collection/","link":null,"excerpt":"Introduction It's been a long time since I worked in the classic experience in SharePoint or even…","timeToRead":2,"featured":false,"thumbnailText":null,"date":"September 10, 2022","category":{"id":"b0babac0-675d-51af-aa7a-ce603b3a7af4","name":"Microsoft 365","slug":"/category/microsoft-365/","color":"#f25022","icon":"/static/363fdd53d34303b727d9dab161b8e88b/microsoft365.svg"},"author":{"id":"6f313320-531a-5f32-9a22-708cb7653896","name":"Simon Ågren","slug":"/author/simon-agren/","title":"CTA & Microsoft MVP","description":"Solving business problems with tech","skills":["Microsoft 365","Azure"],"social":[{"name":"Github","url":"https://github.com/simonagren"},{"name":"Twitter","url":"https://twitter.com/agrenpoint"},{"name":"Website","url":"https://agrenpoint.com"}],"thumbnail":{"__typename":"ImageSharp","ImageSharp_small":{"layout":"fixed","backgroundColor":"#f8f8f8","images":{"fallback":{"src":"/static/bdc8525039042bedd52c0cf7d15e8521/ac0cb/simon-agren.jpg","srcSet":"/static/bdc8525039042bedd52c0cf7d15e8521/ac0cb/simon-agren.jpg 48w,\n/static/bdc8525039042bedd52c0cf7d15e8521/73f48/simon-agren.jpg 96w","sizes":"48px"},"sources":[{"srcSet":"/static/bdc8525039042bedd52c0cf7d15e8521/a3542/simon-agren.webp 48w,\n/static/bdc8525039042bedd52c0cf7d15e8521/0f66d/simon-agren.webp 96w","type":"image/webp","sizes":"48px"}]},"width":48,"height":48},"ImageSharp_regular":{"layout":"fixed","backgroundColor":"#f8f8f8","images":{"fallback":{"src":"/static/bdc8525039042bedd52c0cf7d15e8521/f679f/simon-agren.jpg","srcSet":"/static/bdc8525039042bedd52c0cf7d15e8521/f679f/simon-agren.jpg 150w,\n/static/bdc8525039042bedd52c0cf7d15e8521/78d3d/simon-agren.jpg 300w","sizes":"150px"},"sources":[{"srcSet":"/static/bdc8525039042bedd52c0cf7d15e8521/ae23d/simon-agren.webp 150w,\n/static/bdc8525039042bedd52c0cf7d15e8521/bd37b/simon-agren.webp 300w","type":"image/webp","sizes":"150px"}]},"width":150,"height":150}}},"thumbnail":{"__typename":"ImageSharp","ImageSharp_vertical":{"layout":"constrained","backgroundColor":"#a82828","images":{"fallback":{"src":"/static/b84fdeaa6d6ddfa3bba9145b83d179fc/144fe/image.jpg","srcSet":"/static/b84fdeaa6d6ddfa3bba9145b83d179fc/9d7b9/image.jpg 190w,\n/static/b84fdeaa6d6ddfa3bba9145b83d179fc/144fe/image.jpg 380w","sizes":"(min-width: 380px) 380px, 100vw"},"sources":[{"srcSet":"/static/b84fdeaa6d6ddfa3bba9145b83d179fc/228d6/image.webp 190w,\n/static/b84fdeaa6d6ddfa3bba9145b83d179fc/6b99c/image.webp 380w","type":"image/webp","sizes":"(min-width: 380px) 380px, 100vw"}]},"width":380,"height":290},"ImageSharp_hero":{"layout":"constrained","backgroundColor":"#a82828","images":{"fallback":{"src":"/static/b84fdeaa6d6ddfa3bba9145b83d179fc/5e493/image.jpg","srcSet":"/static/b84fdeaa6d6ddfa3bba9145b83d179fc/696c0/image.jpg 800w,\n/static/b84fdeaa6d6ddfa3bba9145b83d179fc/5e493/image.jpg 1600w","sizes":"(min-width: 1600px) 1600px, 100vw"},"sources":[{"srcSet":"/static/b84fdeaa6d6ddfa3bba9145b83d179fc/c9f06/image.webp 800w,\n/static/b84fdeaa6d6ddfa3bba9145b83d179fc/f47df/image.webp 1600w","type":"image/webp","sizes":"(min-width: 1600px) 1600px, 100vw"}]},"width":1600,"height":650}}},{"id":"10e371af-625c-5cd0-a411-b450635fb2b6","title":"Groupify a SharePoint Online Site using M365 CLI","slug":"/groupify-a-sharepoint-online-site-using-m365-cli/","link":null,"excerpt":"This post will explore connecting a new Microsoft 365 group with an existing SharePoint Online site…","timeToRead":1,"featured":false,"thumbnailText":null,"date":"September 09, 2022","category":{"id":"b0babac0-675d-51af-aa7a-ce603b3a7af4","name":"Microsoft 365","slug":"/category/microsoft-365/","color":"#f25022","icon":"/static/363fdd53d34303b727d9dab161b8e88b/microsoft365.svg"},"author":{"id":"6f313320-531a-5f32-9a22-708cb7653896","name":"Simon Ågren","slug":"/author/simon-agren/","title":"CTA & Microsoft MVP","description":"Solving business problems with tech","skills":["Microsoft 365","Azure"],"social":[{"name":"Github","url":"https://github.com/simonagren"},{"name":"Twitter","url":"https://twitter.com/agrenpoint"},{"name":"Website","url":"https://agrenpoint.com"}],"thumbnail":{"__typename":"ImageSharp","ImageSharp_small":{"layout":"fixed","backgroundColor":"#f8f8f8","images":{"fallback":{"src":"/static/bdc8525039042bedd52c0cf7d15e8521/ac0cb/simon-agren.jpg","srcSet":"/static/bdc8525039042bedd52c0cf7d15e8521/ac0cb/simon-agren.jpg 48w,\n/static/bdc8525039042bedd52c0cf7d15e8521/73f48/simon-agren.jpg 96w","sizes":"48px"},"sources":[{"srcSet":"/static/bdc8525039042bedd52c0cf7d15e8521/a3542/simon-agren.webp 48w,\n/static/bdc8525039042bedd52c0cf7d15e8521/0f66d/simon-agren.webp 96w","type":"image/webp","sizes":"48px"}]},"width":48,"height":48},"ImageSharp_regular":{"layout":"fixed","backgroundColor":"#f8f8f8","images":{"fallback":{"src":"/static/bdc8525039042bedd52c0cf7d15e8521/f679f/simon-agren.jpg","srcSet":"/static/bdc8525039042bedd52c0cf7d15e8521/f679f/simon-agren.jpg 150w,\n/static/bdc8525039042bedd52c0cf7d15e8521/78d3d/simon-agren.jpg 300w","sizes":"150px"},"sources":[{"srcSet":"/static/bdc8525039042bedd52c0cf7d15e8521/ae23d/simon-agren.webp 150w,\n/static/bdc8525039042bedd52c0cf7d15e8521/bd37b/simon-agren.webp 300w","type":"image/webp","sizes":"150px"}]},"width":150,"height":150}}},"thumbnail":{"__typename":"ImageSharp","ImageSharp_vertical":{"layout":"constrained","backgroundColor":"#080808","images":{"fallback":{"src":"/static/fbd187d766ca3c3fe34f18c0b145ab0c/19188/image.png","srcSet":"/static/fbd187d766ca3c3fe34f18c0b145ab0c/db297/image.png 190w,\n/static/fbd187d766ca3c3fe34f18c0b145ab0c/19188/image.png 380w","sizes":"(min-width: 380px) 380px, 100vw"},"sources":[{"srcSet":"/static/fbd187d766ca3c3fe34f18c0b145ab0c/228d6/image.webp 190w,\n/static/fbd187d766ca3c3fe34f18c0b145ab0c/6b99c/image.webp 380w","type":"image/webp","sizes":"(min-width: 380px) 380px, 100vw"}]},"width":380,"height":290},"ImageSharp_hero":{"layout":"constrained","backgroundColor":"#080808","images":{"fallback":{"src":"/static/fbd187d766ca3c3fe34f18c0b145ab0c/5fb32/image.png","srcSet":"/static/fbd187d766ca3c3fe34f18c0b145ab0c/739fd/image.png 600w,\n/static/fbd187d766ca3c3fe34f18c0b145ab0c/5fb32/image.png 1200w","sizes":"(min-width: 1200px) 1200px, 100vw"},"sources":[{"srcSet":"/static/fbd187d766ca3c3fe34f18c0b145ab0c/288e3/image.webp 600w,\n/static/fbd187d766ca3c3fe34f18c0b145ab0c/5b893/image.webp 1200w","type":"image/webp","sizes":"(min-width: 1200px) 1200px, 100vw"}]},"width":1600,"height":650.6666666666666}}},{"id":"89611302-1830-55b2-a6fe-97f9eb744016","title":"Groupify a SharePoint Online Site using PnP PowerShell","slug":"/groupify-a-sharepoint-online-site-using-pnp-powershell/","link":null,"excerpt":"This post will explore connecting a new Microsoft 365 group with an existing SharePoint Online site…","timeToRead":1,"featured":false,"thumbnailText":null,"date":"September 07, 2022","category":{"id":"b0babac0-675d-51af-aa7a-ce603b3a7af4","name":"Microsoft 365","slug":"/category/microsoft-365/","color":"#f25022","icon":"/static/363fdd53d34303b727d9dab161b8e88b/microsoft365.svg"},"author":{"id":"6f313320-531a-5f32-9a22-708cb7653896","name":"Simon Ågren","slug":"/author/simon-agren/","title":"CTA & Microsoft MVP","description":"Solving business problems with tech","skills":["Microsoft 365","Azure"],"social":[{"name":"Github","url":"https://github.com/simonagren"},{"name":"Twitter","url":"https://twitter.com/agrenpoint"},{"name":"Website","url":"https://agrenpoint.com"}],"thumbnail":{"__typename":"ImageSharp","ImageSharp_small":{"layout":"fixed","backgroundColor":"#f8f8f8","images":{"fallback":{"src":"/static/bdc8525039042bedd52c0cf7d15e8521/ac0cb/simon-agren.jpg","srcSet":"/static/bdc8525039042bedd52c0cf7d15e8521/ac0cb/simon-agren.jpg 48w,\n/static/bdc8525039042bedd52c0cf7d15e8521/73f48/simon-agren.jpg 96w","sizes":"48px"},"sources":[{"srcSet":"/static/bdc8525039042bedd52c0cf7d15e8521/a3542/simon-agren.webp 48w,\n/static/bdc8525039042bedd52c0cf7d15e8521/0f66d/simon-agren.webp 96w","type":"image/webp","sizes":"48px"}]},"width":48,"height":48},"ImageSharp_regular":{"layout":"fixed","backgroundColor":"#f8f8f8","images":{"fallback":{"src":"/static/bdc8525039042bedd52c0cf7d15e8521/f679f/simon-agren.jpg","srcSet":"/static/bdc8525039042bedd52c0cf7d15e8521/f679f/simon-agren.jpg 150w,\n/static/bdc8525039042bedd52c0cf7d15e8521/78d3d/simon-agren.jpg 300w","sizes":"150px"},"sources":[{"srcSet":"/static/bdc8525039042bedd52c0cf7d15e8521/ae23d/simon-agren.webp 150w,\n/static/bdc8525039042bedd52c0cf7d15e8521/bd37b/simon-agren.webp 300w","type":"image/webp","sizes":"150px"}]},"width":150,"height":150}}},"thumbnail":{"__typename":"ImageSharp","ImageSharp_vertical":{"layout":"constrained","backgroundColor":"#2878b8","images":{"fallback":{"src":"/static/62d18fa354fac9b087b2bd843ff58cb5/19188/image.png","srcSet":"/static/62d18fa354fac9b087b2bd843ff58cb5/db297/image.png 190w,\n/static/62d18fa354fac9b087b2bd843ff58cb5/19188/image.png 380w","sizes":"(min-width: 380px) 380px, 100vw"},"sources":[{"srcSet":"/static/62d18fa354fac9b087b2bd843ff58cb5/228d6/image.webp 190w,\n/static/62d18fa354fac9b087b2bd843ff58cb5/6b99c/image.webp 380w","type":"image/webp","sizes":"(min-width: 380px) 380px, 100vw"}]},"width":380,"height":290},"ImageSharp_hero":{"layout":"constrained","backgroundColor":"#2878b8","images":{"fallback":{"src":"/static/62d18fa354fac9b087b2bd843ff58cb5/5fb32/image.png","srcSet":"/static/62d18fa354fac9b087b2bd843ff58cb5/739fd/image.png 600w,\n/static/62d18fa354fac9b087b2bd843ff58cb5/5fb32/image.png 1200w","sizes":"(min-width: 1200px) 1200px, 100vw"},"sources":[{"srcSet":"/static/62d18fa354fac9b087b2bd843ff58cb5/288e3/image.webp 600w,\n/static/62d18fa354fac9b087b2bd843ff58cb5/5b893/image.webp 1200w","type":"image/webp","sizes":"(min-width: 1200px) 1200px, 100vw"}]},"width":1600,"height":650.6666666666666}}},{"id":"00bef739-c23a-527c-99b2-d839811a4ac4","title":"Groupify a SharePoint Online Site using PowerShell","slug":"/groupify-a-sharepoint-online-site-using-powershell/","link":null,"excerpt":"In this post, I will explain how to programmatically connect an existing top-level SharePoint Online…","timeToRead":1,"featured":false,"thumbnailText":null,"date":"September 04, 2022","category":{"id":"b0babac0-675d-51af-aa7a-ce603b3a7af4","name":"Microsoft 365","slug":"/category/microsoft-365/","color":"#f25022","icon":"/static/363fdd53d34303b727d9dab161b8e88b/microsoft365.svg"},"author":{"id":"6f313320-531a-5f32-9a22-708cb7653896","name":"Simon Ågren","slug":"/author/simon-agren/","title":"CTA & Microsoft MVP","description":"Solving business problems with tech","skills":["Microsoft 365","Azure"],"social":[{"name":"Github","url":"https://github.com/simonagren"},{"name":"Twitter","url":"https://twitter.com/agrenpoint"},{"name":"Website","url":"https://agrenpoint.com"}],"thumbnail":{"__typename":"ImageSharp","ImageSharp_small":{"layout":"fixed","backgroundColor":"#f8f8f8","images":{"fallback":{"src":"/static/bdc8525039042bedd52c0cf7d15e8521/ac0cb/simon-agren.jpg","srcSet":"/static/bdc8525039042bedd52c0cf7d15e8521/ac0cb/simon-agren.jpg 48w,\n/static/bdc8525039042bedd52c0cf7d15e8521/73f48/simon-agren.jpg 96w","sizes":"48px"},"sources":[{"srcSet":"/static/bdc8525039042bedd52c0cf7d15e8521/a3542/simon-agren.webp 48w,\n/static/bdc8525039042bedd52c0cf7d15e8521/0f66d/simon-agren.webp 96w","type":"image/webp","sizes":"48px"}]},"width":48,"height":48},"ImageSharp_regular":{"layout":"fixed","backgroundColor":"#f8f8f8","images":{"fallback":{"src":"/static/bdc8525039042bedd52c0cf7d15e8521/f679f/simon-agren.jpg","srcSet":"/static/bdc8525039042bedd52c0cf7d15e8521/f679f/simon-agren.jpg 150w,\n/static/bdc8525039042bedd52c0cf7d15e8521/78d3d/simon-agren.jpg 300w","sizes":"150px"},"sources":[{"srcSet":"/static/bdc8525039042bedd52c0cf7d15e8521/ae23d/simon-agren.webp 150w,\n/static/bdc8525039042bedd52c0cf7d15e8521/bd37b/simon-agren.webp 300w","type":"image/webp","sizes":"150px"}]},"width":150,"height":150}}},"thumbnail":{"__typename":"ImageSharp","ImageSharp_vertical":{"layout":"constrained","backgroundColor":"#083878","images":{"fallback":{"src":"/static/222f908826520672bdae64123db97710/144fe/image.jpg","srcSet":"/static/222f908826520672bdae64123db97710/9d7b9/image.jpg 190w,\n/static/222f908826520672bdae64123db97710/144fe/image.jpg 380w","sizes":"(min-width: 380px) 380px, 100vw"},"sources":[{"srcSet":"/static/222f908826520672bdae64123db97710/228d6/image.webp 190w,\n/static/222f908826520672bdae64123db97710/6b99c/image.webp 380w","type":"image/webp","sizes":"(min-width: 380px) 380px, 100vw"}]},"width":380,"height":290},"ImageSharp_hero":{"layout":"constrained","backgroundColor":"#083878","images":{"fallback":{"src":"/static/222f908826520672bdae64123db97710/582da/image.jpg","srcSet":"/static/222f908826520672bdae64123db97710/737e6/image.jpg 500w,\n/static/222f908826520672bdae64123db97710/582da/image.jpg 1000w","sizes":"(min-width: 1000px) 1000px, 100vw"},"sources":[{"srcSet":"/static/222f908826520672bdae64123db97710/e3a40/image.webp 500w,\n/static/222f908826520672bdae64123db97710/29b4f/image.webp 1000w","type":"image/webp","sizes":"(min-width: 1000px) 1000px, 100vw"}]},"width":1600,"height":649.6}}}],"pageInfo":{"pageCount":4,"hasPreviousPage":true,"hasNextPage":true,"currentPage":3},"totalCount":20}},"pageContext":{"slug":"/tag/powershell/","limit":6,"skip":12,"collectionType":"tags","paginatePostsPage":true,"basePath":"/","services":{"algolia":true,"mailchimp":false,"disqus":false,"graphComment":true,"facebookComment":false},"siteUrl":"https://www.agrenpoint.com","mobileMenu":{"title":"Topics","items":[{"name":"Azure","slug":"/category/azure/"},{"name":"Endpoint management","slug":"/category/endpoint-management/"},{"name":"Microsoft 365","slug":"/category/microsoft-365/"}]},"darkMode":true,"includeExcerpt":true,"includeTimeToRead":true,"includeTableOfContents":true,"imageQuality":75,"currentDate":"2026-03-02"}},"staticQueryHashes":["1992822086","2409295108","2925947909"]}