{"componentChunkName":"component---packages-blog-gatsby-blog-core-src-templates-collection-tag-js","path":"/tag/governance/","result":{"data":{"collectionInfo":{"id":"a978df3b-ec7c-5623-b930-79910b02b75f","name":"governance","slug":"/tag/governance/"},"posts":{"nodes":[{"id":"7e832b44-8a52-5c48-8b04-7a24bad8e53e","title":"A learn more link for sensitivity labels","slug":"/a-learn-more-link-for-sensitivity-labels/","link":null,"excerpt":"With sensitivity labels in the tenant, the users will work in the Office Applications, where labels…","timeToRead":2,"featured":true,"thumbnailText":null,"date":"June 10, 2022","category":{"id":"b0babac0-675d-51af-aa7a-ce603b3a7af4","name":"Microsoft 365","slug":"/category/microsoft-365/","color":"#f25022","icon":"/static/363fdd53d34303b727d9dab161b8e88b/microsoft365.svg"},"author":{"id":"6f313320-531a-5f32-9a22-708cb7653896","name":"Simon Ågren","slug":"/author/simon-agren/","title":"CTA & Microsoft MVP","description":"Solving business problems with tech","skills":["Microsoft 365","Azure"],"social":[{"name":"Github","url":"https://github.com/simonagren"},{"name":"Twitter","url":"https://twitter.com/agrenpoint"},{"name":"Website","url":"https://agrenpoint.com"}],"thumbnail":{"__typename":"ImageSharp","ImageSharp_small":{"layout":"fixed","backgroundColor":"#f8f8f8","images":{"fallback":{"src":"/static/bdc8525039042bedd52c0cf7d15e8521/ac0cb/simon-agren.jpg","srcSet":"/static/bdc8525039042bedd52c0cf7d15e8521/ac0cb/simon-agren.jpg 48w,\n/static/bdc8525039042bedd52c0cf7d15e8521/73f48/simon-agren.jpg 96w","sizes":"48px"},"sources":[{"srcSet":"/static/bdc8525039042bedd52c0cf7d15e8521/a3542/simon-agren.webp 48w,\n/static/bdc8525039042bedd52c0cf7d15e8521/0f66d/simon-agren.webp 96w","type":"image/webp","sizes":"48px"}]},"width":48,"height":48},"ImageSharp_regular":{"layout":"fixed","backgroundColor":"#f8f8f8","images":{"fallback":{"src":"/static/bdc8525039042bedd52c0cf7d15e8521/f679f/simon-agren.jpg","srcSet":"/static/bdc8525039042bedd52c0cf7d15e8521/f679f/simon-agren.jpg 150w,\n/static/bdc8525039042bedd52c0cf7d15e8521/78d3d/simon-agren.jpg 300w","sizes":"150px"},"sources":[{"srcSet":"/static/bdc8525039042bedd52c0cf7d15e8521/ae23d/simon-agren.webp 150w,\n/static/bdc8525039042bedd52c0cf7d15e8521/bd37b/simon-agren.webp 300w","type":"image/webp","sizes":"150px"}]},"width":150,"height":150}}},"thumbnail":{"__typename":"ImageSharp","ImageSharp_vertical":{"layout":"constrained","backgroundColor":"#f8f8f8","images":{"fallback":{"src":"/static/43bb5d27519825b1041ec1580af2f44f/144fe/image.jpg","srcSet":"/static/43bb5d27519825b1041ec1580af2f44f/9d7b9/image.jpg 190w,\n/static/43bb5d27519825b1041ec1580af2f44f/144fe/image.jpg 380w","sizes":"(min-width: 380px) 380px, 100vw"},"sources":[{"srcSet":"/static/43bb5d27519825b1041ec1580af2f44f/228d6/image.webp 190w,\n/static/43bb5d27519825b1041ec1580af2f44f/6b99c/image.webp 380w","type":"image/webp","sizes":"(min-width: 380px) 380px, 100vw"}]},"width":380,"height":290},"ImageSharp_hero":{"layout":"constrained","backgroundColor":"#f8f8f8","images":{"fallback":{"src":"/static/43bb5d27519825b1041ec1580af2f44f/5e493/image.jpg","srcSet":"/static/43bb5d27519825b1041ec1580af2f44f/696c0/image.jpg 800w,\n/static/43bb5d27519825b1041ec1580af2f44f/5e493/image.jpg 1600w","sizes":"(min-width: 1600px) 1600px, 100vw"},"sources":[{"srcSet":"/static/43bb5d27519825b1041ec1580af2f44f/c9f06/image.webp 800w,\n/static/43bb5d27519825b1041ec1580af2f44f/f47df/image.webp 1600w","type":"image/webp","sizes":"(min-width: 1600px) 1600px, 100vw"}]},"width":1600,"height":650}}},{"id":"6ca45d7d-1d9c-572e-a975-842a276d55c1","title":"Don't just ride off into the sunset with your team","slug":"/dont-just-ride-off-into-the-sunset-with-your-team/","link":null,"excerpt":"We live in a world where it sometimes feels like we are constantly speeding. So when a team has…","timeToRead":4,"featured":true,"thumbnailText":null,"date":"June 07, 2022","category":{"id":"b0babac0-675d-51af-aa7a-ce603b3a7af4","name":"Microsoft 365","slug":"/category/microsoft-365/","color":"#f25022","icon":"/static/363fdd53d34303b727d9dab161b8e88b/microsoft365.svg"},"author":{"id":"6f313320-531a-5f32-9a22-708cb7653896","name":"Simon Ågren","slug":"/author/simon-agren/","title":"CTA & Microsoft MVP","description":"Solving business problems with tech","skills":["Microsoft 365","Azure"],"social":[{"name":"Github","url":"https://github.com/simonagren"},{"name":"Twitter","url":"https://twitter.com/agrenpoint"},{"name":"Website","url":"https://agrenpoint.com"}],"thumbnail":{"__typename":"ImageSharp","ImageSharp_small":{"layout":"fixed","backgroundColor":"#f8f8f8","images":{"fallback":{"src":"/static/bdc8525039042bedd52c0cf7d15e8521/ac0cb/simon-agren.jpg","srcSet":"/static/bdc8525039042bedd52c0cf7d15e8521/ac0cb/simon-agren.jpg 48w,\n/static/bdc8525039042bedd52c0cf7d15e8521/73f48/simon-agren.jpg 96w","sizes":"48px"},"sources":[{"srcSet":"/static/bdc8525039042bedd52c0cf7d15e8521/a3542/simon-agren.webp 48w,\n/static/bdc8525039042bedd52c0cf7d15e8521/0f66d/simon-agren.webp 96w","type":"image/webp","sizes":"48px"}]},"width":48,"height":48},"ImageSharp_regular":{"layout":"fixed","backgroundColor":"#f8f8f8","images":{"fallback":{"src":"/static/bdc8525039042bedd52c0cf7d15e8521/f679f/simon-agren.jpg","srcSet":"/static/bdc8525039042bedd52c0cf7d15e8521/f679f/simon-agren.jpg 150w,\n/static/bdc8525039042bedd52c0cf7d15e8521/78d3d/simon-agren.jpg 300w","sizes":"150px"},"sources":[{"srcSet":"/static/bdc8525039042bedd52c0cf7d15e8521/ae23d/simon-agren.webp 150w,\n/static/bdc8525039042bedd52c0cf7d15e8521/bd37b/simon-agren.webp 300w","type":"image/webp","sizes":"150px"}]},"width":150,"height":150}}},"thumbnail":{"__typename":"ImageSharp","ImageSharp_vertical":{"layout":"constrained","backgroundColor":"#384868","images":{"fallback":{"src":"/static/c00dfe5fae418f24a1e62eda491492c8/144fe/image.jpg","srcSet":"/static/c00dfe5fae418f24a1e62eda491492c8/9d7b9/image.jpg 190w,\n/static/c00dfe5fae418f24a1e62eda491492c8/144fe/image.jpg 380w","sizes":"(min-width: 380px) 380px, 100vw"},"sources":[{"srcSet":"/static/c00dfe5fae418f24a1e62eda491492c8/228d6/image.webp 190w,\n/static/c00dfe5fae418f24a1e62eda491492c8/6b99c/image.webp 380w","type":"image/webp","sizes":"(min-width: 380px) 380px, 100vw"}]},"width":380,"height":290},"ImageSharp_hero":{"layout":"constrained","backgroundColor":"#384868","images":{"fallback":{"src":"/static/c00dfe5fae418f24a1e62eda491492c8/5e493/image.jpg","srcSet":"/static/c00dfe5fae418f24a1e62eda491492c8/696c0/image.jpg 800w,\n/static/c00dfe5fae418f24a1e62eda491492c8/5e493/image.jpg 1600w","sizes":"(min-width: 1600px) 1600px, 100vw"},"sources":[{"srcSet":"/static/c00dfe5fae418f24a1e62eda491492c8/c9f06/image.webp 800w,\n/static/c00dfe5fae418f24a1e62eda491492c8/f47df/image.webp 1600w","type":"image/webp","sizes":"(min-width: 1600px) 1600px, 100vw"}]},"width":1600,"height":650}}},{"id":"8cd4ef42-1e3b-5d8c-bc9d-b7ca9a537985","title":"Sensitivity labels in Microsoft Teams","slug":"/sensitivity-labels-in-microsoft-teams/","link":null,"excerpt":"I have previously written about  Guest Access  and  Sharing settings . In those posts, I mentioned…","timeToRead":4,"featured":true,"thumbnailText":null,"date":"June 02, 2022","category":{"id":"b0babac0-675d-51af-aa7a-ce603b3a7af4","name":"Microsoft 365","slug":"/category/microsoft-365/","color":"#f25022","icon":"/static/363fdd53d34303b727d9dab161b8e88b/microsoft365.svg"},"author":{"id":"6f313320-531a-5f32-9a22-708cb7653896","name":"Simon Ågren","slug":"/author/simon-agren/","title":"CTA & Microsoft MVP","description":"Solving business problems with tech","skills":["Microsoft 365","Azure"],"social":[{"name":"Github","url":"https://github.com/simonagren"},{"name":"Twitter","url":"https://twitter.com/agrenpoint"},{"name":"Website","url":"https://agrenpoint.com"}],"thumbnail":{"__typename":"ImageSharp","ImageSharp_small":{"layout":"fixed","backgroundColor":"#f8f8f8","images":{"fallback":{"src":"/static/bdc8525039042bedd52c0cf7d15e8521/ac0cb/simon-agren.jpg","srcSet":"/static/bdc8525039042bedd52c0cf7d15e8521/ac0cb/simon-agren.jpg 48w,\n/static/bdc8525039042bedd52c0cf7d15e8521/73f48/simon-agren.jpg 96w","sizes":"48px"},"sources":[{"srcSet":"/static/bdc8525039042bedd52c0cf7d15e8521/a3542/simon-agren.webp 48w,\n/static/bdc8525039042bedd52c0cf7d15e8521/0f66d/simon-agren.webp 96w","type":"image/webp","sizes":"48px"}]},"width":48,"height":48},"ImageSharp_regular":{"layout":"fixed","backgroundColor":"#f8f8f8","images":{"fallback":{"src":"/static/bdc8525039042bedd52c0cf7d15e8521/f679f/simon-agren.jpg","srcSet":"/static/bdc8525039042bedd52c0cf7d15e8521/f679f/simon-agren.jpg 150w,\n/static/bdc8525039042bedd52c0cf7d15e8521/78d3d/simon-agren.jpg 300w","sizes":"150px"},"sources":[{"srcSet":"/static/bdc8525039042bedd52c0cf7d15e8521/ae23d/simon-agren.webp 150w,\n/static/bdc8525039042bedd52c0cf7d15e8521/bd37b/simon-agren.webp 300w","type":"image/webp","sizes":"150px"}]},"width":150,"height":150}}},"thumbnail":{"__typename":"ImageSharp","ImageSharp_vertical":{"layout":"constrained","backgroundColor":"#580808","images":{"fallback":{"src":"/static/1750d9e59204a905f246e61f8b140d2a/144fe/image.jpg","srcSet":"/static/1750d9e59204a905f246e61f8b140d2a/9d7b9/image.jpg 190w,\n/static/1750d9e59204a905f246e61f8b140d2a/144fe/image.jpg 380w","sizes":"(min-width: 380px) 380px, 100vw"},"sources":[{"srcSet":"/static/1750d9e59204a905f246e61f8b140d2a/228d6/image.webp 190w,\n/static/1750d9e59204a905f246e61f8b140d2a/6b99c/image.webp 380w","type":"image/webp","sizes":"(min-width: 380px) 380px, 100vw"}]},"width":380,"height":290},"ImageSharp_hero":{"layout":"constrained","backgroundColor":"#580808","images":{"fallback":{"src":"/static/1750d9e59204a905f246e61f8b140d2a/28ffb/image.jpg","srcSet":"/static/1750d9e59204a905f246e61f8b140d2a/4c0be/image.jpg 600w,\n/static/1750d9e59204a905f246e61f8b140d2a/28ffb/image.jpg 1200w","sizes":"(min-width: 1200px) 1200px, 100vw"},"sources":[{"srcSet":"/static/1750d9e59204a905f246e61f8b140d2a/288e3/image.webp 600w,\n/static/1750d9e59204a905f246e61f8b140d2a/5b893/image.webp 1200w","type":"image/webp","sizes":"(min-width: 1200px) 1200px, 100vw"}]},"width":1600,"height":650.6666666666666}}},{"id":"3ecd98b3-915e-54db-9b6d-d8e96a68c98f","title":"Microsoft 365 Sharing Settings","slug":"/microsoft-365-sharing-settings/","link":null,"excerpt":"The previous post was about enabling guests in the tenant, particularly Microsoft Teams. An upside…","timeToRead":3,"featured":true,"thumbnailText":null,"date":"May 23, 2022","category":{"id":"b0babac0-675d-51af-aa7a-ce603b3a7af4","name":"Microsoft 365","slug":"/category/microsoft-365/","color":"#f25022","icon":"/static/363fdd53d34303b727d9dab161b8e88b/microsoft365.svg"},"author":{"id":"6f313320-531a-5f32-9a22-708cb7653896","name":"Simon Ågren","slug":"/author/simon-agren/","title":"CTA & Microsoft MVP","description":"Solving business problems with tech","skills":["Microsoft 365","Azure"],"social":[{"name":"Github","url":"https://github.com/simonagren"},{"name":"Twitter","url":"https://twitter.com/agrenpoint"},{"name":"Website","url":"https://agrenpoint.com"}],"thumbnail":{"__typename":"ImageSharp","ImageSharp_small":{"layout":"fixed","backgroundColor":"#f8f8f8","images":{"fallback":{"src":"/static/bdc8525039042bedd52c0cf7d15e8521/ac0cb/simon-agren.jpg","srcSet":"/static/bdc8525039042bedd52c0cf7d15e8521/ac0cb/simon-agren.jpg 48w,\n/static/bdc8525039042bedd52c0cf7d15e8521/73f48/simon-agren.jpg 96w","sizes":"48px"},"sources":[{"srcSet":"/static/bdc8525039042bedd52c0cf7d15e8521/a3542/simon-agren.webp 48w,\n/static/bdc8525039042bedd52c0cf7d15e8521/0f66d/simon-agren.webp 96w","type":"image/webp","sizes":"48px"}]},"width":48,"height":48},"ImageSharp_regular":{"layout":"fixed","backgroundColor":"#f8f8f8","images":{"fallback":{"src":"/static/bdc8525039042bedd52c0cf7d15e8521/f679f/simon-agren.jpg","srcSet":"/static/bdc8525039042bedd52c0cf7d15e8521/f679f/simon-agren.jpg 150w,\n/static/bdc8525039042bedd52c0cf7d15e8521/78d3d/simon-agren.jpg 300w","sizes":"150px"},"sources":[{"srcSet":"/static/bdc8525039042bedd52c0cf7d15e8521/ae23d/simon-agren.webp 150w,\n/static/bdc8525039042bedd52c0cf7d15e8521/bd37b/simon-agren.webp 300w","type":"image/webp","sizes":"150px"}]},"width":150,"height":150}}},"thumbnail":{"__typename":"ImageSharp","ImageSharp_vertical":{"layout":"constrained","backgroundColor":"#e8e8e8","images":{"fallback":{"src":"/static/c47194c118b508db6fb81ac63122e12b/144fe/image.jpg","srcSet":"/static/c47194c118b508db6fb81ac63122e12b/9d7b9/image.jpg 190w,\n/static/c47194c118b508db6fb81ac63122e12b/144fe/image.jpg 380w","sizes":"(min-width: 380px) 380px, 100vw"},"sources":[{"srcSet":"/static/c47194c118b508db6fb81ac63122e12b/228d6/image.webp 190w,\n/static/c47194c118b508db6fb81ac63122e12b/6b99c/image.webp 380w","type":"image/webp","sizes":"(min-width: 380px) 380px, 100vw"}]},"width":380,"height":290},"ImageSharp_hero":{"layout":"constrained","backgroundColor":"#e8e8e8","images":{"fallback":{"src":"/static/c47194c118b508db6fb81ac63122e12b/5e493/image.jpg","srcSet":"/static/c47194c118b508db6fb81ac63122e12b/696c0/image.jpg 800w,\n/static/c47194c118b508db6fb81ac63122e12b/5e493/image.jpg 1600w","sizes":"(min-width: 1600px) 1600px, 100vw"},"sources":[{"srcSet":"/static/c47194c118b508db6fb81ac63122e12b/c9f06/image.webp 800w,\n/static/c47194c118b508db6fb81ac63122e12b/f47df/image.webp 1600w","type":"image/webp","sizes":"(min-width: 1600px) 1600px, 100vw"}]},"width":1600,"height":650}}},{"id":"ac563d5d-e2bf-5b0f-aed0-0993804fd9ad","title":"Microsoft Teams Guest Access","slug":"/microsoft-teams-guest-access/","link":null,"excerpt":"A typical scenario is collaborating with people outside your organization. When you invite these…","timeToRead":2,"featured":true,"thumbnailText":null,"date":"March 10, 2022","category":{"id":"b0babac0-675d-51af-aa7a-ce603b3a7af4","name":"Microsoft 365","slug":"/category/microsoft-365/","color":"#f25022","icon":"/static/363fdd53d34303b727d9dab161b8e88b/microsoft365.svg"},"author":{"id":"6f313320-531a-5f32-9a22-708cb7653896","name":"Simon Ågren","slug":"/author/simon-agren/","title":"CTA & Microsoft MVP","description":"Solving business problems with tech","skills":["Microsoft 365","Azure"],"social":[{"name":"Github","url":"https://github.com/simonagren"},{"name":"Twitter","url":"https://twitter.com/agrenpoint"},{"name":"Website","url":"https://agrenpoint.com"}],"thumbnail":{"__typename":"ImageSharp","ImageSharp_small":{"layout":"fixed","backgroundColor":"#f8f8f8","images":{"fallback":{"src":"/static/bdc8525039042bedd52c0cf7d15e8521/ac0cb/simon-agren.jpg","srcSet":"/static/bdc8525039042bedd52c0cf7d15e8521/ac0cb/simon-agren.jpg 48w,\n/static/bdc8525039042bedd52c0cf7d15e8521/73f48/simon-agren.jpg 96w","sizes":"48px"},"sources":[{"srcSet":"/static/bdc8525039042bedd52c0cf7d15e8521/a3542/simon-agren.webp 48w,\n/static/bdc8525039042bedd52c0cf7d15e8521/0f66d/simon-agren.webp 96w","type":"image/webp","sizes":"48px"}]},"width":48,"height":48},"ImageSharp_regular":{"layout":"fixed","backgroundColor":"#f8f8f8","images":{"fallback":{"src":"/static/bdc8525039042bedd52c0cf7d15e8521/f679f/simon-agren.jpg","srcSet":"/static/bdc8525039042bedd52c0cf7d15e8521/f679f/simon-agren.jpg 150w,\n/static/bdc8525039042bedd52c0cf7d15e8521/78d3d/simon-agren.jpg 300w","sizes":"150px"},"sources":[{"srcSet":"/static/bdc8525039042bedd52c0cf7d15e8521/ae23d/simon-agren.webp 150w,\n/static/bdc8525039042bedd52c0cf7d15e8521/bd37b/simon-agren.webp 300w","type":"image/webp","sizes":"150px"}]},"width":150,"height":150}}},"thumbnail":{"__typename":"ImageSharp","ImageSharp_vertical":{"layout":"constrained","backgroundColor":"#081818","images":{"fallback":{"src":"/static/18d5540ca59029d8b966388f4b724d5e/144fe/image.jpg","srcSet":"/static/18d5540ca59029d8b966388f4b724d5e/9d7b9/image.jpg 190w,\n/static/18d5540ca59029d8b966388f4b724d5e/144fe/image.jpg 380w","sizes":"(min-width: 380px) 380px, 100vw"},"sources":[{"srcSet":"/static/18d5540ca59029d8b966388f4b724d5e/228d6/image.webp 190w,\n/static/18d5540ca59029d8b966388f4b724d5e/6b99c/image.webp 380w","type":"image/webp","sizes":"(min-width: 380px) 380px, 100vw"}]},"width":380,"height":290},"ImageSharp_hero":{"layout":"constrained","backgroundColor":"#081818","images":{"fallback":{"src":"/static/18d5540ca59029d8b966388f4b724d5e/5e493/image.jpg","srcSet":"/static/18d5540ca59029d8b966388f4b724d5e/696c0/image.jpg 800w,\n/static/18d5540ca59029d8b966388f4b724d5e/5e493/image.jpg 1600w","sizes":"(min-width: 1600px) 1600px, 100vw"},"sources":[{"srcSet":"/static/18d5540ca59029d8b966388f4b724d5e/c9f06/image.webp 800w,\n/static/18d5540ca59029d8b966388f4b724d5e/f47df/image.webp 1600w","type":"image/webp","sizes":"(min-width: 1600px) 1600px, 100vw"}]},"width":1600,"height":650}}},{"id":"ce439de9-61a6-595b-9d31-f30fe4950229","title":"Microsoft Teams Naming","slug":"/microsoft-teams-naming/","link":null,"excerpt":"Previously I have written about how many organizations seem to overlook the importance of Teams…","timeToRead":4,"featured":true,"thumbnailText":null,"date":"February 20, 2022","category":{"id":"b0babac0-675d-51af-aa7a-ce603b3a7af4","name":"Microsoft 365","slug":"/category/microsoft-365/","color":"#f25022","icon":"/static/363fdd53d34303b727d9dab161b8e88b/microsoft365.svg"},"author":{"id":"6f313320-531a-5f32-9a22-708cb7653896","name":"Simon Ågren","slug":"/author/simon-agren/","title":"CTA & Microsoft MVP","description":"Solving business problems with tech","skills":["Microsoft 365","Azure"],"social":[{"name":"Github","url":"https://github.com/simonagren"},{"name":"Twitter","url":"https://twitter.com/agrenpoint"},{"name":"Website","url":"https://agrenpoint.com"}],"thumbnail":{"__typename":"ImageSharp","ImageSharp_small":{"layout":"fixed","backgroundColor":"#f8f8f8","images":{"fallback":{"src":"/static/bdc8525039042bedd52c0cf7d15e8521/ac0cb/simon-agren.jpg","srcSet":"/static/bdc8525039042bedd52c0cf7d15e8521/ac0cb/simon-agren.jpg 48w,\n/static/bdc8525039042bedd52c0cf7d15e8521/73f48/simon-agren.jpg 96w","sizes":"48px"},"sources":[{"srcSet":"/static/bdc8525039042bedd52c0cf7d15e8521/a3542/simon-agren.webp 48w,\n/static/bdc8525039042bedd52c0cf7d15e8521/0f66d/simon-agren.webp 96w","type":"image/webp","sizes":"48px"}]},"width":48,"height":48},"ImageSharp_regular":{"layout":"fixed","backgroundColor":"#f8f8f8","images":{"fallback":{"src":"/static/bdc8525039042bedd52c0cf7d15e8521/f679f/simon-agren.jpg","srcSet":"/static/bdc8525039042bedd52c0cf7d15e8521/f679f/simon-agren.jpg 150w,\n/static/bdc8525039042bedd52c0cf7d15e8521/78d3d/simon-agren.jpg 300w","sizes":"150px"},"sources":[{"srcSet":"/static/bdc8525039042bedd52c0cf7d15e8521/ae23d/simon-agren.webp 150w,\n/static/bdc8525039042bedd52c0cf7d15e8521/bd37b/simon-agren.webp 300w","type":"image/webp","sizes":"150px"}]},"width":150,"height":150}}},"thumbnail":{"__typename":"ImageSharp","ImageSharp_vertical":{"layout":"constrained","backgroundColor":"#f8e8d8","images":{"fallback":{"src":"/static/714ab983102224095e670623cbf825ca/144fe/image.jpg","srcSet":"/static/714ab983102224095e670623cbf825ca/9d7b9/image.jpg 190w,\n/static/714ab983102224095e670623cbf825ca/144fe/image.jpg 380w","sizes":"(min-width: 380px) 380px, 100vw"},"sources":[{"srcSet":"/static/714ab983102224095e670623cbf825ca/228d6/image.webp 190w,\n/static/714ab983102224095e670623cbf825ca/6b99c/image.webp 380w","type":"image/webp","sizes":"(min-width: 380px) 380px, 100vw"}]},"width":380,"height":290},"ImageSharp_hero":{"layout":"constrained","backgroundColor":"#f8e8d8","images":{"fallback":{"src":"/static/714ab983102224095e670623cbf825ca/28ffb/image.jpg","srcSet":"/static/714ab983102224095e670623cbf825ca/4c0be/image.jpg 600w,\n/static/714ab983102224095e670623cbf825ca/28ffb/image.jpg 1200w","sizes":"(min-width: 1200px) 1200px, 100vw"},"sources":[{"srcSet":"/static/714ab983102224095e670623cbf825ca/288e3/image.webp 600w,\n/static/714ab983102224095e670623cbf825ca/5b893/image.webp 1200w","type":"image/webp","sizes":"(min-width: 1200px) 1200px, 100vw"}]},"width":1600,"height":650.6666666666666}}}],"pageInfo":{"pageCount":2,"hasPreviousPage":false,"hasNextPage":true,"currentPage":1},"totalCount":12}},"pageContext":{"slug":"/tag/governance/","limit":6,"skip":0,"collectionType":"tags","paginatePostsPage":true,"basePath":"/","services":{"algolia":true,"mailchimp":false,"disqus":false,"graphComment":true,"facebookComment":false},"siteUrl":"https://www.agrenpoint.com","mobileMenu":{"title":"Topics","items":[{"name":"Azure","slug":"/category/azure/"},{"name":"Endpoint management","slug":"/category/endpoint-management/"},{"name":"Microsoft 365","slug":"/category/microsoft-365/"}]},"darkMode":true,"includeExcerpt":true,"includeTimeToRead":true,"includeTableOfContents":true,"imageQuality":75,"currentDate":"2026-03-02"}},"staticQueryHashes":["1992822086","2409295108","2925947909"]}