{"componentChunkName":"component---packages-blog-gatsby-blog-core-src-templates-collection-category-js","path":"/category/microsoft-365/page/3/","result":{"data":{"collectionInfo":{"id":"b0babac0-675d-51af-aa7a-ce603b3a7af4","name":"Microsoft 365","slug":"/category/microsoft-365/","description":"This category involves all things Microsoft 365"},"posts":{"nodes":[{"id":"c19c5d5e-4f23-52f4-98ca-f496f1c8d7c4","title":"Microsoft 365 Copilot An AI to Help with Your Work - Should You Be Worried?","slug":"/microsoft-365-copilot-an-ai-to-help-with-your-work-should-you-be-worried/","link":null,"excerpt":"Introduction AI is a hot topic right now!  ChatGPT  from  OpenAI  is something many of us have…","timeToRead":2,"featured":true,"thumbnailText":null,"date":"April 01, 2023","category":{"id":"b0babac0-675d-51af-aa7a-ce603b3a7af4","name":"Microsoft 365","slug":"/category/microsoft-365/","color":"#f25022","icon":"/static/363fdd53d34303b727d9dab161b8e88b/microsoft365.svg"},"author":{"id":"6f313320-531a-5f32-9a22-708cb7653896","name":"Simon Ågren","slug":"/author/simon-agren/","title":"CTA & Microsoft MVP","description":"Solving business problems with tech","skills":["Microsoft 365","Azure"],"social":[{"name":"Github","url":"https://github.com/simonagren"},{"name":"Twitter","url":"https://twitter.com/agrenpoint"},{"name":"Website","url":"https://agrenpoint.com"}],"thumbnail":{"__typename":"ImageSharp","ImageSharp_small":{"layout":"fixed","backgroundColor":"#f8f8f8","images":{"fallback":{"src":"/static/bdc8525039042bedd52c0cf7d15e8521/ac0cb/simon-agren.jpg","srcSet":"/static/bdc8525039042bedd52c0cf7d15e8521/ac0cb/simon-agren.jpg 48w,\n/static/bdc8525039042bedd52c0cf7d15e8521/73f48/simon-agren.jpg 96w","sizes":"48px"},"sources":[{"srcSet":"/static/bdc8525039042bedd52c0cf7d15e8521/a3542/simon-agren.webp 48w,\n/static/bdc8525039042bedd52c0cf7d15e8521/0f66d/simon-agren.webp 96w","type":"image/webp","sizes":"48px"}]},"width":48,"height":48},"ImageSharp_regular":{"layout":"fixed","backgroundColor":"#f8f8f8","images":{"fallback":{"src":"/static/bdc8525039042bedd52c0cf7d15e8521/f679f/simon-agren.jpg","srcSet":"/static/bdc8525039042bedd52c0cf7d15e8521/f679f/simon-agren.jpg 150w,\n/static/bdc8525039042bedd52c0cf7d15e8521/78d3d/simon-agren.jpg 300w","sizes":"150px"},"sources":[{"srcSet":"/static/bdc8525039042bedd52c0cf7d15e8521/ae23d/simon-agren.webp 150w,\n/static/bdc8525039042bedd52c0cf7d15e8521/bd37b/simon-agren.webp 300w","type":"image/webp","sizes":"150px"}]},"width":150,"height":150}}},"thumbnail":{"__typename":"ImageSharp","ImageSharp_vertical":{"layout":"constrained","backgroundColor":"#f8f8f8","images":{"fallback":{"src":"/static/3f4c36a573e12e8a421ec5e991ee9113/144fe/image.jpg","srcSet":"/static/3f4c36a573e12e8a421ec5e991ee9113/9d7b9/image.jpg 190w,\n/static/3f4c36a573e12e8a421ec5e991ee9113/144fe/image.jpg 380w","sizes":"(min-width: 380px) 380px, 100vw"},"sources":[{"srcSet":"/static/3f4c36a573e12e8a421ec5e991ee9113/228d6/image.webp 190w,\n/static/3f4c36a573e12e8a421ec5e991ee9113/6b99c/image.webp 380w","type":"image/webp","sizes":"(min-width: 380px) 380px, 100vw"}]},"width":380,"height":290},"ImageSharp_hero":{"layout":"constrained","backgroundColor":"#f8f8f8","images":{"fallback":{"src":"/static/3f4c36a573e12e8a421ec5e991ee9113/5e493/image.jpg","srcSet":"/static/3f4c36a573e12e8a421ec5e991ee9113/696c0/image.jpg 800w,\n/static/3f4c36a573e12e8a421ec5e991ee9113/5e493/image.jpg 1600w","sizes":"(min-width: 1600px) 1600px, 100vw"},"sources":[{"srcSet":"/static/3f4c36a573e12e8a421ec5e991ee9113/c9f06/image.webp 800w,\n/static/3f4c36a573e12e8a421ec5e991ee9113/f47df/image.webp 1600w","type":"image/webp","sizes":"(min-width: 1600px) 1600px, 100vw"}]},"width":1600,"height":650}}},{"id":"3ef466ca-640a-51af-9dc9-ec47bcf869bb","title":"Microsoft Purview Custom SIT via PowerShell","slug":"/microsoft-purview-custom-sit-via-powershell/","link":null,"excerpt":"Introduction It's really about defining what is sensitive in your organization, and we could use…","timeToRead":2,"featured":true,"thumbnailText":null,"date":"March 01, 2023","category":{"id":"b0babac0-675d-51af-aa7a-ce603b3a7af4","name":"Microsoft 365","slug":"/category/microsoft-365/","color":"#f25022","icon":"/static/363fdd53d34303b727d9dab161b8e88b/microsoft365.svg"},"author":{"id":"6f313320-531a-5f32-9a22-708cb7653896","name":"Simon Ågren","slug":"/author/simon-agren/","title":"CTA & Microsoft MVP","description":"Solving business problems with tech","skills":["Microsoft 365","Azure"],"social":[{"name":"Github","url":"https://github.com/simonagren"},{"name":"Twitter","url":"https://twitter.com/agrenpoint"},{"name":"Website","url":"https://agrenpoint.com"}],"thumbnail":{"__typename":"ImageSharp","ImageSharp_small":{"layout":"fixed","backgroundColor":"#f8f8f8","images":{"fallback":{"src":"/static/bdc8525039042bedd52c0cf7d15e8521/ac0cb/simon-agren.jpg","srcSet":"/static/bdc8525039042bedd52c0cf7d15e8521/ac0cb/simon-agren.jpg 48w,\n/static/bdc8525039042bedd52c0cf7d15e8521/73f48/simon-agren.jpg 96w","sizes":"48px"},"sources":[{"srcSet":"/static/bdc8525039042bedd52c0cf7d15e8521/a3542/simon-agren.webp 48w,\n/static/bdc8525039042bedd52c0cf7d15e8521/0f66d/simon-agren.webp 96w","type":"image/webp","sizes":"48px"}]},"width":48,"height":48},"ImageSharp_regular":{"layout":"fixed","backgroundColor":"#f8f8f8","images":{"fallback":{"src":"/static/bdc8525039042bedd52c0cf7d15e8521/f679f/simon-agren.jpg","srcSet":"/static/bdc8525039042bedd52c0cf7d15e8521/f679f/simon-agren.jpg 150w,\n/static/bdc8525039042bedd52c0cf7d15e8521/78d3d/simon-agren.jpg 300w","sizes":"150px"},"sources":[{"srcSet":"/static/bdc8525039042bedd52c0cf7d15e8521/ae23d/simon-agren.webp 150w,\n/static/bdc8525039042bedd52c0cf7d15e8521/bd37b/simon-agren.webp 300w","type":"image/webp","sizes":"150px"}]},"width":150,"height":150}}},"thumbnail":{"__typename":"ImageSharp","ImageSharp_vertical":{"layout":"constrained","backgroundColor":"#080808","images":{"fallback":{"src":"/static/f3aa06e1ac1b82e7664e4cbf387037b8/19188/image.png","srcSet":"/static/f3aa06e1ac1b82e7664e4cbf387037b8/db297/image.png 190w,\n/static/f3aa06e1ac1b82e7664e4cbf387037b8/19188/image.png 380w","sizes":"(min-width: 380px) 380px, 100vw"},"sources":[{"srcSet":"/static/f3aa06e1ac1b82e7664e4cbf387037b8/228d6/image.webp 190w,\n/static/f3aa06e1ac1b82e7664e4cbf387037b8/6b99c/image.webp 380w","type":"image/webp","sizes":"(min-width: 380px) 380px, 100vw"}]},"width":380,"height":290},"ImageSharp_hero":{"layout":"constrained","backgroundColor":"#080808","images":{"fallback":{"src":"/static/f3aa06e1ac1b82e7664e4cbf387037b8/739fd/image.png","srcSet":"/static/f3aa06e1ac1b82e7664e4cbf387037b8/a16e7/image.png 300w,\n/static/f3aa06e1ac1b82e7664e4cbf387037b8/739fd/image.png 600w","sizes":"(min-width: 600px) 600px, 100vw"},"sources":[{"srcSet":"/static/f3aa06e1ac1b82e7664e4cbf387037b8/797c8/image.webp 300w,\n/static/f3aa06e1ac1b82e7664e4cbf387037b8/288e3/image.webp 600w","type":"image/webp","sizes":"(min-width: 600px) 600px, 100vw"}]},"width":1600,"height":650.6666666666666}}},{"id":"ef683925-9dbf-5ada-ba6e-c0bda9b2dc70","title":"Using Conditional Access to Enforce Approved Apps with APP","slug":"/using-conditional-access-to-enforce-approved-apps-with-app/","link":null,"excerpt":"Introduction Mobile devices have revolutionized our work, allowing us to access corporate data…","timeToRead":2,"featured":true,"thumbnailText":null,"date":"February 20, 2023","category":{"id":"b0babac0-675d-51af-aa7a-ce603b3a7af4","name":"Microsoft 365","slug":"/category/microsoft-365/","color":"#f25022","icon":"/static/363fdd53d34303b727d9dab161b8e88b/microsoft365.svg"},"author":{"id":"6f313320-531a-5f32-9a22-708cb7653896","name":"Simon Ågren","slug":"/author/simon-agren/","title":"CTA & Microsoft MVP","description":"Solving business problems with tech","skills":["Microsoft 365","Azure"],"social":[{"name":"Github","url":"https://github.com/simonagren"},{"name":"Twitter","url":"https://twitter.com/agrenpoint"},{"name":"Website","url":"https://agrenpoint.com"}],"thumbnail":{"__typename":"ImageSharp","ImageSharp_small":{"layout":"fixed","backgroundColor":"#f8f8f8","images":{"fallback":{"src":"/static/bdc8525039042bedd52c0cf7d15e8521/ac0cb/simon-agren.jpg","srcSet":"/static/bdc8525039042bedd52c0cf7d15e8521/ac0cb/simon-agren.jpg 48w,\n/static/bdc8525039042bedd52c0cf7d15e8521/73f48/simon-agren.jpg 96w","sizes":"48px"},"sources":[{"srcSet":"/static/bdc8525039042bedd52c0cf7d15e8521/a3542/simon-agren.webp 48w,\n/static/bdc8525039042bedd52c0cf7d15e8521/0f66d/simon-agren.webp 96w","type":"image/webp","sizes":"48px"}]},"width":48,"height":48},"ImageSharp_regular":{"layout":"fixed","backgroundColor":"#f8f8f8","images":{"fallback":{"src":"/static/bdc8525039042bedd52c0cf7d15e8521/f679f/simon-agren.jpg","srcSet":"/static/bdc8525039042bedd52c0cf7d15e8521/f679f/simon-agren.jpg 150w,\n/static/bdc8525039042bedd52c0cf7d15e8521/78d3d/simon-agren.jpg 300w","sizes":"150px"},"sources":[{"srcSet":"/static/bdc8525039042bedd52c0cf7d15e8521/ae23d/simon-agren.webp 150w,\n/static/bdc8525039042bedd52c0cf7d15e8521/bd37b/simon-agren.webp 300w","type":"image/webp","sizes":"150px"}]},"width":150,"height":150}}},"thumbnail":{"__typename":"ImageSharp","ImageSharp_vertical":{"layout":"constrained","backgroundColor":"#f8f8f8","images":{"fallback":{"src":"/static/1b7a2f64e51e26bdba47ab8df23fc985/144fe/image.jpg","srcSet":"/static/1b7a2f64e51e26bdba47ab8df23fc985/9d7b9/image.jpg 190w,\n/static/1b7a2f64e51e26bdba47ab8df23fc985/144fe/image.jpg 380w","sizes":"(min-width: 380px) 380px, 100vw"},"sources":[{"srcSet":"/static/1b7a2f64e51e26bdba47ab8df23fc985/228d6/image.webp 190w,\n/static/1b7a2f64e51e26bdba47ab8df23fc985/6b99c/image.webp 380w","type":"image/webp","sizes":"(min-width: 380px) 380px, 100vw"}]},"width":380,"height":290},"ImageSharp_hero":{"layout":"constrained","backgroundColor":"#f8f8f8","images":{"fallback":{"src":"/static/1b7a2f64e51e26bdba47ab8df23fc985/e9e14/image.jpg","srcSet":"/static/1b7a2f64e51e26bdba47ab8df23fc985/6df8b/image.jpg 640w,\n/static/1b7a2f64e51e26bdba47ab8df23fc985/e9e14/image.jpg 1280w","sizes":"(min-width: 1280px) 1280px, 100vw"},"sources":[{"srcSet":"/static/1b7a2f64e51e26bdba47ab8df23fc985/5f634/image.webp 640w,\n/static/1b7a2f64e51e26bdba47ab8df23fc985/f81d8/image.webp 1280w","type":"image/webp","sizes":"(min-width: 1280px) 1280px, 100vw"}]},"width":1600,"height":650}}},{"id":"75b10dd1-1fc9-58d5-8891-113fc66c2467","title":"A collection of Microsoft Ninja Training","slug":"/a-collection-of-microsoft-ninja-training/","link":null,"excerpt":"Introduction Recently, I completed two pieces of Ninja training; Microsoft Purview Information…","timeToRead":1,"featured":true,"thumbnailText":null,"date":"February 09, 2023","category":{"id":"b0babac0-675d-51af-aa7a-ce603b3a7af4","name":"Microsoft 365","slug":"/category/microsoft-365/","color":"#f25022","icon":"/static/363fdd53d34303b727d9dab161b8e88b/microsoft365.svg"},"author":{"id":"6f313320-531a-5f32-9a22-708cb7653896","name":"Simon Ågren","slug":"/author/simon-agren/","title":"CTA & Microsoft MVP","description":"Solving business problems with tech","skills":["Microsoft 365","Azure"],"social":[{"name":"Github","url":"https://github.com/simonagren"},{"name":"Twitter","url":"https://twitter.com/agrenpoint"},{"name":"Website","url":"https://agrenpoint.com"}],"thumbnail":{"__typename":"ImageSharp","ImageSharp_small":{"layout":"fixed","backgroundColor":"#f8f8f8","images":{"fallback":{"src":"/static/bdc8525039042bedd52c0cf7d15e8521/ac0cb/simon-agren.jpg","srcSet":"/static/bdc8525039042bedd52c0cf7d15e8521/ac0cb/simon-agren.jpg 48w,\n/static/bdc8525039042bedd52c0cf7d15e8521/73f48/simon-agren.jpg 96w","sizes":"48px"},"sources":[{"srcSet":"/static/bdc8525039042bedd52c0cf7d15e8521/a3542/simon-agren.webp 48w,\n/static/bdc8525039042bedd52c0cf7d15e8521/0f66d/simon-agren.webp 96w","type":"image/webp","sizes":"48px"}]},"width":48,"height":48},"ImageSharp_regular":{"layout":"fixed","backgroundColor":"#f8f8f8","images":{"fallback":{"src":"/static/bdc8525039042bedd52c0cf7d15e8521/f679f/simon-agren.jpg","srcSet":"/static/bdc8525039042bedd52c0cf7d15e8521/f679f/simon-agren.jpg 150w,\n/static/bdc8525039042bedd52c0cf7d15e8521/78d3d/simon-agren.jpg 300w","sizes":"150px"},"sources":[{"srcSet":"/static/bdc8525039042bedd52c0cf7d15e8521/ae23d/simon-agren.webp 150w,\n/static/bdc8525039042bedd52c0cf7d15e8521/bd37b/simon-agren.webp 300w","type":"image/webp","sizes":"150px"}]},"width":150,"height":150}}},"thumbnail":{"__typename":"ImageSharp","ImageSharp_vertical":{"layout":"constrained","backgroundColor":"#f8f8f8","images":{"fallback":{"src":"/static/aa6b304aeede00e2d25f6bbeab7fb0f6/144fe/image.jpg","srcSet":"/static/aa6b304aeede00e2d25f6bbeab7fb0f6/9d7b9/image.jpg 190w,\n/static/aa6b304aeede00e2d25f6bbeab7fb0f6/144fe/image.jpg 380w","sizes":"(min-width: 380px) 380px, 100vw"},"sources":[{"srcSet":"/static/aa6b304aeede00e2d25f6bbeab7fb0f6/228d6/image.webp 190w,\n/static/aa6b304aeede00e2d25f6bbeab7fb0f6/6b99c/image.webp 380w","type":"image/webp","sizes":"(min-width: 380px) 380px, 100vw"}]},"width":380,"height":290},"ImageSharp_hero":{"layout":"constrained","backgroundColor":"#f8f8f8","images":{"fallback":{"src":"/static/aa6b304aeede00e2d25f6bbeab7fb0f6/fb1e2/image.jpg","srcSet":"/static/aa6b304aeede00e2d25f6bbeab7fb0f6/737e6/image.jpg 500w,\n/static/aa6b304aeede00e2d25f6bbeab7fb0f6/fb1e2/image.jpg 999w","sizes":"(min-width: 999px) 999px, 100vw"},"sources":[{"srcSet":"/static/aa6b304aeede00e2d25f6bbeab7fb0f6/e3a40/image.webp 500w,\n/static/aa6b304aeede00e2d25f6bbeab7fb0f6/e62d1/image.webp 999w","type":"image/webp","sizes":"(min-width: 999px) 999px, 100vw"}]},"width":1600,"height":650.2502502502502}}},{"id":"3775249d-bf27-553b-88e8-4f4354b2e1f5","title":"Custom Azure AD registration with Microsoft Graph PS","slug":"/custom-azure-ad-registration-with-microsoft-graph-ps/","link":null,"excerpt":"Introduction Similar to my post  PnP PowerShell - MFA account and Client Id  from a while back, I…","timeToRead":2,"featured":false,"thumbnailText":null,"date":"January 02, 2023","category":{"id":"b0babac0-675d-51af-aa7a-ce603b3a7af4","name":"Microsoft 365","slug":"/category/microsoft-365/","color":"#f25022","icon":"/static/363fdd53d34303b727d9dab161b8e88b/microsoft365.svg"},"author":{"id":"6f313320-531a-5f32-9a22-708cb7653896","name":"Simon Ågren","slug":"/author/simon-agren/","title":"CTA & Microsoft MVP","description":"Solving business problems with tech","skills":["Microsoft 365","Azure"],"social":[{"name":"Github","url":"https://github.com/simonagren"},{"name":"Twitter","url":"https://twitter.com/agrenpoint"},{"name":"Website","url":"https://agrenpoint.com"}],"thumbnail":{"__typename":"ImageSharp","ImageSharp_small":{"layout":"fixed","backgroundColor":"#f8f8f8","images":{"fallback":{"src":"/static/bdc8525039042bedd52c0cf7d15e8521/ac0cb/simon-agren.jpg","srcSet":"/static/bdc8525039042bedd52c0cf7d15e8521/ac0cb/simon-agren.jpg 48w,\n/static/bdc8525039042bedd52c0cf7d15e8521/73f48/simon-agren.jpg 96w","sizes":"48px"},"sources":[{"srcSet":"/static/bdc8525039042bedd52c0cf7d15e8521/a3542/simon-agren.webp 48w,\n/static/bdc8525039042bedd52c0cf7d15e8521/0f66d/simon-agren.webp 96w","type":"image/webp","sizes":"48px"}]},"width":48,"height":48},"ImageSharp_regular":{"layout":"fixed","backgroundColor":"#f8f8f8","images":{"fallback":{"src":"/static/bdc8525039042bedd52c0cf7d15e8521/f679f/simon-agren.jpg","srcSet":"/static/bdc8525039042bedd52c0cf7d15e8521/f679f/simon-agren.jpg 150w,\n/static/bdc8525039042bedd52c0cf7d15e8521/78d3d/simon-agren.jpg 300w","sizes":"150px"},"sources":[{"srcSet":"/static/bdc8525039042bedd52c0cf7d15e8521/ae23d/simon-agren.webp 150w,\n/static/bdc8525039042bedd52c0cf7d15e8521/bd37b/simon-agren.webp 300w","type":"image/webp","sizes":"150px"}]},"width":150,"height":150}}},"thumbnail":{"__typename":"ImageSharp","ImageSharp_vertical":{"layout":"constrained","backgroundColor":"#f8f8f8","images":{"fallback":{"src":"/static/277677938ffc6d236164bf3a4fef9f3c/6b99c/image.webp","srcSet":"/static/277677938ffc6d236164bf3a4fef9f3c/228d6/image.webp 190w,\n/static/277677938ffc6d236164bf3a4fef9f3c/6b99c/image.webp 380w","sizes":"(min-width: 380px) 380px, 100vw"},"sources":[]},"width":380,"height":290},"ImageSharp_hero":{"layout":"constrained","backgroundColor":"#f8f8f8","images":{"fallback":{"src":"/static/277677938ffc6d236164bf3a4fef9f3c/c9f06/image.webp","srcSet":"/static/277677938ffc6d236164bf3a4fef9f3c/6a2da/image.webp 400w,\n/static/277677938ffc6d236164bf3a4fef9f3c/c9f06/image.webp 800w","sizes":"(min-width: 800px) 800px, 100vw"},"sources":[]},"width":1600,"height":650}}},{"id":"593fb66a-b319-5393-815c-d30d3d567283","title":"Is scheduling messages in Microsoft Teams a good idea?","slug":"/is-scheduling-messages-in-microsoft-teams-a-good-idea/","link":null,"excerpt":"Introduction Many of you have waited for the possibility of scheduling chat messages in Microsoft…","timeToRead":2,"featured":true,"thumbnailText":null,"date":"December 18, 2022","category":{"id":"b0babac0-675d-51af-aa7a-ce603b3a7af4","name":"Microsoft 365","slug":"/category/microsoft-365/","color":"#f25022","icon":"/static/363fdd53d34303b727d9dab161b8e88b/microsoft365.svg"},"author":{"id":"6f313320-531a-5f32-9a22-708cb7653896","name":"Simon Ågren","slug":"/author/simon-agren/","title":"CTA & Microsoft MVP","description":"Solving business problems with tech","skills":["Microsoft 365","Azure"],"social":[{"name":"Github","url":"https://github.com/simonagren"},{"name":"Twitter","url":"https://twitter.com/agrenpoint"},{"name":"Website","url":"https://agrenpoint.com"}],"thumbnail":{"__typename":"ImageSharp","ImageSharp_small":{"layout":"fixed","backgroundColor":"#f8f8f8","images":{"fallback":{"src":"/static/bdc8525039042bedd52c0cf7d15e8521/ac0cb/simon-agren.jpg","srcSet":"/static/bdc8525039042bedd52c0cf7d15e8521/ac0cb/simon-agren.jpg 48w,\n/static/bdc8525039042bedd52c0cf7d15e8521/73f48/simon-agren.jpg 96w","sizes":"48px"},"sources":[{"srcSet":"/static/bdc8525039042bedd52c0cf7d15e8521/a3542/simon-agren.webp 48w,\n/static/bdc8525039042bedd52c0cf7d15e8521/0f66d/simon-agren.webp 96w","type":"image/webp","sizes":"48px"}]},"width":48,"height":48},"ImageSharp_regular":{"layout":"fixed","backgroundColor":"#f8f8f8","images":{"fallback":{"src":"/static/bdc8525039042bedd52c0cf7d15e8521/f679f/simon-agren.jpg","srcSet":"/static/bdc8525039042bedd52c0cf7d15e8521/f679f/simon-agren.jpg 150w,\n/static/bdc8525039042bedd52c0cf7d15e8521/78d3d/simon-agren.jpg 300w","sizes":"150px"},"sources":[{"srcSet":"/static/bdc8525039042bedd52c0cf7d15e8521/ae23d/simon-agren.webp 150w,\n/static/bdc8525039042bedd52c0cf7d15e8521/bd37b/simon-agren.webp 300w","type":"image/webp","sizes":"150px"}]},"width":150,"height":150}}},"thumbnail":{"__typename":"ImageSharp","ImageSharp_vertical":{"layout":"constrained","backgroundColor":"#081838","images":{"fallback":{"src":"/static/4cbcdfdf18ce0651ea35957cd315f636/144fe/image.jpg","srcSet":"/static/4cbcdfdf18ce0651ea35957cd315f636/9d7b9/image.jpg 190w,\n/static/4cbcdfdf18ce0651ea35957cd315f636/144fe/image.jpg 380w","sizes":"(min-width: 380px) 380px, 100vw"},"sources":[{"srcSet":"/static/4cbcdfdf18ce0651ea35957cd315f636/228d6/image.webp 190w,\n/static/4cbcdfdf18ce0651ea35957cd315f636/6b99c/image.webp 380w","type":"image/webp","sizes":"(min-width: 380px) 380px, 100vw"}]},"width":380,"height":290},"ImageSharp_hero":{"layout":"constrained","backgroundColor":"#081838","images":{"fallback":{"src":"/static/4cbcdfdf18ce0651ea35957cd315f636/5639a/image.jpg","srcSet":"/static/4cbcdfdf18ce0651ea35957cd315f636/ff41a/image.jpg 283w,\n/static/4cbcdfdf18ce0651ea35957cd315f636/5639a/image.jpg 566w","sizes":"(min-width: 566px) 566px, 100vw"},"sources":[{"srcSet":"/static/4cbcdfdf18ce0651ea35957cd315f636/e0c00/image.webp 283w,\n/static/4cbcdfdf18ce0651ea35957cd315f636/2d7be/image.webp 566w","type":"image/webp","sizes":"(min-width: 566px) 566px, 100vw"}]},"width":1600,"height":650.1766784452296}}}],"pageInfo":{"pageCount":8,"hasPreviousPage":true,"hasNextPage":true,"currentPage":3},"totalCount":43}},"pageContext":{"slug":"/category/microsoft-365/","limit":6,"skip":12,"collectionType":"category","paginatePostsPage":true,"basePath":"/","services":{"algolia":true,"mailchimp":false,"disqus":false,"graphComment":true,"facebookComment":false},"siteUrl":"https://www.agrenpoint.com","mobileMenu":{"title":"Topics","items":[{"name":"Azure","slug":"/category/azure/"},{"name":"Microsoft 365","slug":"/category/microsoft-365/"},{"name":"Endpoint management","slug":"/category/endpoint-management/"}]},"darkMode":true,"includeExcerpt":true,"includeTimeToRead":true,"includeTableOfContents":true,"imageQuality":75,"currentDate":"2025-03-29"}},"staticQueryHashes":["1992822086","2409295108","2925947909"]}