{"componentChunkName":"component---packages-blog-gatsby-blog-core-src-templates-collection-tag-js","path":"/tag/sharepoint/page/2/","result":{"data":{"collectionInfo":{"id":"a80e0145-ba14-5934-bb46-6906a002eab4","name":"sharepoint","slug":"/tag/sharepoint/"},"posts":{"nodes":[{"id":"e0dec6ac-7617-5591-93b4-01f9d7a42ea5","title":"Intro to Durable Functions in Node.js with PnPJs","slug":"/intro-durable/","link":null,"excerpt":"Durable functions are what Microsoft is calling \"orchestrator functions\". It's an extension of Azure…","timeToRead":5,"featured":null,"thumbnailText":null,"date":"November 25, 2019","category":{"id":"64f10eaf-091c-555c-a28e-13a12e934b04","name":"Azure","slug":"/category/azure/","color":"#007fff","icon":"/static/660faf3683bb1a8489baa9402bf62165/azure.svg"},"author":{"id":"6f313320-531a-5f32-9a22-708cb7653896","name":"Simon Ågren","slug":"/author/simon-agren/","title":"CTA & Microsoft MVP","description":"Solving business problems with tech","skills":["Microsoft 365","Azure"],"social":[{"name":"Github","url":"https://github.com/simonagren"},{"name":"Twitter","url":"https://twitter.com/agrenpoint"},{"name":"Website","url":"https://agrenpoint.com"}],"thumbnail":{"__typename":"ImageSharp","ImageSharp_small":{"layout":"fixed","backgroundColor":"#f8f8f8","images":{"fallback":{"src":"/static/bdc8525039042bedd52c0cf7d15e8521/ac0cb/simon-agren.jpg","srcSet":"/static/bdc8525039042bedd52c0cf7d15e8521/ac0cb/simon-agren.jpg 48w,\n/static/bdc8525039042bedd52c0cf7d15e8521/73f48/simon-agren.jpg 96w","sizes":"48px"},"sources":[{"srcSet":"/static/bdc8525039042bedd52c0cf7d15e8521/a3542/simon-agren.webp 48w,\n/static/bdc8525039042bedd52c0cf7d15e8521/0f66d/simon-agren.webp 96w","type":"image/webp","sizes":"48px"}]},"width":48,"height":48},"ImageSharp_regular":{"layout":"fixed","backgroundColor":"#f8f8f8","images":{"fallback":{"src":"/static/bdc8525039042bedd52c0cf7d15e8521/f679f/simon-agren.jpg","srcSet":"/static/bdc8525039042bedd52c0cf7d15e8521/f679f/simon-agren.jpg 150w,\n/static/bdc8525039042bedd52c0cf7d15e8521/78d3d/simon-agren.jpg 300w","sizes":"150px"},"sources":[{"srcSet":"/static/bdc8525039042bedd52c0cf7d15e8521/ae23d/simon-agren.webp 150w,\n/static/bdc8525039042bedd52c0cf7d15e8521/bd37b/simon-agren.webp 300w","type":"image/webp","sizes":"150px"}]},"width":150,"height":150}}},"thumbnail":{"__typename":"ImageSharp","ImageSharp_vertical":{"layout":"constrained","backgroundColor":"#f8f8f8","images":{"fallback":{"src":"/static/1a54320cc4d378a5d07eeb28b33dec88/144fe/architecture.jpg","srcSet":"/static/1a54320cc4d378a5d07eeb28b33dec88/9d7b9/architecture.jpg 190w,\n/static/1a54320cc4d378a5d07eeb28b33dec88/144fe/architecture.jpg 380w","sizes":"(min-width: 380px) 380px, 100vw"},"sources":[{"srcSet":"/static/1a54320cc4d378a5d07eeb28b33dec88/228d6/architecture.webp 190w,\n/static/1a54320cc4d378a5d07eeb28b33dec88/6b99c/architecture.webp 380w","type":"image/webp","sizes":"(min-width: 380px) 380px, 100vw"}]},"width":380,"height":290},"ImageSharp_hero":{"layout":"constrained","backgroundColor":"#f8f8f8","images":{"fallback":{"src":"/static/1a54320cc4d378a5d07eeb28b33dec88/061b3/architecture.jpg","srcSet":"/static/1a54320cc4d378a5d07eeb28b33dec88/fd7a7/architecture.jpg 605w,\n/static/1a54320cc4d378a5d07eeb28b33dec88/061b3/architecture.jpg 1209w","sizes":"(min-width: 1209px) 1209px, 100vw"},"sources":[{"srcSet":"/static/1a54320cc4d378a5d07eeb28b33dec88/6f4ef/architecture.webp 605w,\n/static/1a54320cc4d378a5d07eeb28b33dec88/2891d/architecture.webp 1209w","type":"image/webp","sizes":"(min-width: 1209px) 1209px, 100vw"}]},"width":1600,"height":649.7932175351531}}},{"id":"d68361d4-b0da-5903-a3f8-1a206a3e2e29","title":"Modern SharePoint site creation with site designs and REST","slug":"/sites-sitedesign-rest/","link":null,"excerpt":"In this post I will show you some REST operations to create modern SharePoint sites along with site…","timeToRead":3,"featured":null,"thumbnailText":null,"date":"February 25, 2019","category":{"id":"b0babac0-675d-51af-aa7a-ce603b3a7af4","name":"Microsoft 365","slug":"/category/microsoft-365/","color":"#f25022","icon":"/static/363fdd53d34303b727d9dab161b8e88b/microsoft365.svg"},"author":{"id":"6f313320-531a-5f32-9a22-708cb7653896","name":"Simon Ågren","slug":"/author/simon-agren/","title":"CTA & Microsoft MVP","description":"Solving business problems with tech","skills":["Microsoft 365","Azure"],"social":[{"name":"Github","url":"https://github.com/simonagren"},{"name":"Twitter","url":"https://twitter.com/agrenpoint"},{"name":"Website","url":"https://agrenpoint.com"}],"thumbnail":{"__typename":"ImageSharp","ImageSharp_small":{"layout":"fixed","backgroundColor":"#f8f8f8","images":{"fallback":{"src":"/static/bdc8525039042bedd52c0cf7d15e8521/ac0cb/simon-agren.jpg","srcSet":"/static/bdc8525039042bedd52c0cf7d15e8521/ac0cb/simon-agren.jpg 48w,\n/static/bdc8525039042bedd52c0cf7d15e8521/73f48/simon-agren.jpg 96w","sizes":"48px"},"sources":[{"srcSet":"/static/bdc8525039042bedd52c0cf7d15e8521/a3542/simon-agren.webp 48w,\n/static/bdc8525039042bedd52c0cf7d15e8521/0f66d/simon-agren.webp 96w","type":"image/webp","sizes":"48px"}]},"width":48,"height":48},"ImageSharp_regular":{"layout":"fixed","backgroundColor":"#f8f8f8","images":{"fallback":{"src":"/static/bdc8525039042bedd52c0cf7d15e8521/f679f/simon-agren.jpg","srcSet":"/static/bdc8525039042bedd52c0cf7d15e8521/f679f/simon-agren.jpg 150w,\n/static/bdc8525039042bedd52c0cf7d15e8521/78d3d/simon-agren.jpg 300w","sizes":"150px"},"sources":[{"srcSet":"/static/bdc8525039042bedd52c0cf7d15e8521/ae23d/simon-agren.webp 150w,\n/static/bdc8525039042bedd52c0cf7d15e8521/bd37b/simon-agren.webp 300w","type":"image/webp","sizes":"150px"}]},"width":150,"height":150}}},"thumbnail":{"__typename":"ImageSharp","ImageSharp_vertical":{"layout":"constrained","backgroundColor":"#f8f8f8","images":{"fallback":{"src":"/static/ff2b8fa9eecd9eb3cb337dceccaf0bb5/19188/sitescript.png","srcSet":"/static/ff2b8fa9eecd9eb3cb337dceccaf0bb5/db297/sitescript.png 190w,\n/static/ff2b8fa9eecd9eb3cb337dceccaf0bb5/19188/sitescript.png 380w","sizes":"(min-width: 380px) 380px, 100vw"},"sources":[{"srcSet":"/static/ff2b8fa9eecd9eb3cb337dceccaf0bb5/228d6/sitescript.webp 190w,\n/static/ff2b8fa9eecd9eb3cb337dceccaf0bb5/6b99c/sitescript.webp 380w","type":"image/webp","sizes":"(min-width: 380px) 380px, 100vw"}]},"width":380,"height":290},"ImageSharp_hero":{"layout":"constrained","backgroundColor":"#f8f8f8","images":{"fallback":{"src":"/static/ff2b8fa9eecd9eb3cb337dceccaf0bb5/5bdba/sitescript.png","srcSet":"/static/ff2b8fa9eecd9eb3cb337dceccaf0bb5/e6757/sitescript.png 499w,\n/static/ff2b8fa9eecd9eb3cb337dceccaf0bb5/5bdba/sitescript.png 998w","sizes":"(min-width: 998px) 998px, 100vw"},"sources":[{"srcSet":"/static/ff2b8fa9eecd9eb3cb337dceccaf0bb5/17534/sitescript.webp 499w,\n/static/ff2b8fa9eecd9eb3cb337dceccaf0bb5/54084/sitescript.webp 998w","type":"image/webp","sizes":"(min-width: 998px) 998px, 100vw"}]},"width":1600,"height":649.2985971943888}}},{"id":"800b7e77-e2aa-5a23-b50b-88680a16b735","title":"Findings from issues with SharePoint Starter Kit","slug":"/sp-starter-footer/","link":null,"excerpt":"I have been getting some questions about how to resolve some of the issues with the footer and links…","timeToRead":3,"featured":null,"thumbnailText":null,"date":"February 07, 2019","category":{"id":"b0babac0-675d-51af-aa7a-ce603b3a7af4","name":"Microsoft 365","slug":"/category/microsoft-365/","color":"#f25022","icon":"/static/363fdd53d34303b727d9dab161b8e88b/microsoft365.svg"},"author":{"id":"6f313320-531a-5f32-9a22-708cb7653896","name":"Simon Ågren","slug":"/author/simon-agren/","title":"CTA & Microsoft MVP","description":"Solving business problems with tech","skills":["Microsoft 365","Azure"],"social":[{"name":"Github","url":"https://github.com/simonagren"},{"name":"Twitter","url":"https://twitter.com/agrenpoint"},{"name":"Website","url":"https://agrenpoint.com"}],"thumbnail":{"__typename":"ImageSharp","ImageSharp_small":{"layout":"fixed","backgroundColor":"#f8f8f8","images":{"fallback":{"src":"/static/bdc8525039042bedd52c0cf7d15e8521/ac0cb/simon-agren.jpg","srcSet":"/static/bdc8525039042bedd52c0cf7d15e8521/ac0cb/simon-agren.jpg 48w,\n/static/bdc8525039042bedd52c0cf7d15e8521/73f48/simon-agren.jpg 96w","sizes":"48px"},"sources":[{"srcSet":"/static/bdc8525039042bedd52c0cf7d15e8521/a3542/simon-agren.webp 48w,\n/static/bdc8525039042bedd52c0cf7d15e8521/0f66d/simon-agren.webp 96w","type":"image/webp","sizes":"48px"}]},"width":48,"height":48},"ImageSharp_regular":{"layout":"fixed","backgroundColor":"#f8f8f8","images":{"fallback":{"src":"/static/bdc8525039042bedd52c0cf7d15e8521/f679f/simon-agren.jpg","srcSet":"/static/bdc8525039042bedd52c0cf7d15e8521/f679f/simon-agren.jpg 150w,\n/static/bdc8525039042bedd52c0cf7d15e8521/78d3d/simon-agren.jpg 300w","sizes":"150px"},"sources":[{"srcSet":"/static/bdc8525039042bedd52c0cf7d15e8521/ae23d/simon-agren.webp 150w,\n/static/bdc8525039042bedd52c0cf7d15e8521/bd37b/simon-agren.webp 300w","type":"image/webp","sizes":"150px"}]},"width":150,"height":150}}},"thumbnail":{"__typename":"ImageSharp","ImageSharp_vertical":{"layout":"constrained","backgroundColor":"#f8f8f8","images":{"fallback":{"src":"/static/a9c673011e6ee31cd62829d6065f636d/19188/default-front-page-contoso.png","srcSet":"/static/a9c673011e6ee31cd62829d6065f636d/db297/default-front-page-contoso.png 190w,\n/static/a9c673011e6ee31cd62829d6065f636d/19188/default-front-page-contoso.png 380w","sizes":"(min-width: 380px) 380px, 100vw"},"sources":[{"srcSet":"/static/a9c673011e6ee31cd62829d6065f636d/228d6/default-front-page-contoso.webp 190w,\n/static/a9c673011e6ee31cd62829d6065f636d/6b99c/default-front-page-contoso.webp 380w","type":"image/webp","sizes":"(min-width: 380px) 380px, 100vw"}]},"width":380,"height":290},"ImageSharp_hero":{"layout":"constrained","backgroundColor":"#f8f8f8","images":{"fallback":{"src":"/static/a9c673011e6ee31cd62829d6065f636d/dfc00/default-front-page-contoso.png","srcSet":"/static/a9c673011e6ee31cd62829d6065f636d/481ea/default-front-page-contoso.png 608w,\n/static/a9c673011e6ee31cd62829d6065f636d/dfc00/default-front-page-contoso.png 1216w","sizes":"(min-width: 1216px) 1216px, 100vw"},"sources":[{"srcSet":"/static/a9c673011e6ee31cd62829d6065f636d/e93b9/default-front-page-contoso.webp 608w,\n/static/a9c673011e6ee31cd62829d6065f636d/a4e5a/default-front-page-contoso.webp 1216w","type":"image/webp","sizes":"(min-width: 1216px) 1216px, 100vw"}]},"width":1600,"height":650}}},{"id":"cb52762b-13f2-59de-b38c-e70f9d2532b6","title":"Extending My Links in SharePoint Starter Kit","slug":"/sp-starter-xml-links/","link":null,"excerpt":"I made two posts at once and here is the previous:  Findings from issues with SharePoint Starter Kit…","timeToRead":1,"featured":null,"thumbnailText":null,"date":"February 07, 2019","category":{"id":"b0babac0-675d-51af-aa7a-ce603b3a7af4","name":"Microsoft 365","slug":"/category/microsoft-365/","color":"#f25022","icon":"/static/363fdd53d34303b727d9dab161b8e88b/microsoft365.svg"},"author":{"id":"6f313320-531a-5f32-9a22-708cb7653896","name":"Simon Ågren","slug":"/author/simon-agren/","title":"CTA & Microsoft MVP","description":"Solving business problems with tech","skills":["Microsoft 365","Azure"],"social":[{"name":"Github","url":"https://github.com/simonagren"},{"name":"Twitter","url":"https://twitter.com/agrenpoint"},{"name":"Website","url":"https://agrenpoint.com"}],"thumbnail":{"__typename":"ImageSharp","ImageSharp_small":{"layout":"fixed","backgroundColor":"#f8f8f8","images":{"fallback":{"src":"/static/bdc8525039042bedd52c0cf7d15e8521/ac0cb/simon-agren.jpg","srcSet":"/static/bdc8525039042bedd52c0cf7d15e8521/ac0cb/simon-agren.jpg 48w,\n/static/bdc8525039042bedd52c0cf7d15e8521/73f48/simon-agren.jpg 96w","sizes":"48px"},"sources":[{"srcSet":"/static/bdc8525039042bedd52c0cf7d15e8521/a3542/simon-agren.webp 48w,\n/static/bdc8525039042bedd52c0cf7d15e8521/0f66d/simon-agren.webp 96w","type":"image/webp","sizes":"48px"}]},"width":48,"height":48},"ImageSharp_regular":{"layout":"fixed","backgroundColor":"#f8f8f8","images":{"fallback":{"src":"/static/bdc8525039042bedd52c0cf7d15e8521/f679f/simon-agren.jpg","srcSet":"/static/bdc8525039042bedd52c0cf7d15e8521/f679f/simon-agren.jpg 150w,\n/static/bdc8525039042bedd52c0cf7d15e8521/78d3d/simon-agren.jpg 300w","sizes":"150px"},"sources":[{"srcSet":"/static/bdc8525039042bedd52c0cf7d15e8521/ae23d/simon-agren.webp 150w,\n/static/bdc8525039042bedd52c0cf7d15e8521/bd37b/simon-agren.webp 300w","type":"image/webp","sizes":"150px"}]},"width":150,"height":150}}},"thumbnail":{"__typename":"ImageSharp","ImageSharp_vertical":{"layout":"constrained","backgroundColor":"#181818","images":{"fallback":{"src":"/static/8a14189f90fa0cda77481a083fa52391/144fe/extend.jpg","srcSet":"/static/8a14189f90fa0cda77481a083fa52391/9d7b9/extend.jpg 190w,\n/static/8a14189f90fa0cda77481a083fa52391/144fe/extend.jpg 380w","sizes":"(min-width: 380px) 380px, 100vw"},"sources":[{"srcSet":"/static/8a14189f90fa0cda77481a083fa52391/228d6/extend.webp 190w,\n/static/8a14189f90fa0cda77481a083fa52391/6b99c/extend.webp 380w","type":"image/webp","sizes":"(min-width: 380px) 380px, 100vw"}]},"width":380,"height":290},"ImageSharp_hero":{"layout":"constrained","backgroundColor":"#181818","images":{"fallback":{"src":"/static/8a14189f90fa0cda77481a083fa52391/5e493/extend.jpg","srcSet":"/static/8a14189f90fa0cda77481a083fa52391/696c0/extend.jpg 800w,\n/static/8a14189f90fa0cda77481a083fa52391/5e493/extend.jpg 1600w","sizes":"(min-width: 1600px) 1600px, 100vw"},"sources":[{"srcSet":"/static/8a14189f90fa0cda77481a083fa52391/c9f06/extend.webp 800w,\n/static/8a14189f90fa0cda77481a083fa52391/f47df/extend.webp 1600w","type":"image/webp","sizes":"(min-width: 1600px) 1600px, 100vw"}]},"width":1600,"height":650}}},{"id":"490e44d7-a010-5c95-8f05-c4d0e1be57b5","title":"Part 4 - Azure Functions V2 + VS Code + PnPJs === true","slug":"/part4-azurefunction/","link":null,"excerpt":"The posts in this series Part 4 - Azure Functions V2 + VS Code + PnPJs === true This is the last…","timeToRead":5,"featured":null,"thumbnailText":null,"date":"November 25, 2018","category":{"id":"64f10eaf-091c-555c-a28e-13a12e934b04","name":"Azure","slug":"/category/azure/","color":"#007fff","icon":"/static/660faf3683bb1a8489baa9402bf62165/azure.svg"},"author":{"id":"6f313320-531a-5f32-9a22-708cb7653896","name":"Simon Ågren","slug":"/author/simon-agren/","title":"CTA & Microsoft MVP","description":"Solving business problems with tech","skills":["Microsoft 365","Azure"],"social":[{"name":"Github","url":"https://github.com/simonagren"},{"name":"Twitter","url":"https://twitter.com/agrenpoint"},{"name":"Website","url":"https://agrenpoint.com"}],"thumbnail":{"__typename":"ImageSharp","ImageSharp_small":{"layout":"fixed","backgroundColor":"#f8f8f8","images":{"fallback":{"src":"/static/bdc8525039042bedd52c0cf7d15e8521/ac0cb/simon-agren.jpg","srcSet":"/static/bdc8525039042bedd52c0cf7d15e8521/ac0cb/simon-agren.jpg 48w,\n/static/bdc8525039042bedd52c0cf7d15e8521/73f48/simon-agren.jpg 96w","sizes":"48px"},"sources":[{"srcSet":"/static/bdc8525039042bedd52c0cf7d15e8521/a3542/simon-agren.webp 48w,\n/static/bdc8525039042bedd52c0cf7d15e8521/0f66d/simon-agren.webp 96w","type":"image/webp","sizes":"48px"}]},"width":48,"height":48},"ImageSharp_regular":{"layout":"fixed","backgroundColor":"#f8f8f8","images":{"fallback":{"src":"/static/bdc8525039042bedd52c0cf7d15e8521/f679f/simon-agren.jpg","srcSet":"/static/bdc8525039042bedd52c0cf7d15e8521/f679f/simon-agren.jpg 150w,\n/static/bdc8525039042bedd52c0cf7d15e8521/78d3d/simon-agren.jpg 300w","sizes":"150px"},"sources":[{"srcSet":"/static/bdc8525039042bedd52c0cf7d15e8521/ae23d/simon-agren.webp 150w,\n/static/bdc8525039042bedd52c0cf7d15e8521/bd37b/simon-agren.webp 300w","type":"image/webp","sizes":"150px"}]},"width":150,"height":150}}},"thumbnail":{"__typename":"ImageSharp","ImageSharp_vertical":{"layout":"constrained","backgroundColor":"#f8f8f8","images":{"fallback":{"src":"/static/9eba6bc91f2af79fc88248378c1ecef4/19188/funcpnp4.png","srcSet":"/static/9eba6bc91f2af79fc88248378c1ecef4/db297/funcpnp4.png 190w,\n/static/9eba6bc91f2af79fc88248378c1ecef4/19188/funcpnp4.png 380w","sizes":"(min-width: 380px) 380px, 100vw"},"sources":[{"srcSet":"/static/9eba6bc91f2af79fc88248378c1ecef4/228d6/funcpnp4.webp 190w,\n/static/9eba6bc91f2af79fc88248378c1ecef4/6b99c/funcpnp4.webp 380w","type":"image/webp","sizes":"(min-width: 380px) 380px, 100vw"}]},"width":380,"height":290},"ImageSharp_hero":{"layout":"constrained","backgroundColor":"#f8f8f8","images":{"fallback":{"src":"/static/9eba6bc91f2af79fc88248378c1ecef4/17e9b/funcpnp4.png","srcSet":"/static/9eba6bc91f2af79fc88248378c1ecef4/bed7a/funcpnp4.png 400w,\n/static/9eba6bc91f2af79fc88248378c1ecef4/17e9b/funcpnp4.png 800w","sizes":"(min-width: 800px) 800px, 100vw"},"sources":[{"srcSet":"/static/9eba6bc91f2af79fc88248378c1ecef4/6a2da/funcpnp4.webp 400w,\n/static/9eba6bc91f2af79fc88248378c1ecef4/c9f06/funcpnp4.webp 800w","type":"image/webp","sizes":"(min-width: 800px) 800px, 100vw"}]},"width":1600,"height":650}}},{"id":"e6eeb50c-d28b-5e8c-87ba-08fe7119f410","title":"Part 3 - Azure Functions V2 + VS Code + PnPJs === true","slug":"/part3-azurefunction/","link":null,"excerpt":"The posts in this series Part 3 - Azure Functions V2 + VS Code + PnPJs === true I this post we will…","timeToRead":2,"featured":null,"thumbnailText":null,"date":"November 20, 2018","category":{"id":"64f10eaf-091c-555c-a28e-13a12e934b04","name":"Azure","slug":"/category/azure/","color":"#007fff","icon":"/static/660faf3683bb1a8489baa9402bf62165/azure.svg"},"author":{"id":"6f313320-531a-5f32-9a22-708cb7653896","name":"Simon Ågren","slug":"/author/simon-agren/","title":"CTA & Microsoft MVP","description":"Solving business problems with tech","skills":["Microsoft 365","Azure"],"social":[{"name":"Github","url":"https://github.com/simonagren"},{"name":"Twitter","url":"https://twitter.com/agrenpoint"},{"name":"Website","url":"https://agrenpoint.com"}],"thumbnail":{"__typename":"ImageSharp","ImageSharp_small":{"layout":"fixed","backgroundColor":"#f8f8f8","images":{"fallback":{"src":"/static/bdc8525039042bedd52c0cf7d15e8521/ac0cb/simon-agren.jpg","srcSet":"/static/bdc8525039042bedd52c0cf7d15e8521/ac0cb/simon-agren.jpg 48w,\n/static/bdc8525039042bedd52c0cf7d15e8521/73f48/simon-agren.jpg 96w","sizes":"48px"},"sources":[{"srcSet":"/static/bdc8525039042bedd52c0cf7d15e8521/a3542/simon-agren.webp 48w,\n/static/bdc8525039042bedd52c0cf7d15e8521/0f66d/simon-agren.webp 96w","type":"image/webp","sizes":"48px"}]},"width":48,"height":48},"ImageSharp_regular":{"layout":"fixed","backgroundColor":"#f8f8f8","images":{"fallback":{"src":"/static/bdc8525039042bedd52c0cf7d15e8521/f679f/simon-agren.jpg","srcSet":"/static/bdc8525039042bedd52c0cf7d15e8521/f679f/simon-agren.jpg 150w,\n/static/bdc8525039042bedd52c0cf7d15e8521/78d3d/simon-agren.jpg 300w","sizes":"150px"},"sources":[{"srcSet":"/static/bdc8525039042bedd52c0cf7d15e8521/ae23d/simon-agren.webp 150w,\n/static/bdc8525039042bedd52c0cf7d15e8521/bd37b/simon-agren.webp 300w","type":"image/webp","sizes":"150px"}]},"width":150,"height":150}}},"thumbnail":{"__typename":"ImageSharp","ImageSharp_vertical":{"layout":"constrained","backgroundColor":"#f8f8f8","images":{"fallback":{"src":"/static/c7aa3f5193d2ac45392b4291dbd280fc/19188/funcpnp3.png","srcSet":"/static/c7aa3f5193d2ac45392b4291dbd280fc/db297/funcpnp3.png 190w,\n/static/c7aa3f5193d2ac45392b4291dbd280fc/19188/funcpnp3.png 380w","sizes":"(min-width: 380px) 380px, 100vw"},"sources":[{"srcSet":"/static/c7aa3f5193d2ac45392b4291dbd280fc/228d6/funcpnp3.webp 190w,\n/static/c7aa3f5193d2ac45392b4291dbd280fc/6b99c/funcpnp3.webp 380w","type":"image/webp","sizes":"(min-width: 380px) 380px, 100vw"}]},"width":380,"height":290},"ImageSharp_hero":{"layout":"constrained","backgroundColor":"#f8f8f8","images":{"fallback":{"src":"/static/c7aa3f5193d2ac45392b4291dbd280fc/17e9b/funcpnp3.png","srcSet":"/static/c7aa3f5193d2ac45392b4291dbd280fc/bed7a/funcpnp3.png 400w,\n/static/c7aa3f5193d2ac45392b4291dbd280fc/17e9b/funcpnp3.png 800w","sizes":"(min-width: 800px) 800px, 100vw"},"sources":[{"srcSet":"/static/c7aa3f5193d2ac45392b4291dbd280fc/6a2da/funcpnp3.webp 400w,\n/static/c7aa3f5193d2ac45392b4291dbd280fc/c9f06/funcpnp3.webp 800w","type":"image/webp","sizes":"(min-width: 800px) 800px, 100vw"}]},"width":1600,"height":650}}}],"pageInfo":{"pageCount":3,"hasPreviousPage":true,"hasNextPage":true,"currentPage":2},"totalCount":16}},"pageContext":{"slug":"/tag/sharepoint/","limit":6,"skip":6,"collectionType":"tags","paginatePostsPage":true,"basePath":"/","services":{"algolia":true,"mailchimp":false,"disqus":false,"graphComment":true,"facebookComment":false},"siteUrl":"https://www.agrenpoint.com","mobileMenu":{"title":"Topics","items":[{"name":"Azure","slug":"/category/azure/"},{"name":"Endpoint management","slug":"/category/endpoint-management/"},{"name":"Microsoft 365","slug":"/category/microsoft-365/"}]},"darkMode":true,"includeExcerpt":true,"includeTimeToRead":true,"includeTableOfContents":true,"imageQuality":75,"currentDate":"2026-03-02"}},"staticQueryHashes":["1992822086","2409295108","2925947909"]}