{"componentChunkName":"component---packages-blog-gatsby-blog-core-src-templates-collection-tag-js","path":"/tag/m365/page/2/","result":{"data":{"collectionInfo":{"id":"341499b6-6cca-578f-a7b6-44a6aaab445d","name":"m365","slug":"/tag/m365/"},"posts":{"nodes":[{"id":"bf90ac47-1787-5190-bf15-0d273af21d33","title":"Microsoft 365 Archive - A Comprehensive Guide","slug":"/microsoft-365-archive-a-comprehensive-guide/","link":null,"excerpt":"What is Microsoft 365 Archive? Microsoft 365 Archive provides a cost-effective solution for storing…","timeToRead":3,"featured":true,"thumbnailText":null,"date":"August 20, 2024","category":{"id":"b0babac0-675d-51af-aa7a-ce603b3a7af4","name":"Microsoft 365","slug":"/category/microsoft-365/","color":"#f25022","icon":"/static/363fdd53d34303b727d9dab161b8e88b/microsoft365.svg"},"author":{"id":"6f313320-531a-5f32-9a22-708cb7653896","name":"Simon Ågren","slug":"/author/simon-agren/","title":"CTA & Microsoft MVP","description":"Solving business problems with tech","skills":["Microsoft 365","Azure"],"social":[{"name":"Github","url":"https://github.com/simonagren"},{"name":"Twitter","url":"https://twitter.com/agrenpoint"},{"name":"Website","url":"https://agrenpoint.com"}],"thumbnail":{"__typename":"ImageSharp","ImageSharp_small":{"layout":"fixed","backgroundColor":"#f8f8f8","images":{"fallback":{"src":"/static/bdc8525039042bedd52c0cf7d15e8521/ac0cb/simon-agren.jpg","srcSet":"/static/bdc8525039042bedd52c0cf7d15e8521/ac0cb/simon-agren.jpg 48w,\n/static/bdc8525039042bedd52c0cf7d15e8521/73f48/simon-agren.jpg 96w","sizes":"48px"},"sources":[{"srcSet":"/static/bdc8525039042bedd52c0cf7d15e8521/a3542/simon-agren.webp 48w,\n/static/bdc8525039042bedd52c0cf7d15e8521/0f66d/simon-agren.webp 96w","type":"image/webp","sizes":"48px"}]},"width":48,"height":48},"ImageSharp_regular":{"layout":"fixed","backgroundColor":"#f8f8f8","images":{"fallback":{"src":"/static/bdc8525039042bedd52c0cf7d15e8521/f679f/simon-agren.jpg","srcSet":"/static/bdc8525039042bedd52c0cf7d15e8521/f679f/simon-agren.jpg 150w,\n/static/bdc8525039042bedd52c0cf7d15e8521/78d3d/simon-agren.jpg 300w","sizes":"150px"},"sources":[{"srcSet":"/static/bdc8525039042bedd52c0cf7d15e8521/ae23d/simon-agren.webp 150w,\n/static/bdc8525039042bedd52c0cf7d15e8521/bd37b/simon-agren.webp 300w","type":"image/webp","sizes":"150px"}]},"width":150,"height":150}}},"thumbnail":{"__typename":"ImageSharp","ImageSharp_vertical":{"layout":"constrained","backgroundColor":"#281838","images":{"fallback":{"src":"/static/021eb89692931d09b5c12cb439b33e50/144fe/image.jpg","srcSet":"/static/021eb89692931d09b5c12cb439b33e50/9d7b9/image.jpg 190w,\n/static/021eb89692931d09b5c12cb439b33e50/144fe/image.jpg 380w","sizes":"(min-width: 380px) 380px, 100vw"},"sources":[{"srcSet":"/static/021eb89692931d09b5c12cb439b33e50/228d6/image.webp 190w,\n/static/021eb89692931d09b5c12cb439b33e50/6b99c/image.webp 380w","type":"image/webp","sizes":"(min-width: 380px) 380px, 100vw"}]},"width":380,"height":290},"ImageSharp_hero":{"layout":"constrained","backgroundColor":"#281838","images":{"fallback":{"src":"/static/021eb89692931d09b5c12cb439b33e50/7a1ff/image.jpg","srcSet":"/static/021eb89692931d09b5c12cb439b33e50/a6b27/image.jpg 512w,\n/static/021eb89692931d09b5c12cb439b33e50/7a1ff/image.jpg 1024w","sizes":"(min-width: 1024px) 1024px, 100vw"},"sources":[{"srcSet":"/static/021eb89692931d09b5c12cb439b33e50/99476/image.webp 512w,\n/static/021eb89692931d09b5c12cb439b33e50/251f6/image.webp 1024w","type":"image/webp","sizes":"(min-width: 1024px) 1024px, 100vw"}]},"width":1600,"height":650}}},{"id":"14a04940-c2b5-583c-ac57-3846725c030b","title":"Default Sensitivity Labels - Programatically","slug":"/default-sensitivity-labels-programatically/","link":null,"excerpt":"Introduction Sensitivity labels are essential for classifying and protecting sensitive information…","timeToRead":1,"featured":true,"thumbnailText":null,"date":"May 13, 2024","category":{"id":"b0babac0-675d-51af-aa7a-ce603b3a7af4","name":"Microsoft 365","slug":"/category/microsoft-365/","color":"#f25022","icon":"/static/363fdd53d34303b727d9dab161b8e88b/microsoft365.svg"},"author":{"id":"6f313320-531a-5f32-9a22-708cb7653896","name":"Simon Ågren","slug":"/author/simon-agren/","title":"CTA & Microsoft MVP","description":"Solving business problems with tech","skills":["Microsoft 365","Azure"],"social":[{"name":"Github","url":"https://github.com/simonagren"},{"name":"Twitter","url":"https://twitter.com/agrenpoint"},{"name":"Website","url":"https://agrenpoint.com"}],"thumbnail":{"__typename":"ImageSharp","ImageSharp_small":{"layout":"fixed","backgroundColor":"#f8f8f8","images":{"fallback":{"src":"/static/bdc8525039042bedd52c0cf7d15e8521/ac0cb/simon-agren.jpg","srcSet":"/static/bdc8525039042bedd52c0cf7d15e8521/ac0cb/simon-agren.jpg 48w,\n/static/bdc8525039042bedd52c0cf7d15e8521/73f48/simon-agren.jpg 96w","sizes":"48px"},"sources":[{"srcSet":"/static/bdc8525039042bedd52c0cf7d15e8521/a3542/simon-agren.webp 48w,\n/static/bdc8525039042bedd52c0cf7d15e8521/0f66d/simon-agren.webp 96w","type":"image/webp","sizes":"48px"}]},"width":48,"height":48},"ImageSharp_regular":{"layout":"fixed","backgroundColor":"#f8f8f8","images":{"fallback":{"src":"/static/bdc8525039042bedd52c0cf7d15e8521/f679f/simon-agren.jpg","srcSet":"/static/bdc8525039042bedd52c0cf7d15e8521/f679f/simon-agren.jpg 150w,\n/static/bdc8525039042bedd52c0cf7d15e8521/78d3d/simon-agren.jpg 300w","sizes":"150px"},"sources":[{"srcSet":"/static/bdc8525039042bedd52c0cf7d15e8521/ae23d/simon-agren.webp 150w,\n/static/bdc8525039042bedd52c0cf7d15e8521/bd37b/simon-agren.webp 300w","type":"image/webp","sizes":"150px"}]},"width":150,"height":150}}},"thumbnail":{"__typename":"ImageSharp","ImageSharp_vertical":{"layout":"constrained","backgroundColor":"#183868","images":{"fallback":{"src":"/static/e634af9ad521a491c4ba0edf22b7b39c/144fe/image.jpg","srcSet":"/static/e634af9ad521a491c4ba0edf22b7b39c/9d7b9/image.jpg 190w,\n/static/e634af9ad521a491c4ba0edf22b7b39c/144fe/image.jpg 380w","sizes":"(min-width: 380px) 380px, 100vw"},"sources":[{"srcSet":"/static/e634af9ad521a491c4ba0edf22b7b39c/228d6/image.webp 190w,\n/static/e634af9ad521a491c4ba0edf22b7b39c/6b99c/image.webp 380w","type":"image/webp","sizes":"(min-width: 380px) 380px, 100vw"}]},"width":380,"height":290},"ImageSharp_hero":{"layout":"constrained","backgroundColor":"#183868","images":{"fallback":{"src":"/static/e634af9ad521a491c4ba0edf22b7b39c/7a1ff/image.jpg","srcSet":"/static/e634af9ad521a491c4ba0edf22b7b39c/a6b27/image.jpg 512w,\n/static/e634af9ad521a491c4ba0edf22b7b39c/7a1ff/image.jpg 1024w","sizes":"(min-width: 1024px) 1024px, 100vw"},"sources":[{"srcSet":"/static/e634af9ad521a491c4ba0edf22b7b39c/99476/image.webp 512w,\n/static/e634af9ad521a491c4ba0edf22b7b39c/251f6/image.webp 1024w","type":"image/webp","sizes":"(min-width: 1024px) 1024px, 100vw"}]},"width":1600,"height":650}}},{"id":"ebcca674-75c0-5193-9a6a-1ac2e83ea02b","title":"Default Sensitivity Labels in SharePoint and OneDrive","slug":"/default-sensitivity-labels-in-sharepoint-and-onedrive/","link":null,"excerpt":"Introduction In this blog post, we will understand how to configure a default sensitivity label for…","timeToRead":2,"featured":true,"thumbnailText":null,"date":"April 30, 2024","category":{"id":"b0babac0-675d-51af-aa7a-ce603b3a7af4","name":"Microsoft 365","slug":"/category/microsoft-365/","color":"#f25022","icon":"/static/363fdd53d34303b727d9dab161b8e88b/microsoft365.svg"},"author":{"id":"6f313320-531a-5f32-9a22-708cb7653896","name":"Simon Ågren","slug":"/author/simon-agren/","title":"CTA & Microsoft MVP","description":"Solving business problems with tech","skills":["Microsoft 365","Azure"],"social":[{"name":"Github","url":"https://github.com/simonagren"},{"name":"Twitter","url":"https://twitter.com/agrenpoint"},{"name":"Website","url":"https://agrenpoint.com"}],"thumbnail":{"__typename":"ImageSharp","ImageSharp_small":{"layout":"fixed","backgroundColor":"#f8f8f8","images":{"fallback":{"src":"/static/bdc8525039042bedd52c0cf7d15e8521/ac0cb/simon-agren.jpg","srcSet":"/static/bdc8525039042bedd52c0cf7d15e8521/ac0cb/simon-agren.jpg 48w,\n/static/bdc8525039042bedd52c0cf7d15e8521/73f48/simon-agren.jpg 96w","sizes":"48px"},"sources":[{"srcSet":"/static/bdc8525039042bedd52c0cf7d15e8521/a3542/simon-agren.webp 48w,\n/static/bdc8525039042bedd52c0cf7d15e8521/0f66d/simon-agren.webp 96w","type":"image/webp","sizes":"48px"}]},"width":48,"height":48},"ImageSharp_regular":{"layout":"fixed","backgroundColor":"#f8f8f8","images":{"fallback":{"src":"/static/bdc8525039042bedd52c0cf7d15e8521/f679f/simon-agren.jpg","srcSet":"/static/bdc8525039042bedd52c0cf7d15e8521/f679f/simon-agren.jpg 150w,\n/static/bdc8525039042bedd52c0cf7d15e8521/78d3d/simon-agren.jpg 300w","sizes":"150px"},"sources":[{"srcSet":"/static/bdc8525039042bedd52c0cf7d15e8521/ae23d/simon-agren.webp 150w,\n/static/bdc8525039042bedd52c0cf7d15e8521/bd37b/simon-agren.webp 300w","type":"image/webp","sizes":"150px"}]},"width":150,"height":150}}},"thumbnail":{"__typename":"ImageSharp","ImageSharp_vertical":{"layout":"constrained","backgroundColor":"#e8e8f8","images":{"fallback":{"src":"/static/990b49a205509d0f47d2f0015dce36e4/144fe/image.jpg","srcSet":"/static/990b49a205509d0f47d2f0015dce36e4/9d7b9/image.jpg 190w,\n/static/990b49a205509d0f47d2f0015dce36e4/144fe/image.jpg 380w","sizes":"(min-width: 380px) 380px, 100vw"},"sources":[{"srcSet":"/static/990b49a205509d0f47d2f0015dce36e4/228d6/image.webp 190w,\n/static/990b49a205509d0f47d2f0015dce36e4/6b99c/image.webp 380w","type":"image/webp","sizes":"(min-width: 380px) 380px, 100vw"}]},"width":380,"height":290},"ImageSharp_hero":{"layout":"constrained","backgroundColor":"#e8e8f8","images":{"fallback":{"src":"/static/990b49a205509d0f47d2f0015dce36e4/7a1ff/image.jpg","srcSet":"/static/990b49a205509d0f47d2f0015dce36e4/a6b27/image.jpg 512w,\n/static/990b49a205509d0f47d2f0015dce36e4/7a1ff/image.jpg 1024w","sizes":"(min-width: 1024px) 1024px, 100vw"},"sources":[{"srcSet":"/static/990b49a205509d0f47d2f0015dce36e4/99476/image.webp 512w,\n/static/990b49a205509d0f47d2f0015dce36e4/251f6/image.webp 1024w","type":"image/webp","sizes":"(min-width: 1024px) 1024px, 100vw"}]},"width":1600,"height":650}}}],"pageInfo":{"pageCount":2,"hasPreviousPage":true,"hasNextPage":false,"currentPage":2},"totalCount":9}},"pageContext":{"slug":"/tag/m365/","limit":6,"skip":6,"collectionType":"tags","paginatePostsPage":true,"basePath":"/","services":{"algolia":true,"mailchimp":false,"disqus":false,"graphComment":true,"facebookComment":false},"siteUrl":"https://www.agrenpoint.com","mobileMenu":{"title":"Topics","items":[{"name":"Azure","slug":"/category/azure/"},{"name":"Endpoint management","slug":"/category/endpoint-management/"},{"name":"Microsoft 365","slug":"/category/microsoft-365/"}]},"darkMode":true,"includeExcerpt":true,"includeTimeToRead":true,"includeTableOfContents":true,"imageQuality":75,"currentDate":"2026-03-02"}},"staticQueryHashes":["1992822086","2409295108","2925947909"]}