{"componentChunkName":"component---packages-blog-gatsby-blog-core-src-templates-collection-tag-js","path":"/tag/azuread/","result":{"data":{"collectionInfo":{"id":"f748e542-ff72-51b3-a28a-3a5821acccea","name":"azuread","slug":"/tag/azuread/"},"posts":{"nodes":[{"id":"ef683925-9dbf-5ada-ba6e-c0bda9b2dc70","title":"Using Conditional Access to Enforce Approved Apps with APP","slug":"/using-conditional-access-to-enforce-approved-apps-with-app/","link":null,"excerpt":"Introduction Mobile devices have revolutionized our work, allowing us to access corporate data…","timeToRead":2,"featured":true,"thumbnailText":null,"date":"February 20, 2023","category":{"id":"b0babac0-675d-51af-aa7a-ce603b3a7af4","name":"Microsoft 365","slug":"/category/microsoft-365/","color":"#f25022","icon":"/static/363fdd53d34303b727d9dab161b8e88b/microsoft365.svg"},"author":{"id":"6f313320-531a-5f32-9a22-708cb7653896","name":"Simon Ågren","slug":"/author/simon-agren/","title":"CTA & Microsoft MVP","description":"Solving business problems with tech","skills":["Microsoft 365","Azure"],"social":[{"name":"Github","url":"https://github.com/simonagren"},{"name":"Twitter","url":"https://twitter.com/agrenpoint"},{"name":"Website","url":"https://agrenpoint.com"}],"thumbnail":{"__typename":"ImageSharp","ImageSharp_small":{"layout":"fixed","backgroundColor":"#f8f8f8","images":{"fallback":{"src":"/static/bdc8525039042bedd52c0cf7d15e8521/ac0cb/simon-agren.jpg","srcSet":"/static/bdc8525039042bedd52c0cf7d15e8521/ac0cb/simon-agren.jpg 48w,\n/static/bdc8525039042bedd52c0cf7d15e8521/73f48/simon-agren.jpg 96w","sizes":"48px"},"sources":[{"srcSet":"/static/bdc8525039042bedd52c0cf7d15e8521/a3542/simon-agren.webp 48w,\n/static/bdc8525039042bedd52c0cf7d15e8521/0f66d/simon-agren.webp 96w","type":"image/webp","sizes":"48px"}]},"width":48,"height":48},"ImageSharp_regular":{"layout":"fixed","backgroundColor":"#f8f8f8","images":{"fallback":{"src":"/static/bdc8525039042bedd52c0cf7d15e8521/f679f/simon-agren.jpg","srcSet":"/static/bdc8525039042bedd52c0cf7d15e8521/f679f/simon-agren.jpg 150w,\n/static/bdc8525039042bedd52c0cf7d15e8521/78d3d/simon-agren.jpg 300w","sizes":"150px"},"sources":[{"srcSet":"/static/bdc8525039042bedd52c0cf7d15e8521/ae23d/simon-agren.webp 150w,\n/static/bdc8525039042bedd52c0cf7d15e8521/bd37b/simon-agren.webp 300w","type":"image/webp","sizes":"150px"}]},"width":150,"height":150}}},"thumbnail":{"__typename":"ImageSharp","ImageSharp_vertical":{"layout":"constrained","backgroundColor":"#f8f8f8","images":{"fallback":{"src":"/static/1b7a2f64e51e26bdba47ab8df23fc985/144fe/image.jpg","srcSet":"/static/1b7a2f64e51e26bdba47ab8df23fc985/9d7b9/image.jpg 190w,\n/static/1b7a2f64e51e26bdba47ab8df23fc985/144fe/image.jpg 380w","sizes":"(min-width: 380px) 380px, 100vw"},"sources":[{"srcSet":"/static/1b7a2f64e51e26bdba47ab8df23fc985/228d6/image.webp 190w,\n/static/1b7a2f64e51e26bdba47ab8df23fc985/6b99c/image.webp 380w","type":"image/webp","sizes":"(min-width: 380px) 380px, 100vw"}]},"width":380,"height":290},"ImageSharp_hero":{"layout":"constrained","backgroundColor":"#f8f8f8","images":{"fallback":{"src":"/static/1b7a2f64e51e26bdba47ab8df23fc985/e9e14/image.jpg","srcSet":"/static/1b7a2f64e51e26bdba47ab8df23fc985/6df8b/image.jpg 640w,\n/static/1b7a2f64e51e26bdba47ab8df23fc985/e9e14/image.jpg 1280w","sizes":"(min-width: 1280px) 1280px, 100vw"},"sources":[{"srcSet":"/static/1b7a2f64e51e26bdba47ab8df23fc985/5f634/image.webp 640w,\n/static/1b7a2f64e51e26bdba47ab8df23fc985/f81d8/image.webp 1280w","type":"image/webp","sizes":"(min-width: 1280px) 1280px, 100vw"}]},"width":1600,"height":650}}},{"id":"75b10dd1-1fc9-58d5-8891-113fc66c2467","title":"A collection of Microsoft Ninja Training","slug":"/a-collection-of-microsoft-ninja-training/","link":null,"excerpt":"Introduction Recently, I completed two pieces of Ninja training; Microsoft Purview Information…","timeToRead":1,"featured":true,"thumbnailText":null,"date":"February 09, 2023","category":{"id":"b0babac0-675d-51af-aa7a-ce603b3a7af4","name":"Microsoft 365","slug":"/category/microsoft-365/","color":"#f25022","icon":"/static/363fdd53d34303b727d9dab161b8e88b/microsoft365.svg"},"author":{"id":"6f313320-531a-5f32-9a22-708cb7653896","name":"Simon Ågren","slug":"/author/simon-agren/","title":"CTA & Microsoft MVP","description":"Solving business problems with tech","skills":["Microsoft 365","Azure"],"social":[{"name":"Github","url":"https://github.com/simonagren"},{"name":"Twitter","url":"https://twitter.com/agrenpoint"},{"name":"Website","url":"https://agrenpoint.com"}],"thumbnail":{"__typename":"ImageSharp","ImageSharp_small":{"layout":"fixed","backgroundColor":"#f8f8f8","images":{"fallback":{"src":"/static/bdc8525039042bedd52c0cf7d15e8521/ac0cb/simon-agren.jpg","srcSet":"/static/bdc8525039042bedd52c0cf7d15e8521/ac0cb/simon-agren.jpg 48w,\n/static/bdc8525039042bedd52c0cf7d15e8521/73f48/simon-agren.jpg 96w","sizes":"48px"},"sources":[{"srcSet":"/static/bdc8525039042bedd52c0cf7d15e8521/a3542/simon-agren.webp 48w,\n/static/bdc8525039042bedd52c0cf7d15e8521/0f66d/simon-agren.webp 96w","type":"image/webp","sizes":"48px"}]},"width":48,"height":48},"ImageSharp_regular":{"layout":"fixed","backgroundColor":"#f8f8f8","images":{"fallback":{"src":"/static/bdc8525039042bedd52c0cf7d15e8521/f679f/simon-agren.jpg","srcSet":"/static/bdc8525039042bedd52c0cf7d15e8521/f679f/simon-agren.jpg 150w,\n/static/bdc8525039042bedd52c0cf7d15e8521/78d3d/simon-agren.jpg 300w","sizes":"150px"},"sources":[{"srcSet":"/static/bdc8525039042bedd52c0cf7d15e8521/ae23d/simon-agren.webp 150w,\n/static/bdc8525039042bedd52c0cf7d15e8521/bd37b/simon-agren.webp 300w","type":"image/webp","sizes":"150px"}]},"width":150,"height":150}}},"thumbnail":{"__typename":"ImageSharp","ImageSharp_vertical":{"layout":"constrained","backgroundColor":"#f8f8f8","images":{"fallback":{"src":"/static/aa6b304aeede00e2d25f6bbeab7fb0f6/144fe/image.jpg","srcSet":"/static/aa6b304aeede00e2d25f6bbeab7fb0f6/9d7b9/image.jpg 190w,\n/static/aa6b304aeede00e2d25f6bbeab7fb0f6/144fe/image.jpg 380w","sizes":"(min-width: 380px) 380px, 100vw"},"sources":[{"srcSet":"/static/aa6b304aeede00e2d25f6bbeab7fb0f6/228d6/image.webp 190w,\n/static/aa6b304aeede00e2d25f6bbeab7fb0f6/6b99c/image.webp 380w","type":"image/webp","sizes":"(min-width: 380px) 380px, 100vw"}]},"width":380,"height":290},"ImageSharp_hero":{"layout":"constrained","backgroundColor":"#f8f8f8","images":{"fallback":{"src":"/static/aa6b304aeede00e2d25f6bbeab7fb0f6/fb1e2/image.jpg","srcSet":"/static/aa6b304aeede00e2d25f6bbeab7fb0f6/737e6/image.jpg 500w,\n/static/aa6b304aeede00e2d25f6bbeab7fb0f6/fb1e2/image.jpg 999w","sizes":"(min-width: 999px) 999px, 100vw"},"sources":[{"srcSet":"/static/aa6b304aeede00e2d25f6bbeab7fb0f6/e3a40/image.webp 500w,\n/static/aa6b304aeede00e2d25f6bbeab7fb0f6/e62d1/image.webp 999w","type":"image/webp","sizes":"(min-width: 999px) 999px, 100vw"}]},"width":1600,"height":650.2502502502502}}},{"id":"3775249d-bf27-553b-88e8-4f4354b2e1f5","title":"Custom Azure AD registration with Microsoft Graph PS","slug":"/custom-azure-ad-registration-with-microsoft-graph-ps/","link":null,"excerpt":"Introduction Similar to my post  PnP PowerShell - MFA account and Client Id  from a while back, I…","timeToRead":2,"featured":false,"thumbnailText":null,"date":"January 02, 2023","category":{"id":"b0babac0-675d-51af-aa7a-ce603b3a7af4","name":"Microsoft 365","slug":"/category/microsoft-365/","color":"#f25022","icon":"/static/363fdd53d34303b727d9dab161b8e88b/microsoft365.svg"},"author":{"id":"6f313320-531a-5f32-9a22-708cb7653896","name":"Simon Ågren","slug":"/author/simon-agren/","title":"CTA & Microsoft MVP","description":"Solving business problems with tech","skills":["Microsoft 365","Azure"],"social":[{"name":"Github","url":"https://github.com/simonagren"},{"name":"Twitter","url":"https://twitter.com/agrenpoint"},{"name":"Website","url":"https://agrenpoint.com"}],"thumbnail":{"__typename":"ImageSharp","ImageSharp_small":{"layout":"fixed","backgroundColor":"#f8f8f8","images":{"fallback":{"src":"/static/bdc8525039042bedd52c0cf7d15e8521/ac0cb/simon-agren.jpg","srcSet":"/static/bdc8525039042bedd52c0cf7d15e8521/ac0cb/simon-agren.jpg 48w,\n/static/bdc8525039042bedd52c0cf7d15e8521/73f48/simon-agren.jpg 96w","sizes":"48px"},"sources":[{"srcSet":"/static/bdc8525039042bedd52c0cf7d15e8521/a3542/simon-agren.webp 48w,\n/static/bdc8525039042bedd52c0cf7d15e8521/0f66d/simon-agren.webp 96w","type":"image/webp","sizes":"48px"}]},"width":48,"height":48},"ImageSharp_regular":{"layout":"fixed","backgroundColor":"#f8f8f8","images":{"fallback":{"src":"/static/bdc8525039042bedd52c0cf7d15e8521/f679f/simon-agren.jpg","srcSet":"/static/bdc8525039042bedd52c0cf7d15e8521/f679f/simon-agren.jpg 150w,\n/static/bdc8525039042bedd52c0cf7d15e8521/78d3d/simon-agren.jpg 300w","sizes":"150px"},"sources":[{"srcSet":"/static/bdc8525039042bedd52c0cf7d15e8521/ae23d/simon-agren.webp 150w,\n/static/bdc8525039042bedd52c0cf7d15e8521/bd37b/simon-agren.webp 300w","type":"image/webp","sizes":"150px"}]},"width":150,"height":150}}},"thumbnail":{"__typename":"ImageSharp","ImageSharp_vertical":{"layout":"constrained","backgroundColor":"#f8f8f8","images":{"fallback":{"src":"/static/277677938ffc6d236164bf3a4fef9f3c/6b99c/image.webp","srcSet":"/static/277677938ffc6d236164bf3a4fef9f3c/228d6/image.webp 190w,\n/static/277677938ffc6d236164bf3a4fef9f3c/6b99c/image.webp 380w","sizes":"(min-width: 380px) 380px, 100vw"},"sources":[]},"width":380,"height":290},"ImageSharp_hero":{"layout":"constrained","backgroundColor":"#f8f8f8","images":{"fallback":{"src":"/static/277677938ffc6d236164bf3a4fef9f3c/c9f06/image.webp","srcSet":"/static/277677938ffc6d236164bf3a4fef9f3c/6a2da/image.webp 400w,\n/static/277677938ffc6d236164bf3a4fef9f3c/c9f06/image.webp 800w","sizes":"(min-width: 800px) 800px, 100vw"},"sources":[]},"width":1600,"height":650}}},{"id":"49e2220d-3fd1-5575-b6c9-411f48106fbe","title":"PnP PowerShell - MFA account and Client Id","slug":"/pnp-powershell-mfa-account-and-client-id/","link":null,"excerpt":"The background of this post is that I got a question from a friend of mine. He was in a situation…","timeToRead":2,"featured":null,"thumbnailText":null,"date":"May 09, 2021","category":{"id":"b0babac0-675d-51af-aa7a-ce603b3a7af4","name":"Microsoft 365","slug":"/category/microsoft-365/","color":"#f25022","icon":"/static/363fdd53d34303b727d9dab161b8e88b/microsoft365.svg"},"author":{"id":"6f313320-531a-5f32-9a22-708cb7653896","name":"Simon Ågren","slug":"/author/simon-agren/","title":"CTA & Microsoft MVP","description":"Solving business problems with tech","skills":["Microsoft 365","Azure"],"social":[{"name":"Github","url":"https://github.com/simonagren"},{"name":"Twitter","url":"https://twitter.com/agrenpoint"},{"name":"Website","url":"https://agrenpoint.com"}],"thumbnail":{"__typename":"ImageSharp","ImageSharp_small":{"layout":"fixed","backgroundColor":"#f8f8f8","images":{"fallback":{"src":"/static/bdc8525039042bedd52c0cf7d15e8521/ac0cb/simon-agren.jpg","srcSet":"/static/bdc8525039042bedd52c0cf7d15e8521/ac0cb/simon-agren.jpg 48w,\n/static/bdc8525039042bedd52c0cf7d15e8521/73f48/simon-agren.jpg 96w","sizes":"48px"},"sources":[{"srcSet":"/static/bdc8525039042bedd52c0cf7d15e8521/a3542/simon-agren.webp 48w,\n/static/bdc8525039042bedd52c0cf7d15e8521/0f66d/simon-agren.webp 96w","type":"image/webp","sizes":"48px"}]},"width":48,"height":48},"ImageSharp_regular":{"layout":"fixed","backgroundColor":"#f8f8f8","images":{"fallback":{"src":"/static/bdc8525039042bedd52c0cf7d15e8521/f679f/simon-agren.jpg","srcSet":"/static/bdc8525039042bedd52c0cf7d15e8521/f679f/simon-agren.jpg 150w,\n/static/bdc8525039042bedd52c0cf7d15e8521/78d3d/simon-agren.jpg 300w","sizes":"150px"},"sources":[{"srcSet":"/static/bdc8525039042bedd52c0cf7d15e8521/ae23d/simon-agren.webp 150w,\n/static/bdc8525039042bedd52c0cf7d15e8521/bd37b/simon-agren.webp 300w","type":"image/webp","sizes":"150px"}]},"width":150,"height":150}}},"thumbnail":{"__typename":"ImageSharp","ImageSharp_vertical":{"layout":"constrained","backgroundColor":"#0878d8","images":{"fallback":{"src":"/static/2b3f18f10d74ac2dd7b40c9d152b1f9c/19188/pnppsmfa.png","srcSet":"/static/2b3f18f10d74ac2dd7b40c9d152b1f9c/db297/pnppsmfa.png 190w,\n/static/2b3f18f10d74ac2dd7b40c9d152b1f9c/19188/pnppsmfa.png 380w","sizes":"(min-width: 380px) 380px, 100vw"},"sources":[{"srcSet":"/static/2b3f18f10d74ac2dd7b40c9d152b1f9c/228d6/pnppsmfa.webp 190w,\n/static/2b3f18f10d74ac2dd7b40c9d152b1f9c/6b99c/pnppsmfa.webp 380w","type":"image/webp","sizes":"(min-width: 380px) 380px, 100vw"}]},"width":380,"height":290},"ImageSharp_hero":{"layout":"constrained","backgroundColor":"#0878d8","images":{"fallback":{"src":"/static/2b3f18f10d74ac2dd7b40c9d152b1f9c/945a8/pnppsmfa.png","srcSet":"/static/2b3f18f10d74ac2dd7b40c9d152b1f9c/17e9b/pnppsmfa.png 800w,\n/static/2b3f18f10d74ac2dd7b40c9d152b1f9c/945a8/pnppsmfa.png 1600w","sizes":"(min-width: 1600px) 1600px, 100vw"},"sources":[{"srcSet":"/static/2b3f18f10d74ac2dd7b40c9d152b1f9c/c9f06/pnppsmfa.webp 800w,\n/static/2b3f18f10d74ac2dd7b40c9d152b1f9c/f47df/pnppsmfa.webp 1600w","type":"image/webp","sizes":"(min-width: 1600px) 1600px, 100vw"}]},"width":1600,"height":650}}},{"id":"b6689366-45b3-5174-8830-400620fdce6a","title":"PnP PowerShell - Consent and Authentication","slug":"/pnp-powershell-consent-and-authentication/","link":null,"excerpt":"When it comes to authentication in PnP Powershell, the team have done great work providing a variety…","timeToRead":3,"featured":null,"thumbnailText":null,"date":"May 01, 2021","category":{"id":"b0babac0-675d-51af-aa7a-ce603b3a7af4","name":"Microsoft 365","slug":"/category/microsoft-365/","color":"#f25022","icon":"/static/363fdd53d34303b727d9dab161b8e88b/microsoft365.svg"},"author":{"id":"6f313320-531a-5f32-9a22-708cb7653896","name":"Simon Ågren","slug":"/author/simon-agren/","title":"CTA & Microsoft MVP","description":"Solving business problems with tech","skills":["Microsoft 365","Azure"],"social":[{"name":"Github","url":"https://github.com/simonagren"},{"name":"Twitter","url":"https://twitter.com/agrenpoint"},{"name":"Website","url":"https://agrenpoint.com"}],"thumbnail":{"__typename":"ImageSharp","ImageSharp_small":{"layout":"fixed","backgroundColor":"#f8f8f8","images":{"fallback":{"src":"/static/bdc8525039042bedd52c0cf7d15e8521/ac0cb/simon-agren.jpg","srcSet":"/static/bdc8525039042bedd52c0cf7d15e8521/ac0cb/simon-agren.jpg 48w,\n/static/bdc8525039042bedd52c0cf7d15e8521/73f48/simon-agren.jpg 96w","sizes":"48px"},"sources":[{"srcSet":"/static/bdc8525039042bedd52c0cf7d15e8521/a3542/simon-agren.webp 48w,\n/static/bdc8525039042bedd52c0cf7d15e8521/0f66d/simon-agren.webp 96w","type":"image/webp","sizes":"48px"}]},"width":48,"height":48},"ImageSharp_regular":{"layout":"fixed","backgroundColor":"#f8f8f8","images":{"fallback":{"src":"/static/bdc8525039042bedd52c0cf7d15e8521/f679f/simon-agren.jpg","srcSet":"/static/bdc8525039042bedd52c0cf7d15e8521/f679f/simon-agren.jpg 150w,\n/static/bdc8525039042bedd52c0cf7d15e8521/78d3d/simon-agren.jpg 300w","sizes":"150px"},"sources":[{"srcSet":"/static/bdc8525039042bedd52c0cf7d15e8521/ae23d/simon-agren.webp 150w,\n/static/bdc8525039042bedd52c0cf7d15e8521/bd37b/simon-agren.webp 300w","type":"image/webp","sizes":"150px"}]},"width":150,"height":150}}},"thumbnail":{"__typename":"ImageSharp","ImageSharp_vertical":{"layout":"constrained","backgroundColor":"#0878d8","images":{"fallback":{"src":"/static/dfdce5ddee3f9222cf6cde508b3917fa/19188/pnppsauth.png","srcSet":"/static/dfdce5ddee3f9222cf6cde508b3917fa/db297/pnppsauth.png 190w,\n/static/dfdce5ddee3f9222cf6cde508b3917fa/19188/pnppsauth.png 380w","sizes":"(min-width: 380px) 380px, 100vw"},"sources":[{"srcSet":"/static/dfdce5ddee3f9222cf6cde508b3917fa/228d6/pnppsauth.webp 190w,\n/static/dfdce5ddee3f9222cf6cde508b3917fa/6b99c/pnppsauth.webp 380w","type":"image/webp","sizes":"(min-width: 380px) 380px, 100vw"}]},"width":380,"height":290},"ImageSharp_hero":{"layout":"constrained","backgroundColor":"#0878d8","images":{"fallback":{"src":"/static/dfdce5ddee3f9222cf6cde508b3917fa/5fb32/pnppsauth.png","srcSet":"/static/dfdce5ddee3f9222cf6cde508b3917fa/739fd/pnppsauth.png 600w,\n/static/dfdce5ddee3f9222cf6cde508b3917fa/5fb32/pnppsauth.png 1200w","sizes":"(min-width: 1200px) 1200px, 100vw"},"sources":[{"srcSet":"/static/dfdce5ddee3f9222cf6cde508b3917fa/288e3/pnppsauth.webp 600w,\n/static/dfdce5ddee3f9222cf6cde508b3917fa/5b893/pnppsauth.webp 1200w","type":"image/webp","sizes":"(min-width: 1200px) 1200px, 100vw"}]},"width":1600,"height":650.6666666666666}}},{"id":"084e9867-ec33-5a14-9e1f-d91f4280dac2","title":"Azure AD & Microsoft Graph OAuth Connection, with Azure CLI","slug":"/azcli-connection/","link":null,"excerpt":"In the previous post  Azure AD & Microsoft Graph permission scopes, with Azure CLI , we registered…","timeToRead":1,"featured":null,"thumbnailText":null,"date":"March 11, 2020","category":{"id":"64f10eaf-091c-555c-a28e-13a12e934b04","name":"Azure","slug":"/category/azure/","color":"#007fff","icon":"/static/660faf3683bb1a8489baa9402bf62165/azure.svg"},"author":{"id":"6f313320-531a-5f32-9a22-708cb7653896","name":"Simon Ågren","slug":"/author/simon-agren/","title":"CTA & Microsoft MVP","description":"Solving business problems with tech","skills":["Microsoft 365","Azure"],"social":[{"name":"Github","url":"https://github.com/simonagren"},{"name":"Twitter","url":"https://twitter.com/agrenpoint"},{"name":"Website","url":"https://agrenpoint.com"}],"thumbnail":{"__typename":"ImageSharp","ImageSharp_small":{"layout":"fixed","backgroundColor":"#f8f8f8","images":{"fallback":{"src":"/static/bdc8525039042bedd52c0cf7d15e8521/ac0cb/simon-agren.jpg","srcSet":"/static/bdc8525039042bedd52c0cf7d15e8521/ac0cb/simon-agren.jpg 48w,\n/static/bdc8525039042bedd52c0cf7d15e8521/73f48/simon-agren.jpg 96w","sizes":"48px"},"sources":[{"srcSet":"/static/bdc8525039042bedd52c0cf7d15e8521/a3542/simon-agren.webp 48w,\n/static/bdc8525039042bedd52c0cf7d15e8521/0f66d/simon-agren.webp 96w","type":"image/webp","sizes":"48px"}]},"width":48,"height":48},"ImageSharp_regular":{"layout":"fixed","backgroundColor":"#f8f8f8","images":{"fallback":{"src":"/static/bdc8525039042bedd52c0cf7d15e8521/f679f/simon-agren.jpg","srcSet":"/static/bdc8525039042bedd52c0cf7d15e8521/f679f/simon-agren.jpg 150w,\n/static/bdc8525039042bedd52c0cf7d15e8521/78d3d/simon-agren.jpg 300w","sizes":"150px"},"sources":[{"srcSet":"/static/bdc8525039042bedd52c0cf7d15e8521/ae23d/simon-agren.webp 150w,\n/static/bdc8525039042bedd52c0cf7d15e8521/bd37b/simon-agren.webp 300w","type":"image/webp","sizes":"150px"}]},"width":150,"height":150}}},"thumbnail":{"__typename":"ImageSharp","ImageSharp_vertical":{"layout":"constrained","backgroundColor":"#080808","images":{"fallback":{"src":"/static/fba499085724398a27f00be5af554b7e/19188/azcli-connection.png","srcSet":"/static/fba499085724398a27f00be5af554b7e/db297/azcli-connection.png 190w,\n/static/fba499085724398a27f00be5af554b7e/19188/azcli-connection.png 380w","sizes":"(min-width: 380px) 380px, 100vw"},"sources":[{"srcSet":"/static/fba499085724398a27f00be5af554b7e/228d6/azcli-connection.webp 190w,\n/static/fba499085724398a27f00be5af554b7e/6b99c/azcli-connection.webp 380w","type":"image/webp","sizes":"(min-width: 380px) 380px, 100vw"}]},"width":380,"height":290},"ImageSharp_hero":{"layout":"constrained","backgroundColor":"#080808","images":{"fallback":{"src":"/static/fba499085724398a27f00be5af554b7e/5fb32/azcli-connection.png","srcSet":"/static/fba499085724398a27f00be5af554b7e/739fd/azcli-connection.png 600w,\n/static/fba499085724398a27f00be5af554b7e/5fb32/azcli-connection.png 1200w","sizes":"(min-width: 1200px) 1200px, 100vw"},"sources":[{"srcSet":"/static/fba499085724398a27f00be5af554b7e/288e3/azcli-connection.webp 600w,\n/static/fba499085724398a27f00be5af554b7e/5b893/azcli-connection.webp 1200w","type":"image/webp","sizes":"(min-width: 1200px) 1200px, 100vw"}]},"width":1600,"height":650.6666666666666}}}],"pageInfo":{"pageCount":2,"hasPreviousPage":false,"hasNextPage":true,"currentPage":1},"totalCount":7}},"pageContext":{"slug":"/tag/azuread/","limit":6,"skip":0,"collectionType":"tags","paginatePostsPage":true,"basePath":"/","services":{"algolia":true,"mailchimp":false,"disqus":false,"graphComment":true,"facebookComment":false},"siteUrl":"https://www.agrenpoint.com","mobileMenu":{"title":"Topics","items":[{"name":"Azure","slug":"/category/azure/"},{"name":"Endpoint management","slug":"/category/endpoint-management/"},{"name":"Microsoft 365","slug":"/category/microsoft-365/"}]},"darkMode":true,"includeExcerpt":true,"includeTimeToRead":true,"includeTableOfContents":true,"imageQuality":75,"currentDate":"2026-03-02"}},"staticQueryHashes":["1992822086","2409295108","2925947909"]}