{"componentChunkName":"component---packages-blog-gatsby-blog-core-src-templates-collection-tag-js","path":"/tag/msteams/page/2/","result":{"data":{"collectionInfo":{"id":"5e96cb00-772c-5c75-94b5-92fae180c03f","name":"msteams","slug":"/tag/msteams/"},"posts":{"nodes":[{"id":"ac563d5d-e2bf-5b0f-aed0-0993804fd9ad","title":"Microsoft Teams Guest Access","slug":"/microsoft-teams-guest-access/","link":null,"excerpt":"A typical scenario is collaborating with people outside your organization. When you invite these…","timeToRead":2,"featured":true,"thumbnailText":null,"date":"March 10, 2022","category":{"id":"b0babac0-675d-51af-aa7a-ce603b3a7af4","name":"Microsoft 365","slug":"/category/microsoft-365/","color":"#f25022","icon":"/static/363fdd53d34303b727d9dab161b8e88b/microsoft365.svg"},"author":{"id":"6f313320-531a-5f32-9a22-708cb7653896","name":"Simon Ågren","slug":"/author/simon-agren/","title":"CTA & Microsoft MVP","description":"Solving business problems with tech","skills":["Microsoft 365","Azure"],"social":[{"name":"Github","url":"https://github.com/simonagren"},{"name":"Twitter","url":"https://twitter.com/agrenpoint"},{"name":"Website","url":"https://agrenpoint.com"}],"thumbnail":{"__typename":"ImageSharp","ImageSharp_small":{"layout":"fixed","backgroundColor":"#f8f8f8","images":{"fallback":{"src":"/static/bdc8525039042bedd52c0cf7d15e8521/ac0cb/simon-agren.jpg","srcSet":"/static/bdc8525039042bedd52c0cf7d15e8521/ac0cb/simon-agren.jpg 48w,\n/static/bdc8525039042bedd52c0cf7d15e8521/73f48/simon-agren.jpg 96w","sizes":"48px"},"sources":[{"srcSet":"/static/bdc8525039042bedd52c0cf7d15e8521/a3542/simon-agren.webp 48w,\n/static/bdc8525039042bedd52c0cf7d15e8521/0f66d/simon-agren.webp 96w","type":"image/webp","sizes":"48px"}]},"width":48,"height":48},"ImageSharp_regular":{"layout":"fixed","backgroundColor":"#f8f8f8","images":{"fallback":{"src":"/static/bdc8525039042bedd52c0cf7d15e8521/f679f/simon-agren.jpg","srcSet":"/static/bdc8525039042bedd52c0cf7d15e8521/f679f/simon-agren.jpg 150w,\n/static/bdc8525039042bedd52c0cf7d15e8521/78d3d/simon-agren.jpg 300w","sizes":"150px"},"sources":[{"srcSet":"/static/bdc8525039042bedd52c0cf7d15e8521/ae23d/simon-agren.webp 150w,\n/static/bdc8525039042bedd52c0cf7d15e8521/bd37b/simon-agren.webp 300w","type":"image/webp","sizes":"150px"}]},"width":150,"height":150}}},"thumbnail":{"__typename":"ImageSharp","ImageSharp_vertical":{"layout":"constrained","backgroundColor":"#081818","images":{"fallback":{"src":"/static/18d5540ca59029d8b966388f4b724d5e/144fe/image.jpg","srcSet":"/static/18d5540ca59029d8b966388f4b724d5e/9d7b9/image.jpg 190w,\n/static/18d5540ca59029d8b966388f4b724d5e/144fe/image.jpg 380w","sizes":"(min-width: 380px) 380px, 100vw"},"sources":[{"srcSet":"/static/18d5540ca59029d8b966388f4b724d5e/228d6/image.webp 190w,\n/static/18d5540ca59029d8b966388f4b724d5e/6b99c/image.webp 380w","type":"image/webp","sizes":"(min-width: 380px) 380px, 100vw"}]},"width":380,"height":290},"ImageSharp_hero":{"layout":"constrained","backgroundColor":"#081818","images":{"fallback":{"src":"/static/18d5540ca59029d8b966388f4b724d5e/5e493/image.jpg","srcSet":"/static/18d5540ca59029d8b966388f4b724d5e/696c0/image.jpg 800w,\n/static/18d5540ca59029d8b966388f4b724d5e/5e493/image.jpg 1600w","sizes":"(min-width: 1600px) 1600px, 100vw"},"sources":[{"srcSet":"/static/18d5540ca59029d8b966388f4b724d5e/c9f06/image.webp 800w,\n/static/18d5540ca59029d8b966388f4b724d5e/f47df/image.webp 1600w","type":"image/webp","sizes":"(min-width: 1600px) 1600px, 100vw"}]},"width":1600,"height":650}}},{"id":"ce439de9-61a6-595b-9d31-f30fe4950229","title":"Microsoft Teams Naming","slug":"/microsoft-teams-naming/","link":null,"excerpt":"Previously I have written about how many organizations seem to overlook the importance of Teams…","timeToRead":4,"featured":true,"thumbnailText":null,"date":"February 20, 2022","category":{"id":"b0babac0-675d-51af-aa7a-ce603b3a7af4","name":"Microsoft 365","slug":"/category/microsoft-365/","color":"#f25022","icon":"/static/363fdd53d34303b727d9dab161b8e88b/microsoft365.svg"},"author":{"id":"6f313320-531a-5f32-9a22-708cb7653896","name":"Simon Ågren","slug":"/author/simon-agren/","title":"CTA & Microsoft MVP","description":"Solving business problems with tech","skills":["Microsoft 365","Azure"],"social":[{"name":"Github","url":"https://github.com/simonagren"},{"name":"Twitter","url":"https://twitter.com/agrenpoint"},{"name":"Website","url":"https://agrenpoint.com"}],"thumbnail":{"__typename":"ImageSharp","ImageSharp_small":{"layout":"fixed","backgroundColor":"#f8f8f8","images":{"fallback":{"src":"/static/bdc8525039042bedd52c0cf7d15e8521/ac0cb/simon-agren.jpg","srcSet":"/static/bdc8525039042bedd52c0cf7d15e8521/ac0cb/simon-agren.jpg 48w,\n/static/bdc8525039042bedd52c0cf7d15e8521/73f48/simon-agren.jpg 96w","sizes":"48px"},"sources":[{"srcSet":"/static/bdc8525039042bedd52c0cf7d15e8521/a3542/simon-agren.webp 48w,\n/static/bdc8525039042bedd52c0cf7d15e8521/0f66d/simon-agren.webp 96w","type":"image/webp","sizes":"48px"}]},"width":48,"height":48},"ImageSharp_regular":{"layout":"fixed","backgroundColor":"#f8f8f8","images":{"fallback":{"src":"/static/bdc8525039042bedd52c0cf7d15e8521/f679f/simon-agren.jpg","srcSet":"/static/bdc8525039042bedd52c0cf7d15e8521/f679f/simon-agren.jpg 150w,\n/static/bdc8525039042bedd52c0cf7d15e8521/78d3d/simon-agren.jpg 300w","sizes":"150px"},"sources":[{"srcSet":"/static/bdc8525039042bedd52c0cf7d15e8521/ae23d/simon-agren.webp 150w,\n/static/bdc8525039042bedd52c0cf7d15e8521/bd37b/simon-agren.webp 300w","type":"image/webp","sizes":"150px"}]},"width":150,"height":150}}},"thumbnail":{"__typename":"ImageSharp","ImageSharp_vertical":{"layout":"constrained","backgroundColor":"#f8e8d8","images":{"fallback":{"src":"/static/714ab983102224095e670623cbf825ca/144fe/image.jpg","srcSet":"/static/714ab983102224095e670623cbf825ca/9d7b9/image.jpg 190w,\n/static/714ab983102224095e670623cbf825ca/144fe/image.jpg 380w","sizes":"(min-width: 380px) 380px, 100vw"},"sources":[{"srcSet":"/static/714ab983102224095e670623cbf825ca/228d6/image.webp 190w,\n/static/714ab983102224095e670623cbf825ca/6b99c/image.webp 380w","type":"image/webp","sizes":"(min-width: 380px) 380px, 100vw"}]},"width":380,"height":290},"ImageSharp_hero":{"layout":"constrained","backgroundColor":"#f8e8d8","images":{"fallback":{"src":"/static/714ab983102224095e670623cbf825ca/28ffb/image.jpg","srcSet":"/static/714ab983102224095e670623cbf825ca/4c0be/image.jpg 600w,\n/static/714ab983102224095e670623cbf825ca/28ffb/image.jpg 1200w","sizes":"(min-width: 1200px) 1200px, 100vw"},"sources":[{"srcSet":"/static/714ab983102224095e670623cbf825ca/288e3/image.webp 600w,\n/static/714ab983102224095e670623cbf825ca/5b893/image.webp 1200w","type":"image/webp","sizes":"(min-width: 1200px) 1200px, 100vw"}]},"width":1600,"height":650.6666666666666}}},{"id":"ea226a81-1a26-5152-86d8-7fad9d2d92bb","title":"Manage Microsoft Teams Templates with PowerShell","slug":"/manage-microsoft-teams-templates-with-powershell/","link":null,"excerpt":"As stated in a previous post, you can manage only a few settings regarding Teams Templates from the…","timeToRead":2,"featured":true,"thumbnailText":null,"date":"February 14, 2022","category":{"id":"b0babac0-675d-51af-aa7a-ce603b3a7af4","name":"Microsoft 365","slug":"/category/microsoft-365/","color":"#f25022","icon":"/static/363fdd53d34303b727d9dab161b8e88b/microsoft365.svg"},"author":{"id":"6f313320-531a-5f32-9a22-708cb7653896","name":"Simon Ågren","slug":"/author/simon-agren/","title":"CTA & Microsoft MVP","description":"Solving business problems with tech","skills":["Microsoft 365","Azure"],"social":[{"name":"Github","url":"https://github.com/simonagren"},{"name":"Twitter","url":"https://twitter.com/agrenpoint"},{"name":"Website","url":"https://agrenpoint.com"}],"thumbnail":{"__typename":"ImageSharp","ImageSharp_small":{"layout":"fixed","backgroundColor":"#f8f8f8","images":{"fallback":{"src":"/static/bdc8525039042bedd52c0cf7d15e8521/ac0cb/simon-agren.jpg","srcSet":"/static/bdc8525039042bedd52c0cf7d15e8521/ac0cb/simon-agren.jpg 48w,\n/static/bdc8525039042bedd52c0cf7d15e8521/73f48/simon-agren.jpg 96w","sizes":"48px"},"sources":[{"srcSet":"/static/bdc8525039042bedd52c0cf7d15e8521/a3542/simon-agren.webp 48w,\n/static/bdc8525039042bedd52c0cf7d15e8521/0f66d/simon-agren.webp 96w","type":"image/webp","sizes":"48px"}]},"width":48,"height":48},"ImageSharp_regular":{"layout":"fixed","backgroundColor":"#f8f8f8","images":{"fallback":{"src":"/static/bdc8525039042bedd52c0cf7d15e8521/f679f/simon-agren.jpg","srcSet":"/static/bdc8525039042bedd52c0cf7d15e8521/f679f/simon-agren.jpg 150w,\n/static/bdc8525039042bedd52c0cf7d15e8521/78d3d/simon-agren.jpg 300w","sizes":"150px"},"sources":[{"srcSet":"/static/bdc8525039042bedd52c0cf7d15e8521/ae23d/simon-agren.webp 150w,\n/static/bdc8525039042bedd52c0cf7d15e8521/bd37b/simon-agren.webp 300w","type":"image/webp","sizes":"150px"}]},"width":150,"height":150}}},"thumbnail":{"__typename":"ImageSharp","ImageSharp_vertical":{"layout":"constrained","backgroundColor":"#083878","images":{"fallback":{"src":"/static/222f908826520672bdae64123db97710/144fe/image.jpg","srcSet":"/static/222f908826520672bdae64123db97710/9d7b9/image.jpg 190w,\n/static/222f908826520672bdae64123db97710/144fe/image.jpg 380w","sizes":"(min-width: 380px) 380px, 100vw"},"sources":[{"srcSet":"/static/222f908826520672bdae64123db97710/228d6/image.webp 190w,\n/static/222f908826520672bdae64123db97710/6b99c/image.webp 380w","type":"image/webp","sizes":"(min-width: 380px) 380px, 100vw"}]},"width":380,"height":290},"ImageSharp_hero":{"layout":"constrained","backgroundColor":"#083878","images":{"fallback":{"src":"/static/222f908826520672bdae64123db97710/582da/image.jpg","srcSet":"/static/222f908826520672bdae64123db97710/737e6/image.jpg 500w,\n/static/222f908826520672bdae64123db97710/582da/image.jpg 1000w","sizes":"(min-width: 1000px) 1000px, 100vw"},"sources":[{"srcSet":"/static/222f908826520672bdae64123db97710/e3a40/image.webp 500w,\n/static/222f908826520672bdae64123db97710/29b4f/image.webp 1000w","type":"image/webp","sizes":"(min-width: 1000px) 1000px, 100vw"}]},"width":1600,"height":649.6}}},{"id":"a8d6961e-790a-54c7-bb75-ff3665cc7363","title":"Microsoft Teams Templates","slug":"/microsoft-teams-templates/","link":null,"excerpt":"In the previous post, I established that a team should always have a purpose and that purpose should…","timeToRead":2,"featured":true,"thumbnailText":null,"date":"January 17, 2022","category":{"id":"b0babac0-675d-51af-aa7a-ce603b3a7af4","name":"Microsoft 365","slug":"/category/microsoft-365/","color":"#f25022","icon":"/static/363fdd53d34303b727d9dab161b8e88b/microsoft365.svg"},"author":{"id":"6f313320-531a-5f32-9a22-708cb7653896","name":"Simon Ågren","slug":"/author/simon-agren/","title":"CTA & Microsoft MVP","description":"Solving business problems with tech","skills":["Microsoft 365","Azure"],"social":[{"name":"Github","url":"https://github.com/simonagren"},{"name":"Twitter","url":"https://twitter.com/agrenpoint"},{"name":"Website","url":"https://agrenpoint.com"}],"thumbnail":{"__typename":"ImageSharp","ImageSharp_small":{"layout":"fixed","backgroundColor":"#f8f8f8","images":{"fallback":{"src":"/static/bdc8525039042bedd52c0cf7d15e8521/ac0cb/simon-agren.jpg","srcSet":"/static/bdc8525039042bedd52c0cf7d15e8521/ac0cb/simon-agren.jpg 48w,\n/static/bdc8525039042bedd52c0cf7d15e8521/73f48/simon-agren.jpg 96w","sizes":"48px"},"sources":[{"srcSet":"/static/bdc8525039042bedd52c0cf7d15e8521/a3542/simon-agren.webp 48w,\n/static/bdc8525039042bedd52c0cf7d15e8521/0f66d/simon-agren.webp 96w","type":"image/webp","sizes":"48px"}]},"width":48,"height":48},"ImageSharp_regular":{"layout":"fixed","backgroundColor":"#f8f8f8","images":{"fallback":{"src":"/static/bdc8525039042bedd52c0cf7d15e8521/f679f/simon-agren.jpg","srcSet":"/static/bdc8525039042bedd52c0cf7d15e8521/f679f/simon-agren.jpg 150w,\n/static/bdc8525039042bedd52c0cf7d15e8521/78d3d/simon-agren.jpg 300w","sizes":"150px"},"sources":[{"srcSet":"/static/bdc8525039042bedd52c0cf7d15e8521/ae23d/simon-agren.webp 150w,\n/static/bdc8525039042bedd52c0cf7d15e8521/bd37b/simon-agren.webp 300w","type":"image/webp","sizes":"150px"}]},"width":150,"height":150}}},"thumbnail":{"__typename":"ImageSharp","ImageSharp_vertical":{"layout":"constrained","backgroundColor":"#080808","images":{"fallback":{"src":"/static/af4a7094f07b29eb64383923474272f5/19188/image.png","srcSet":"/static/af4a7094f07b29eb64383923474272f5/db297/image.png 190w,\n/static/af4a7094f07b29eb64383923474272f5/19188/image.png 380w","sizes":"(min-width: 380px) 380px, 100vw"},"sources":[{"srcSet":"/static/af4a7094f07b29eb64383923474272f5/228d6/image.webp 190w,\n/static/af4a7094f07b29eb64383923474272f5/6b99c/image.webp 380w","type":"image/webp","sizes":"(min-width: 380px) 380px, 100vw"}]},"width":380,"height":290},"ImageSharp_hero":{"layout":"constrained","backgroundColor":"#080808","images":{"fallback":{"src":"/static/af4a7094f07b29eb64383923474272f5/f832a/image.png","srcSet":"/static/af4a7094f07b29eb64383923474272f5/1d78d/image.png 680w,\n/static/af4a7094f07b29eb64383923474272f5/f832a/image.png 1360w","sizes":"(min-width: 1360px) 1360px, 100vw"},"sources":[{"srcSet":"/static/af4a7094f07b29eb64383923474272f5/3a75b/image.webp 680w,\n/static/af4a7094f07b29eb64383923474272f5/222ea/image.webp 1360w","type":"image/webp","sizes":"(min-width: 1360px) 1360px, 100vw"}]},"width":1600,"height":650.5882352941177}}}],"pageInfo":{"pageCount":2,"hasPreviousPage":true,"hasNextPage":false,"currentPage":2},"totalCount":10}},"pageContext":{"slug":"/tag/msteams/","limit":6,"skip":6,"collectionType":"tags","paginatePostsPage":true,"basePath":"/","services":{"algolia":true,"mailchimp":false,"disqus":false,"graphComment":true,"facebookComment":false},"siteUrl":"https://www.agrenpoint.com","mobileMenu":{"title":"Topics","items":[{"name":"Azure","slug":"/category/azure/"},{"name":"Endpoint management","slug":"/category/endpoint-management/"},{"name":"Microsoft 365","slug":"/category/microsoft-365/"}]},"darkMode":true,"includeExcerpt":true,"includeTimeToRead":true,"includeTableOfContents":true,"imageQuality":75,"currentDate":"2026-03-02"}},"staticQueryHashes":["1992822086","2409295108","2925947909"]}