{"componentChunkName":"component---packages-blog-gatsby-blog-core-src-templates-collection-category-js","path":"/category/azure/page/3/","result":{"data":{"collectionInfo":{"id":"64f10eaf-091c-555c-a28e-13a12e934b04","name":"Azure","slug":"/category/azure/","description":"This category involves different Azure-related topics. Bots, Azure functions, Azure AD, Indentity etc."},"posts":{"nodes":[{"id":"1bfa9956-afa2-5564-bca6-18fc3636c4fa","title":"Bot Framework 4 ARM template Deploy with Key Vault","slug":"/azurebot-armtemplate-keyvault/","link":null,"excerpt":"This post assumes that you already have generated your Bot and you have ARM Templates available to…","timeToRead":2,"featured":null,"thumbnailText":null,"date":"February 24, 2020","category":{"id":"64f10eaf-091c-555c-a28e-13a12e934b04","name":"Azure","slug":"/category/azure/","color":"#007fff","icon":"/static/660faf3683bb1a8489baa9402bf62165/azure.svg"},"author":{"id":"6f313320-531a-5f32-9a22-708cb7653896","name":"Simon Ågren","slug":"/author/simon-agren/","title":"CTA & Microsoft MVP","description":"Solving business problems with tech","skills":["Microsoft 365","Azure"],"social":[{"name":"Github","url":"https://github.com/simonagren"},{"name":"Twitter","url":"https://twitter.com/agrenpoint"},{"name":"Website","url":"https://agrenpoint.com"}],"thumbnail":{"__typename":"ImageSharp","ImageSharp_small":{"layout":"fixed","backgroundColor":"#f8f8f8","images":{"fallback":{"src":"/static/bdc8525039042bedd52c0cf7d15e8521/ac0cb/simon-agren.jpg","srcSet":"/static/bdc8525039042bedd52c0cf7d15e8521/ac0cb/simon-agren.jpg 48w,\n/static/bdc8525039042bedd52c0cf7d15e8521/73f48/simon-agren.jpg 96w","sizes":"48px"},"sources":[{"srcSet":"/static/bdc8525039042bedd52c0cf7d15e8521/a3542/simon-agren.webp 48w,\n/static/bdc8525039042bedd52c0cf7d15e8521/0f66d/simon-agren.webp 96w","type":"image/webp","sizes":"48px"}]},"width":48,"height":48},"ImageSharp_regular":{"layout":"fixed","backgroundColor":"#f8f8f8","images":{"fallback":{"src":"/static/bdc8525039042bedd52c0cf7d15e8521/f679f/simon-agren.jpg","srcSet":"/static/bdc8525039042bedd52c0cf7d15e8521/f679f/simon-agren.jpg 150w,\n/static/bdc8525039042bedd52c0cf7d15e8521/78d3d/simon-agren.jpg 300w","sizes":"150px"},"sources":[{"srcSet":"/static/bdc8525039042bedd52c0cf7d15e8521/ae23d/simon-agren.webp 150w,\n/static/bdc8525039042bedd52c0cf7d15e8521/bd37b/simon-agren.webp 300w","type":"image/webp","sizes":"150px"}]},"width":150,"height":150}}},"thumbnail":{"__typename":"ImageSharp","ImageSharp_vertical":{"layout":"constrained","backgroundColor":"#3898d8","images":{"fallback":{"src":"/static/02ab72bfc11ec5246486d7c87731014f/19188/bot-keyvault.png","srcSet":"/static/02ab72bfc11ec5246486d7c87731014f/db297/bot-keyvault.png 190w,\n/static/02ab72bfc11ec5246486d7c87731014f/19188/bot-keyvault.png 380w","sizes":"(min-width: 380px) 380px, 100vw"},"sources":[{"srcSet":"/static/02ab72bfc11ec5246486d7c87731014f/228d6/bot-keyvault.webp 190w,\n/static/02ab72bfc11ec5246486d7c87731014f/6b99c/bot-keyvault.webp 380w","type":"image/webp","sizes":"(min-width: 380px) 380px, 100vw"}]},"width":380,"height":290},"ImageSharp_hero":{"layout":"constrained","backgroundColor":"#3898d8","images":{"fallback":{"src":"/static/02ab72bfc11ec5246486d7c87731014f/5fb32/bot-keyvault.png","srcSet":"/static/02ab72bfc11ec5246486d7c87731014f/739fd/bot-keyvault.png 600w,\n/static/02ab72bfc11ec5246486d7c87731014f/5fb32/bot-keyvault.png 1200w","sizes":"(min-width: 1200px) 1200px, 100vw"},"sources":[{"srcSet":"/static/02ab72bfc11ec5246486d7c87731014f/288e3/bot-keyvault.webp 600w,\n/static/02ab72bfc11ec5246486d7c87731014f/5b893/bot-keyvault.webp 1200w","type":"image/webp","sizes":"(min-width: 1200px) 1200px, 100vw"}]},"width":1600,"height":650.6666666666666}}},{"id":"a4b3b927-20a0-5119-ad68-8817a8754a91","title":"Bot Framework in Node.js - Let's begin (Part 1)","slug":"/azurebot-nodejs-part1/","link":null,"excerpt":"This is the first of a series of blog-posts regarding Bot Framework 4, Node.js and TypeScript. There…","timeToRead":3,"featured":null,"thumbnailText":null,"date":"February 24, 2020","category":{"id":"64f10eaf-091c-555c-a28e-13a12e934b04","name":"Azure","slug":"/category/azure/","color":"#007fff","icon":"/static/660faf3683bb1a8489baa9402bf62165/azure.svg"},"author":{"id":"6f313320-531a-5f32-9a22-708cb7653896","name":"Simon Ågren","slug":"/author/simon-agren/","title":"CTA & Microsoft MVP","description":"Solving business problems with tech","skills":["Microsoft 365","Azure"],"social":[{"name":"Github","url":"https://github.com/simonagren"},{"name":"Twitter","url":"https://twitter.com/agrenpoint"},{"name":"Website","url":"https://agrenpoint.com"}],"thumbnail":{"__typename":"ImageSharp","ImageSharp_small":{"layout":"fixed","backgroundColor":"#f8f8f8","images":{"fallback":{"src":"/static/bdc8525039042bedd52c0cf7d15e8521/ac0cb/simon-agren.jpg","srcSet":"/static/bdc8525039042bedd52c0cf7d15e8521/ac0cb/simon-agren.jpg 48w,\n/static/bdc8525039042bedd52c0cf7d15e8521/73f48/simon-agren.jpg 96w","sizes":"48px"},"sources":[{"srcSet":"/static/bdc8525039042bedd52c0cf7d15e8521/a3542/simon-agren.webp 48w,\n/static/bdc8525039042bedd52c0cf7d15e8521/0f66d/simon-agren.webp 96w","type":"image/webp","sizes":"48px"}]},"width":48,"height":48},"ImageSharp_regular":{"layout":"fixed","backgroundColor":"#f8f8f8","images":{"fallback":{"src":"/static/bdc8525039042bedd52c0cf7d15e8521/f679f/simon-agren.jpg","srcSet":"/static/bdc8525039042bedd52c0cf7d15e8521/f679f/simon-agren.jpg 150w,\n/static/bdc8525039042bedd52c0cf7d15e8521/78d3d/simon-agren.jpg 300w","sizes":"150px"},"sources":[{"srcSet":"/static/bdc8525039042bedd52c0cf7d15e8521/ae23d/simon-agren.webp 150w,\n/static/bdc8525039042bedd52c0cf7d15e8521/bd37b/simon-agren.webp 300w","type":"image/webp","sizes":"150px"}]},"width":150,"height":150}}},"thumbnail":{"__typename":"ImageSharp","ImageSharp_vertical":{"layout":"constrained","backgroundColor":"#3898d8","images":{"fallback":{"src":"/static/49487a686239d5774a56c02ff20851c3/19188/botframework1.png","srcSet":"/static/49487a686239d5774a56c02ff20851c3/db297/botframework1.png 190w,\n/static/49487a686239d5774a56c02ff20851c3/19188/botframework1.png 380w","sizes":"(min-width: 380px) 380px, 100vw"},"sources":[{"srcSet":"/static/49487a686239d5774a56c02ff20851c3/228d6/botframework1.webp 190w,\n/static/49487a686239d5774a56c02ff20851c3/6b99c/botframework1.webp 380w","type":"image/webp","sizes":"(min-width: 380px) 380px, 100vw"}]},"width":380,"height":290},"ImageSharp_hero":{"layout":"constrained","backgroundColor":"#3898d8","images":{"fallback":{"src":"/static/49487a686239d5774a56c02ff20851c3/5fb32/botframework1.png","srcSet":"/static/49487a686239d5774a56c02ff20851c3/739fd/botframework1.png 600w,\n/static/49487a686239d5774a56c02ff20851c3/5fb32/botframework1.png 1200w","sizes":"(min-width: 1200px) 1200px, 100vw"},"sources":[{"srcSet":"/static/49487a686239d5774a56c02ff20851c3/288e3/botframework1.webp 600w,\n/static/49487a686239d5774a56c02ff20851c3/5b893/botframework1.webp 1200w","type":"image/webp","sizes":"(min-width: 1200px) 1200px, 100vw"}]},"width":1600,"height":650.6666666666666}}},{"id":"e0dec6ac-7617-5591-93b4-01f9d7a42ea5","title":"Intro to Durable Functions in Node.js with PnPJs","slug":"/intro-durable/","link":null,"excerpt":"Durable functions are what Microsoft is calling \"orchestrator functions\". It's an extension of Azure…","timeToRead":5,"featured":null,"thumbnailText":null,"date":"November 25, 2019","category":{"id":"64f10eaf-091c-555c-a28e-13a12e934b04","name":"Azure","slug":"/category/azure/","color":"#007fff","icon":"/static/660faf3683bb1a8489baa9402bf62165/azure.svg"},"author":{"id":"6f313320-531a-5f32-9a22-708cb7653896","name":"Simon Ågren","slug":"/author/simon-agren/","title":"CTA & Microsoft MVP","description":"Solving business problems with tech","skills":["Microsoft 365","Azure"],"social":[{"name":"Github","url":"https://github.com/simonagren"},{"name":"Twitter","url":"https://twitter.com/agrenpoint"},{"name":"Website","url":"https://agrenpoint.com"}],"thumbnail":{"__typename":"ImageSharp","ImageSharp_small":{"layout":"fixed","backgroundColor":"#f8f8f8","images":{"fallback":{"src":"/static/bdc8525039042bedd52c0cf7d15e8521/ac0cb/simon-agren.jpg","srcSet":"/static/bdc8525039042bedd52c0cf7d15e8521/ac0cb/simon-agren.jpg 48w,\n/static/bdc8525039042bedd52c0cf7d15e8521/73f48/simon-agren.jpg 96w","sizes":"48px"},"sources":[{"srcSet":"/static/bdc8525039042bedd52c0cf7d15e8521/a3542/simon-agren.webp 48w,\n/static/bdc8525039042bedd52c0cf7d15e8521/0f66d/simon-agren.webp 96w","type":"image/webp","sizes":"48px"}]},"width":48,"height":48},"ImageSharp_regular":{"layout":"fixed","backgroundColor":"#f8f8f8","images":{"fallback":{"src":"/static/bdc8525039042bedd52c0cf7d15e8521/f679f/simon-agren.jpg","srcSet":"/static/bdc8525039042bedd52c0cf7d15e8521/f679f/simon-agren.jpg 150w,\n/static/bdc8525039042bedd52c0cf7d15e8521/78d3d/simon-agren.jpg 300w","sizes":"150px"},"sources":[{"srcSet":"/static/bdc8525039042bedd52c0cf7d15e8521/ae23d/simon-agren.webp 150w,\n/static/bdc8525039042bedd52c0cf7d15e8521/bd37b/simon-agren.webp 300w","type":"image/webp","sizes":"150px"}]},"width":150,"height":150}}},"thumbnail":{"__typename":"ImageSharp","ImageSharp_vertical":{"layout":"constrained","backgroundColor":"#f8f8f8","images":{"fallback":{"src":"/static/1a54320cc4d378a5d07eeb28b33dec88/144fe/architecture.jpg","srcSet":"/static/1a54320cc4d378a5d07eeb28b33dec88/9d7b9/architecture.jpg 190w,\n/static/1a54320cc4d378a5d07eeb28b33dec88/144fe/architecture.jpg 380w","sizes":"(min-width: 380px) 380px, 100vw"},"sources":[{"srcSet":"/static/1a54320cc4d378a5d07eeb28b33dec88/228d6/architecture.webp 190w,\n/static/1a54320cc4d378a5d07eeb28b33dec88/6b99c/architecture.webp 380w","type":"image/webp","sizes":"(min-width: 380px) 380px, 100vw"}]},"width":380,"height":290},"ImageSharp_hero":{"layout":"constrained","backgroundColor":"#f8f8f8","images":{"fallback":{"src":"/static/1a54320cc4d378a5d07eeb28b33dec88/061b3/architecture.jpg","srcSet":"/static/1a54320cc4d378a5d07eeb28b33dec88/fd7a7/architecture.jpg 605w,\n/static/1a54320cc4d378a5d07eeb28b33dec88/061b3/architecture.jpg 1209w","sizes":"(min-width: 1209px) 1209px, 100vw"},"sources":[{"srcSet":"/static/1a54320cc4d378a5d07eeb28b33dec88/6f4ef/architecture.webp 605w,\n/static/1a54320cc4d378a5d07eeb28b33dec88/2891d/architecture.webp 1209w","type":"image/webp","sizes":"(min-width: 1209px) 1209px, 100vw"}]},"width":1600,"height":649.7932175351531}}},{"id":"490e44d7-a010-5c95-8f05-c4d0e1be57b5","title":"Part 4 - Azure Functions V2 + VS Code + PnPJs === true","slug":"/part4-azurefunction/","link":null,"excerpt":"The posts in this series Part 4 - Azure Functions V2 + VS Code + PnPJs === true This is the last…","timeToRead":5,"featured":null,"thumbnailText":null,"date":"November 25, 2018","category":{"id":"64f10eaf-091c-555c-a28e-13a12e934b04","name":"Azure","slug":"/category/azure/","color":"#007fff","icon":"/static/660faf3683bb1a8489baa9402bf62165/azure.svg"},"author":{"id":"6f313320-531a-5f32-9a22-708cb7653896","name":"Simon Ågren","slug":"/author/simon-agren/","title":"CTA & Microsoft MVP","description":"Solving business problems with tech","skills":["Microsoft 365","Azure"],"social":[{"name":"Github","url":"https://github.com/simonagren"},{"name":"Twitter","url":"https://twitter.com/agrenpoint"},{"name":"Website","url":"https://agrenpoint.com"}],"thumbnail":{"__typename":"ImageSharp","ImageSharp_small":{"layout":"fixed","backgroundColor":"#f8f8f8","images":{"fallback":{"src":"/static/bdc8525039042bedd52c0cf7d15e8521/ac0cb/simon-agren.jpg","srcSet":"/static/bdc8525039042bedd52c0cf7d15e8521/ac0cb/simon-agren.jpg 48w,\n/static/bdc8525039042bedd52c0cf7d15e8521/73f48/simon-agren.jpg 96w","sizes":"48px"},"sources":[{"srcSet":"/static/bdc8525039042bedd52c0cf7d15e8521/a3542/simon-agren.webp 48w,\n/static/bdc8525039042bedd52c0cf7d15e8521/0f66d/simon-agren.webp 96w","type":"image/webp","sizes":"48px"}]},"width":48,"height":48},"ImageSharp_regular":{"layout":"fixed","backgroundColor":"#f8f8f8","images":{"fallback":{"src":"/static/bdc8525039042bedd52c0cf7d15e8521/f679f/simon-agren.jpg","srcSet":"/static/bdc8525039042bedd52c0cf7d15e8521/f679f/simon-agren.jpg 150w,\n/static/bdc8525039042bedd52c0cf7d15e8521/78d3d/simon-agren.jpg 300w","sizes":"150px"},"sources":[{"srcSet":"/static/bdc8525039042bedd52c0cf7d15e8521/ae23d/simon-agren.webp 150w,\n/static/bdc8525039042bedd52c0cf7d15e8521/bd37b/simon-agren.webp 300w","type":"image/webp","sizes":"150px"}]},"width":150,"height":150}}},"thumbnail":{"__typename":"ImageSharp","ImageSharp_vertical":{"layout":"constrained","backgroundColor":"#f8f8f8","images":{"fallback":{"src":"/static/9eba6bc91f2af79fc88248378c1ecef4/19188/funcpnp4.png","srcSet":"/static/9eba6bc91f2af79fc88248378c1ecef4/db297/funcpnp4.png 190w,\n/static/9eba6bc91f2af79fc88248378c1ecef4/19188/funcpnp4.png 380w","sizes":"(min-width: 380px) 380px, 100vw"},"sources":[{"srcSet":"/static/9eba6bc91f2af79fc88248378c1ecef4/228d6/funcpnp4.webp 190w,\n/static/9eba6bc91f2af79fc88248378c1ecef4/6b99c/funcpnp4.webp 380w","type":"image/webp","sizes":"(min-width: 380px) 380px, 100vw"}]},"width":380,"height":290},"ImageSharp_hero":{"layout":"constrained","backgroundColor":"#f8f8f8","images":{"fallback":{"src":"/static/9eba6bc91f2af79fc88248378c1ecef4/17e9b/funcpnp4.png","srcSet":"/static/9eba6bc91f2af79fc88248378c1ecef4/bed7a/funcpnp4.png 400w,\n/static/9eba6bc91f2af79fc88248378c1ecef4/17e9b/funcpnp4.png 800w","sizes":"(min-width: 800px) 800px, 100vw"},"sources":[{"srcSet":"/static/9eba6bc91f2af79fc88248378c1ecef4/6a2da/funcpnp4.webp 400w,\n/static/9eba6bc91f2af79fc88248378c1ecef4/c9f06/funcpnp4.webp 800w","type":"image/webp","sizes":"(min-width: 800px) 800px, 100vw"}]},"width":1600,"height":650}}},{"id":"e6eeb50c-d28b-5e8c-87ba-08fe7119f410","title":"Part 3 - Azure Functions V2 + VS Code + PnPJs === true","slug":"/part3-azurefunction/","link":null,"excerpt":"The posts in this series Part 3 - Azure Functions V2 + VS Code + PnPJs === true I this post we will…","timeToRead":2,"featured":null,"thumbnailText":null,"date":"November 20, 2018","category":{"id":"64f10eaf-091c-555c-a28e-13a12e934b04","name":"Azure","slug":"/category/azure/","color":"#007fff","icon":"/static/660faf3683bb1a8489baa9402bf62165/azure.svg"},"author":{"id":"6f313320-531a-5f32-9a22-708cb7653896","name":"Simon Ågren","slug":"/author/simon-agren/","title":"CTA & Microsoft MVP","description":"Solving business problems with tech","skills":["Microsoft 365","Azure"],"social":[{"name":"Github","url":"https://github.com/simonagren"},{"name":"Twitter","url":"https://twitter.com/agrenpoint"},{"name":"Website","url":"https://agrenpoint.com"}],"thumbnail":{"__typename":"ImageSharp","ImageSharp_small":{"layout":"fixed","backgroundColor":"#f8f8f8","images":{"fallback":{"src":"/static/bdc8525039042bedd52c0cf7d15e8521/ac0cb/simon-agren.jpg","srcSet":"/static/bdc8525039042bedd52c0cf7d15e8521/ac0cb/simon-agren.jpg 48w,\n/static/bdc8525039042bedd52c0cf7d15e8521/73f48/simon-agren.jpg 96w","sizes":"48px"},"sources":[{"srcSet":"/static/bdc8525039042bedd52c0cf7d15e8521/a3542/simon-agren.webp 48w,\n/static/bdc8525039042bedd52c0cf7d15e8521/0f66d/simon-agren.webp 96w","type":"image/webp","sizes":"48px"}]},"width":48,"height":48},"ImageSharp_regular":{"layout":"fixed","backgroundColor":"#f8f8f8","images":{"fallback":{"src":"/static/bdc8525039042bedd52c0cf7d15e8521/f679f/simon-agren.jpg","srcSet":"/static/bdc8525039042bedd52c0cf7d15e8521/f679f/simon-agren.jpg 150w,\n/static/bdc8525039042bedd52c0cf7d15e8521/78d3d/simon-agren.jpg 300w","sizes":"150px"},"sources":[{"srcSet":"/static/bdc8525039042bedd52c0cf7d15e8521/ae23d/simon-agren.webp 150w,\n/static/bdc8525039042bedd52c0cf7d15e8521/bd37b/simon-agren.webp 300w","type":"image/webp","sizes":"150px"}]},"width":150,"height":150}}},"thumbnail":{"__typename":"ImageSharp","ImageSharp_vertical":{"layout":"constrained","backgroundColor":"#f8f8f8","images":{"fallback":{"src":"/static/c7aa3f5193d2ac45392b4291dbd280fc/19188/funcpnp3.png","srcSet":"/static/c7aa3f5193d2ac45392b4291dbd280fc/db297/funcpnp3.png 190w,\n/static/c7aa3f5193d2ac45392b4291dbd280fc/19188/funcpnp3.png 380w","sizes":"(min-width: 380px) 380px, 100vw"},"sources":[{"srcSet":"/static/c7aa3f5193d2ac45392b4291dbd280fc/228d6/funcpnp3.webp 190w,\n/static/c7aa3f5193d2ac45392b4291dbd280fc/6b99c/funcpnp3.webp 380w","type":"image/webp","sizes":"(min-width: 380px) 380px, 100vw"}]},"width":380,"height":290},"ImageSharp_hero":{"layout":"constrained","backgroundColor":"#f8f8f8","images":{"fallback":{"src":"/static/c7aa3f5193d2ac45392b4291dbd280fc/17e9b/funcpnp3.png","srcSet":"/static/c7aa3f5193d2ac45392b4291dbd280fc/bed7a/funcpnp3.png 400w,\n/static/c7aa3f5193d2ac45392b4291dbd280fc/17e9b/funcpnp3.png 800w","sizes":"(min-width: 800px) 800px, 100vw"},"sources":[{"srcSet":"/static/c7aa3f5193d2ac45392b4291dbd280fc/6a2da/funcpnp3.webp 400w,\n/static/c7aa3f5193d2ac45392b4291dbd280fc/c9f06/funcpnp3.webp 800w","type":"image/webp","sizes":"(min-width: 800px) 800px, 100vw"}]},"width":1600,"height":650}}},{"id":"dc68244e-32b6-55e4-b9a1-c2138e5d854c","title":"Part 2 - Azure Functions V2 + VS Code + PnPJs === true","slug":"/part2-azurefunction/","link":null,"excerpt":"The posts in this series Part 2 - Azure Functions V2 + VS Code + PnPJs === true Let's deploy the…","timeToRead":3,"featured":null,"thumbnailText":null,"date":"November 18, 2018","category":{"id":"64f10eaf-091c-555c-a28e-13a12e934b04","name":"Azure","slug":"/category/azure/","color":"#007fff","icon":"/static/660faf3683bb1a8489baa9402bf62165/azure.svg"},"author":null,"thumbnail":{"__typename":"ImageSharp","ImageSharp_vertical":{"layout":"constrained","backgroundColor":"#f8f8f8","images":{"fallback":{"src":"/static/55add6717461e76d8487682f8791bdf0/19188/funcpnp2.png","srcSet":"/static/55add6717461e76d8487682f8791bdf0/db297/funcpnp2.png 190w,\n/static/55add6717461e76d8487682f8791bdf0/19188/funcpnp2.png 380w","sizes":"(min-width: 380px) 380px, 100vw"},"sources":[{"srcSet":"/static/55add6717461e76d8487682f8791bdf0/228d6/funcpnp2.webp 190w,\n/static/55add6717461e76d8487682f8791bdf0/6b99c/funcpnp2.webp 380w","type":"image/webp","sizes":"(min-width: 380px) 380px, 100vw"}]},"width":380,"height":290},"ImageSharp_hero":{"layout":"constrained","backgroundColor":"#f8f8f8","images":{"fallback":{"src":"/static/55add6717461e76d8487682f8791bdf0/17e9b/funcpnp2.png","srcSet":"/static/55add6717461e76d8487682f8791bdf0/bed7a/funcpnp2.png 400w,\n/static/55add6717461e76d8487682f8791bdf0/17e9b/funcpnp2.png 800w","sizes":"(min-width: 800px) 800px, 100vw"},"sources":[{"srcSet":"/static/55add6717461e76d8487682f8791bdf0/6a2da/funcpnp2.webp 400w,\n/static/55add6717461e76d8487682f8791bdf0/c9f06/funcpnp2.webp 800w","type":"image/webp","sizes":"(min-width: 800px) 800px, 100vw"}]},"width":1600,"height":650}}}],"pageInfo":{"pageCount":4,"hasPreviousPage":true,"hasNextPage":true,"currentPage":3},"totalCount":19}},"pageContext":{"slug":"/category/azure/","limit":6,"skip":12,"collectionType":"category","paginatePostsPage":true,"basePath":"/","services":{"algolia":true,"mailchimp":false,"disqus":false,"graphComment":true,"facebookComment":false},"siteUrl":"https://www.agrenpoint.com","mobileMenu":{"title":"Topics","items":[{"name":"Azure","slug":"/category/azure/"},{"name":"Endpoint management","slug":"/category/endpoint-management/"},{"name":"Microsoft 365","slug":"/category/microsoft-365/"}]},"darkMode":true,"includeExcerpt":true,"includeTimeToRead":true,"includeTableOfContents":true,"imageQuality":75,"currentDate":"2026-03-02"}},"staticQueryHashes":["1992822086","2409295108","2925947909"]}