{"componentChunkName":"component---packages-blog-gatsby-blog-core-src-templates-collection-category-js","path":"/category/microsoft-365/page/9/","result":{"data":{"collectionInfo":{"id":"b0babac0-675d-51af-aa7a-ce603b3a7af4","name":"Microsoft 365","slug":"/category/microsoft-365/","description":"This category involves all things Microsoft 365"},"posts":{"nodes":[{"id":"800b7e77-e2aa-5a23-b50b-88680a16b735","title":"Findings from issues with SharePoint Starter Kit","slug":"/sp-starter-footer/","link":null,"excerpt":"I have been getting some questions about how to resolve some of the issues with the footer and links…","timeToRead":3,"featured":null,"thumbnailText":null,"date":"February 07, 2019","category":{"id":"b0babac0-675d-51af-aa7a-ce603b3a7af4","name":"Microsoft 365","slug":"/category/microsoft-365/","color":"#f25022","icon":"/static/363fdd53d34303b727d9dab161b8e88b/microsoft365.svg"},"author":{"id":"6f313320-531a-5f32-9a22-708cb7653896","name":"Simon Ågren","slug":"/author/simon-agren/","title":"CTA & Microsoft MVP","description":"Solving business problems with tech","skills":["Microsoft 365","Azure"],"social":[{"name":"Github","url":"https://github.com/simonagren"},{"name":"Twitter","url":"https://twitter.com/agrenpoint"},{"name":"Website","url":"https://agrenpoint.com"}],"thumbnail":{"__typename":"ImageSharp","ImageSharp_small":{"layout":"fixed","backgroundColor":"#f8f8f8","images":{"fallback":{"src":"/static/bdc8525039042bedd52c0cf7d15e8521/ac0cb/simon-agren.jpg","srcSet":"/static/bdc8525039042bedd52c0cf7d15e8521/ac0cb/simon-agren.jpg 48w,\n/static/bdc8525039042bedd52c0cf7d15e8521/73f48/simon-agren.jpg 96w","sizes":"48px"},"sources":[{"srcSet":"/static/bdc8525039042bedd52c0cf7d15e8521/a3542/simon-agren.webp 48w,\n/static/bdc8525039042bedd52c0cf7d15e8521/0f66d/simon-agren.webp 96w","type":"image/webp","sizes":"48px"}]},"width":48,"height":48},"ImageSharp_regular":{"layout":"fixed","backgroundColor":"#f8f8f8","images":{"fallback":{"src":"/static/bdc8525039042bedd52c0cf7d15e8521/f679f/simon-agren.jpg","srcSet":"/static/bdc8525039042bedd52c0cf7d15e8521/f679f/simon-agren.jpg 150w,\n/static/bdc8525039042bedd52c0cf7d15e8521/78d3d/simon-agren.jpg 300w","sizes":"150px"},"sources":[{"srcSet":"/static/bdc8525039042bedd52c0cf7d15e8521/ae23d/simon-agren.webp 150w,\n/static/bdc8525039042bedd52c0cf7d15e8521/bd37b/simon-agren.webp 300w","type":"image/webp","sizes":"150px"}]},"width":150,"height":150}}},"thumbnail":{"__typename":"ImageSharp","ImageSharp_vertical":{"layout":"constrained","backgroundColor":"#f8f8f8","images":{"fallback":{"src":"/static/a9c673011e6ee31cd62829d6065f636d/19188/default-front-page-contoso.png","srcSet":"/static/a9c673011e6ee31cd62829d6065f636d/db297/default-front-page-contoso.png 190w,\n/static/a9c673011e6ee31cd62829d6065f636d/19188/default-front-page-contoso.png 380w","sizes":"(min-width: 380px) 380px, 100vw"},"sources":[{"srcSet":"/static/a9c673011e6ee31cd62829d6065f636d/228d6/default-front-page-contoso.webp 190w,\n/static/a9c673011e6ee31cd62829d6065f636d/6b99c/default-front-page-contoso.webp 380w","type":"image/webp","sizes":"(min-width: 380px) 380px, 100vw"}]},"width":380,"height":290},"ImageSharp_hero":{"layout":"constrained","backgroundColor":"#f8f8f8","images":{"fallback":{"src":"/static/a9c673011e6ee31cd62829d6065f636d/dfc00/default-front-page-contoso.png","srcSet":"/static/a9c673011e6ee31cd62829d6065f636d/481ea/default-front-page-contoso.png 608w,\n/static/a9c673011e6ee31cd62829d6065f636d/dfc00/default-front-page-contoso.png 1216w","sizes":"(min-width: 1216px) 1216px, 100vw"},"sources":[{"srcSet":"/static/a9c673011e6ee31cd62829d6065f636d/e93b9/default-front-page-contoso.webp 608w,\n/static/a9c673011e6ee31cd62829d6065f636d/a4e5a/default-front-page-contoso.webp 1216w","type":"image/webp","sizes":"(min-width: 1216px) 1216px, 100vw"}]},"width":1600,"height":650}}},{"id":"cb52762b-13f2-59de-b38c-e70f9d2532b6","title":"Extending My Links in SharePoint Starter Kit","slug":"/sp-starter-xml-links/","link":null,"excerpt":"I made two posts at once and here is the previous:  Findings from issues with SharePoint Starter Kit…","timeToRead":1,"featured":null,"thumbnailText":null,"date":"February 07, 2019","category":{"id":"b0babac0-675d-51af-aa7a-ce603b3a7af4","name":"Microsoft 365","slug":"/category/microsoft-365/","color":"#f25022","icon":"/static/363fdd53d34303b727d9dab161b8e88b/microsoft365.svg"},"author":{"id":"6f313320-531a-5f32-9a22-708cb7653896","name":"Simon Ågren","slug":"/author/simon-agren/","title":"CTA & Microsoft MVP","description":"Solving business problems with tech","skills":["Microsoft 365","Azure"],"social":[{"name":"Github","url":"https://github.com/simonagren"},{"name":"Twitter","url":"https://twitter.com/agrenpoint"},{"name":"Website","url":"https://agrenpoint.com"}],"thumbnail":{"__typename":"ImageSharp","ImageSharp_small":{"layout":"fixed","backgroundColor":"#f8f8f8","images":{"fallback":{"src":"/static/bdc8525039042bedd52c0cf7d15e8521/ac0cb/simon-agren.jpg","srcSet":"/static/bdc8525039042bedd52c0cf7d15e8521/ac0cb/simon-agren.jpg 48w,\n/static/bdc8525039042bedd52c0cf7d15e8521/73f48/simon-agren.jpg 96w","sizes":"48px"},"sources":[{"srcSet":"/static/bdc8525039042bedd52c0cf7d15e8521/a3542/simon-agren.webp 48w,\n/static/bdc8525039042bedd52c0cf7d15e8521/0f66d/simon-agren.webp 96w","type":"image/webp","sizes":"48px"}]},"width":48,"height":48},"ImageSharp_regular":{"layout":"fixed","backgroundColor":"#f8f8f8","images":{"fallback":{"src":"/static/bdc8525039042bedd52c0cf7d15e8521/f679f/simon-agren.jpg","srcSet":"/static/bdc8525039042bedd52c0cf7d15e8521/f679f/simon-agren.jpg 150w,\n/static/bdc8525039042bedd52c0cf7d15e8521/78d3d/simon-agren.jpg 300w","sizes":"150px"},"sources":[{"srcSet":"/static/bdc8525039042bedd52c0cf7d15e8521/ae23d/simon-agren.webp 150w,\n/static/bdc8525039042bedd52c0cf7d15e8521/bd37b/simon-agren.webp 300w","type":"image/webp","sizes":"150px"}]},"width":150,"height":150}}},"thumbnail":{"__typename":"ImageSharp","ImageSharp_vertical":{"layout":"constrained","backgroundColor":"#181818","images":{"fallback":{"src":"/static/8a14189f90fa0cda77481a083fa52391/144fe/extend.jpg","srcSet":"/static/8a14189f90fa0cda77481a083fa52391/9d7b9/extend.jpg 190w,\n/static/8a14189f90fa0cda77481a083fa52391/144fe/extend.jpg 380w","sizes":"(min-width: 380px) 380px, 100vw"},"sources":[{"srcSet":"/static/8a14189f90fa0cda77481a083fa52391/228d6/extend.webp 190w,\n/static/8a14189f90fa0cda77481a083fa52391/6b99c/extend.webp 380w","type":"image/webp","sizes":"(min-width: 380px) 380px, 100vw"}]},"width":380,"height":290},"ImageSharp_hero":{"layout":"constrained","backgroundColor":"#181818","images":{"fallback":{"src":"/static/8a14189f90fa0cda77481a083fa52391/5e493/extend.jpg","srcSet":"/static/8a14189f90fa0cda77481a083fa52391/696c0/extend.jpg 800w,\n/static/8a14189f90fa0cda77481a083fa52391/5e493/extend.jpg 1600w","sizes":"(min-width: 1600px) 1600px, 100vw"},"sources":[{"srcSet":"/static/8a14189f90fa0cda77481a083fa52391/c9f06/extend.webp 800w,\n/static/8a14189f90fa0cda77481a083fa52391/f47df/extend.webp 1600w","type":"image/webp","sizes":"(min-width: 1600px) 1600px, 100vw"}]},"width":1600,"height":650}}},{"id":"b9f6c5b7-8870-5d32-addd-7b37e2e9a58d","title":"Update managed metadata fields with PnPJs","slug":"/pnpjs-update-managed-metadata/","link":null,"excerpt":"Last night I was helping out with an issue in the PnPJs repository on GitHub where the user wanted…","timeToRead":1,"featured":null,"thumbnailText":null,"date":"November 09, 2018","category":{"id":"b0babac0-675d-51af-aa7a-ce603b3a7af4","name":"Microsoft 365","slug":"/category/microsoft-365/","color":"#f25022","icon":"/static/363fdd53d34303b727d9dab161b8e88b/microsoft365.svg"},"author":{"id":"6f313320-531a-5f32-9a22-708cb7653896","name":"Simon Ågren","slug":"/author/simon-agren/","title":"CTA & Microsoft MVP","description":"Solving business problems with tech","skills":["Microsoft 365","Azure"],"social":[{"name":"Github","url":"https://github.com/simonagren"},{"name":"Twitter","url":"https://twitter.com/agrenpoint"},{"name":"Website","url":"https://agrenpoint.com"}],"thumbnail":{"__typename":"ImageSharp","ImageSharp_small":{"layout":"fixed","backgroundColor":"#f8f8f8","images":{"fallback":{"src":"/static/bdc8525039042bedd52c0cf7d15e8521/ac0cb/simon-agren.jpg","srcSet":"/static/bdc8525039042bedd52c0cf7d15e8521/ac0cb/simon-agren.jpg 48w,\n/static/bdc8525039042bedd52c0cf7d15e8521/73f48/simon-agren.jpg 96w","sizes":"48px"},"sources":[{"srcSet":"/static/bdc8525039042bedd52c0cf7d15e8521/a3542/simon-agren.webp 48w,\n/static/bdc8525039042bedd52c0cf7d15e8521/0f66d/simon-agren.webp 96w","type":"image/webp","sizes":"48px"}]},"width":48,"height":48},"ImageSharp_regular":{"layout":"fixed","backgroundColor":"#f8f8f8","images":{"fallback":{"src":"/static/bdc8525039042bedd52c0cf7d15e8521/f679f/simon-agren.jpg","srcSet":"/static/bdc8525039042bedd52c0cf7d15e8521/f679f/simon-agren.jpg 150w,\n/static/bdc8525039042bedd52c0cf7d15e8521/78d3d/simon-agren.jpg 300w","sizes":"150px"},"sources":[{"srcSet":"/static/bdc8525039042bedd52c0cf7d15e8521/ae23d/simon-agren.webp 150w,\n/static/bdc8525039042bedd52c0cf7d15e8521/bd37b/simon-agren.webp 300w","type":"image/webp","sizes":"150px"}]},"width":150,"height":150}}},"thumbnail":{"__typename":"ImageSharp","ImageSharp_vertical":{"layout":"constrained","backgroundColor":"#2878b8","images":{"fallback":{"src":"/static/558bcf95ded30b225148cfbca1a4ed0c/19188/pnp-pnpjs-600.png","srcSet":"/static/558bcf95ded30b225148cfbca1a4ed0c/db297/pnp-pnpjs-600.png 190w,\n/static/558bcf95ded30b225148cfbca1a4ed0c/19188/pnp-pnpjs-600.png 380w","sizes":"(min-width: 380px) 380px, 100vw"},"sources":[{"srcSet":"/static/558bcf95ded30b225148cfbca1a4ed0c/228d6/pnp-pnpjs-600.webp 190w,\n/static/558bcf95ded30b225148cfbca1a4ed0c/6b99c/pnp-pnpjs-600.webp 380w","type":"image/webp","sizes":"(min-width: 380px) 380px, 100vw"}]},"width":380,"height":290},"ImageSharp_hero":{"layout":"constrained","backgroundColor":"#2878b8","images":{"fallback":{"src":"/static/558bcf95ded30b225148cfbca1a4ed0c/739fd/pnp-pnpjs-600.png","srcSet":"/static/558bcf95ded30b225148cfbca1a4ed0c/a16e7/pnp-pnpjs-600.png 300w,\n/static/558bcf95ded30b225148cfbca1a4ed0c/739fd/pnp-pnpjs-600.png 600w","sizes":"(min-width: 600px) 600px, 100vw"},"sources":[{"srcSet":"/static/558bcf95ded30b225148cfbca1a4ed0c/797c8/pnp-pnpjs-600.webp 300w,\n/static/558bcf95ded30b225148cfbca1a4ed0c/288e3/pnp-pnpjs-600.webp 600w","type":"image/webp","sizes":"(min-width: 600px) 600px, 100vw"}]},"width":1600,"height":650.6666666666666}}},{"id":"64a6b995-03f8-5c5d-838a-7578336e266c","title":"Create a Microsoft Team using site designs, Flow and Hub Sites","slug":"/create-team-site-script/","link":null,"excerpt":"I was asked a few days ago if we could automate  Microsoft Teams  creation when a Modern Team Site…","timeToRead":2,"featured":null,"thumbnailText":null,"date":"November 08, 2018","category":{"id":"b0babac0-675d-51af-aa7a-ce603b3a7af4","name":"Microsoft 365","slug":"/category/microsoft-365/","color":"#f25022","icon":"/static/363fdd53d34303b727d9dab161b8e88b/microsoft365.svg"},"author":{"id":"6f313320-531a-5f32-9a22-708cb7653896","name":"Simon Ågren","slug":"/author/simon-agren/","title":"CTA & Microsoft MVP","description":"Solving business problems with tech","skills":["Microsoft 365","Azure"],"social":[{"name":"Github","url":"https://github.com/simonagren"},{"name":"Twitter","url":"https://twitter.com/agrenpoint"},{"name":"Website","url":"https://agrenpoint.com"}],"thumbnail":{"__typename":"ImageSharp","ImageSharp_small":{"layout":"fixed","backgroundColor":"#f8f8f8","images":{"fallback":{"src":"/static/bdc8525039042bedd52c0cf7d15e8521/ac0cb/simon-agren.jpg","srcSet":"/static/bdc8525039042bedd52c0cf7d15e8521/ac0cb/simon-agren.jpg 48w,\n/static/bdc8525039042bedd52c0cf7d15e8521/73f48/simon-agren.jpg 96w","sizes":"48px"},"sources":[{"srcSet":"/static/bdc8525039042bedd52c0cf7d15e8521/a3542/simon-agren.webp 48w,\n/static/bdc8525039042bedd52c0cf7d15e8521/0f66d/simon-agren.webp 96w","type":"image/webp","sizes":"48px"}]},"width":48,"height":48},"ImageSharp_regular":{"layout":"fixed","backgroundColor":"#f8f8f8","images":{"fallback":{"src":"/static/bdc8525039042bedd52c0cf7d15e8521/f679f/simon-agren.jpg","srcSet":"/static/bdc8525039042bedd52c0cf7d15e8521/f679f/simon-agren.jpg 150w,\n/static/bdc8525039042bedd52c0cf7d15e8521/78d3d/simon-agren.jpg 300w","sizes":"150px"},"sources":[{"srcSet":"/static/bdc8525039042bedd52c0cf7d15e8521/ae23d/simon-agren.webp 150w,\n/static/bdc8525039042bedd52c0cf7d15e8521/bd37b/simon-agren.webp 300w","type":"image/webp","sizes":"150px"}]},"width":150,"height":150}}},"thumbnail":{"__typename":"ImageSharp","ImageSharp_vertical":{"layout":"constrained","backgroundColor":"#f8f8f8","images":{"fallback":{"src":"/static/b3efa29ae13967ac3136f9727b3cd824/144fe/success.jpg","srcSet":"/static/b3efa29ae13967ac3136f9727b3cd824/9d7b9/success.jpg 190w,\n/static/b3efa29ae13967ac3136f9727b3cd824/144fe/success.jpg 380w","sizes":"(min-width: 380px) 380px, 100vw"},"sources":[{"srcSet":"/static/b3efa29ae13967ac3136f9727b3cd824/228d6/success.webp 190w,\n/static/b3efa29ae13967ac3136f9727b3cd824/6b99c/success.webp 380w","type":"image/webp","sizes":"(min-width: 380px) 380px, 100vw"}]},"width":380,"height":290},"ImageSharp_hero":{"layout":"constrained","backgroundColor":"#f8f8f8","images":{"fallback":{"src":"/static/b3efa29ae13967ac3136f9727b3cd824/49675/success.jpg","srcSet":"/static/b3efa29ae13967ac3136f9727b3cd824/7463f/success.jpg 626w,\n/static/b3efa29ae13967ac3136f9727b3cd824/49675/success.jpg 1252w","sizes":"(min-width: 1252px) 1252px, 100vw"},"sources":[{"srcSet":"/static/b3efa29ae13967ac3136f9727b3cd824/509fe/success.webp 626w,\n/static/b3efa29ae13967ac3136f9727b3cd824/41f78/success.webp 1252w","type":"image/webp","sizes":"(min-width: 1252px) 1252px, 100vw"}]},"width":1600,"height":650.479233226837}}}],"pageInfo":{"pageCount":9,"hasPreviousPage":true,"hasNextPage":false,"currentPage":9},"totalCount":52}},"pageContext":{"slug":"/category/microsoft-365/","limit":6,"skip":48,"collectionType":"category","paginatePostsPage":true,"basePath":"/","services":{"algolia":true,"mailchimp":false,"disqus":false,"graphComment":true,"facebookComment":false},"siteUrl":"https://www.agrenpoint.com","mobileMenu":{"title":"Topics","items":[{"name":"Azure","slug":"/category/azure/"},{"name":"Endpoint management","slug":"/category/endpoint-management/"},{"name":"Microsoft 365","slug":"/category/microsoft-365/"}]},"darkMode":true,"includeExcerpt":true,"includeTimeToRead":true,"includeTableOfContents":true,"imageQuality":75,"currentDate":"2026-03-02"}},"staticQueryHashes":["1992822086","2409295108","2925947909"]}