{"componentChunkName":"component---packages-blog-gatsby-blog-core-src-templates-collection-category-js","path":"/category/azure/page/4/","result":{"data":{"collectionInfo":{"id":"64f10eaf-091c-555c-a28e-13a12e934b04","name":"Azure","slug":"/category/azure/","description":"This category involves different Azure-related topics. Bots, Azure functions, Azure AD, Indentity etc."},"posts":{"nodes":[{"id":"c3d92c6c-7dd7-57b6-81b9-e43cd9398509","title":"Part 1 - Azure Functions V2 + VS Code + PnPJs === true","slug":"/azurefunction-v2-pnpjs/","link":null,"excerpt":"The posts in this series Part 1 - Azure Functions V2 + VS Code + PnPJs === true As the title may…","timeToRead":2,"featured":null,"thumbnailText":null,"date":"November 11, 2018","category":{"id":"64f10eaf-091c-555c-a28e-13a12e934b04","name":"Azure","slug":"/category/azure/","color":"#007fff","icon":"/static/660faf3683bb1a8489baa9402bf62165/azure.svg"},"author":{"id":"6f313320-531a-5f32-9a22-708cb7653896","name":"Simon Ågren","slug":"/author/simon-agren/","title":"CTA & Microsoft MVP","description":"Solving business problems with tech","skills":["Microsoft 365","Azure"],"social":[{"name":"Github","url":"https://github.com/simonagren"},{"name":"Twitter","url":"https://twitter.com/agrenpoint"},{"name":"Website","url":"https://agrenpoint.com"}],"thumbnail":{"__typename":"ImageSharp","ImageSharp_small":{"layout":"fixed","backgroundColor":"#f8f8f8","images":{"fallback":{"src":"/static/bdc8525039042bedd52c0cf7d15e8521/ac0cb/simon-agren.jpg","srcSet":"/static/bdc8525039042bedd52c0cf7d15e8521/ac0cb/simon-agren.jpg 48w,\n/static/bdc8525039042bedd52c0cf7d15e8521/73f48/simon-agren.jpg 96w","sizes":"48px"},"sources":[{"srcSet":"/static/bdc8525039042bedd52c0cf7d15e8521/a3542/simon-agren.webp 48w,\n/static/bdc8525039042bedd52c0cf7d15e8521/0f66d/simon-agren.webp 96w","type":"image/webp","sizes":"48px"}]},"width":48,"height":48},"ImageSharp_regular":{"layout":"fixed","backgroundColor":"#f8f8f8","images":{"fallback":{"src":"/static/bdc8525039042bedd52c0cf7d15e8521/f679f/simon-agren.jpg","srcSet":"/static/bdc8525039042bedd52c0cf7d15e8521/f679f/simon-agren.jpg 150w,\n/static/bdc8525039042bedd52c0cf7d15e8521/78d3d/simon-agren.jpg 300w","sizes":"150px"},"sources":[{"srcSet":"/static/bdc8525039042bedd52c0cf7d15e8521/ae23d/simon-agren.webp 150w,\n/static/bdc8525039042bedd52c0cf7d15e8521/bd37b/simon-agren.webp 300w","type":"image/webp","sizes":"150px"}]},"width":150,"height":150}}},"thumbnail":{"__typename":"ImageSharp","ImageSharp_vertical":{"layout":"constrained","backgroundColor":"#f8f8f8","images":{"fallback":{"src":"/static/dfec975154c30531070e5894527e0e5f/19188/funcpnp.png","srcSet":"/static/dfec975154c30531070e5894527e0e5f/db297/funcpnp.png 190w,\n/static/dfec975154c30531070e5894527e0e5f/19188/funcpnp.png 380w","sizes":"(min-width: 380px) 380px, 100vw"},"sources":[{"srcSet":"/static/dfec975154c30531070e5894527e0e5f/228d6/funcpnp.webp 190w,\n/static/dfec975154c30531070e5894527e0e5f/6b99c/funcpnp.webp 380w","type":"image/webp","sizes":"(min-width: 380px) 380px, 100vw"}]},"width":380,"height":290},"ImageSharp_hero":{"layout":"constrained","backgroundColor":"#f8f8f8","images":{"fallback":{"src":"/static/dfec975154c30531070e5894527e0e5f/17e9b/funcpnp.png","srcSet":"/static/dfec975154c30531070e5894527e0e5f/bed7a/funcpnp.png 400w,\n/static/dfec975154c30531070e5894527e0e5f/17e9b/funcpnp.png 800w","sizes":"(min-width: 800px) 800px, 100vw"},"sources":[{"srcSet":"/static/dfec975154c30531070e5894527e0e5f/6a2da/funcpnp.webp 400w,\n/static/dfec975154c30531070e5894527e0e5f/c9f06/funcpnp.webp 800w","type":"image/webp","sizes":"(min-width: 800px) 800px, 100vw"}]},"width":1600,"height":650}}}],"pageInfo":{"pageCount":4,"hasPreviousPage":true,"hasNextPage":false,"currentPage":4},"totalCount":19}},"pageContext":{"slug":"/category/azure/","limit":6,"skip":18,"collectionType":"category","paginatePostsPage":true,"basePath":"/","services":{"algolia":true,"mailchimp":false,"disqus":false,"graphComment":true,"facebookComment":false},"siteUrl":"https://www.agrenpoint.com","mobileMenu":{"title":"Topics","items":[{"name":"Azure","slug":"/category/azure/"},{"name":"Endpoint management","slug":"/category/endpoint-management/"},{"name":"Microsoft 365","slug":"/category/microsoft-365/"}]},"darkMode":true,"includeExcerpt":true,"includeTimeToRead":true,"includeTableOfContents":true,"imageQuality":75,"currentDate":"2026-03-02"}},"staticQueryHashes":["1992822086","2409295108","2925947909"]}