{"componentChunkName":"component---packages-blog-gatsby-blog-core-src-templates-collection-category-js","path":"/category/microsoft-365/page/8/","result":{"data":{"collectionInfo":{"id":"b0babac0-675d-51af-aa7a-ce603b3a7af4","name":"Microsoft 365","slug":"/category/microsoft-365/","description":"This category involves all things Microsoft 365"},"posts":{"nodes":[{"id":"77167810-7af1-5dc0-a1dd-a11b4a6d0e57","title":"Microsoft Teams settings and policies quick overview","slug":"/microsoft-teams-settings-and-policies-quick-overview/","link":null,"excerpt":"I introduced some governance options and high-level thoughts regarding them. In this post, I want to…","timeToRead":3,"featured":true,"thumbnailText":null,"date":"November 29, 2021","category":{"id":"b0babac0-675d-51af-aa7a-ce603b3a7af4","name":"Microsoft 365","slug":"/category/microsoft-365/","color":"#f25022","icon":"/static/363fdd53d34303b727d9dab161b8e88b/microsoft365.svg"},"author":{"id":"6f313320-531a-5f32-9a22-708cb7653896","name":"Simon Ågren","slug":"/author/simon-agren/","title":"CTA & Microsoft MVP","description":"Solving business problems with tech","skills":["Microsoft 365","Azure"],"social":[{"name":"Github","url":"https://github.com/simonagren"},{"name":"Twitter","url":"https://twitter.com/agrenpoint"},{"name":"Website","url":"https://agrenpoint.com"}],"thumbnail":{"__typename":"ImageSharp","ImageSharp_small":{"layout":"fixed","backgroundColor":"#f8f8f8","images":{"fallback":{"src":"/static/bdc8525039042bedd52c0cf7d15e8521/ac0cb/simon-agren.jpg","srcSet":"/static/bdc8525039042bedd52c0cf7d15e8521/ac0cb/simon-agren.jpg 48w,\n/static/bdc8525039042bedd52c0cf7d15e8521/73f48/simon-agren.jpg 96w","sizes":"48px"},"sources":[{"srcSet":"/static/bdc8525039042bedd52c0cf7d15e8521/a3542/simon-agren.webp 48w,\n/static/bdc8525039042bedd52c0cf7d15e8521/0f66d/simon-agren.webp 96w","type":"image/webp","sizes":"48px"}]},"width":48,"height":48},"ImageSharp_regular":{"layout":"fixed","backgroundColor":"#f8f8f8","images":{"fallback":{"src":"/static/bdc8525039042bedd52c0cf7d15e8521/f679f/simon-agren.jpg","srcSet":"/static/bdc8525039042bedd52c0cf7d15e8521/f679f/simon-agren.jpg 150w,\n/static/bdc8525039042bedd52c0cf7d15e8521/78d3d/simon-agren.jpg 300w","sizes":"150px"},"sources":[{"srcSet":"/static/bdc8525039042bedd52c0cf7d15e8521/ae23d/simon-agren.webp 150w,\n/static/bdc8525039042bedd52c0cf7d15e8521/bd37b/simon-agren.webp 300w","type":"image/webp","sizes":"150px"}]},"width":150,"height":150}}},"thumbnail":{"__typename":"ImageSharp","ImageSharp_vertical":{"layout":"constrained","backgroundColor":"#f8f8f8","images":{"fallback":{"src":"/static/a1be53d5d8210ae59ab87eacf533a8cd/144fe/image.jpg","srcSet":"/static/a1be53d5d8210ae59ab87eacf533a8cd/9d7b9/image.jpg 190w,\n/static/a1be53d5d8210ae59ab87eacf533a8cd/144fe/image.jpg 380w","sizes":"(min-width: 380px) 380px, 100vw"},"sources":[{"srcSet":"/static/a1be53d5d8210ae59ab87eacf533a8cd/228d6/image.webp 190w,\n/static/a1be53d5d8210ae59ab87eacf533a8cd/6b99c/image.webp 380w","type":"image/webp","sizes":"(min-width: 380px) 380px, 100vw"}]},"width":380,"height":290},"ImageSharp_hero":{"layout":"constrained","backgroundColor":"#f8f8f8","images":{"fallback":{"src":"/static/a1be53d5d8210ae59ab87eacf533a8cd/5e493/image.jpg","srcSet":"/static/a1be53d5d8210ae59ab87eacf533a8cd/696c0/image.jpg 800w,\n/static/a1be53d5d8210ae59ab87eacf533a8cd/5e493/image.jpg 1600w","sizes":"(min-width: 1600px) 1600px, 100vw"},"sources":[{"srcSet":"/static/a1be53d5d8210ae59ab87eacf533a8cd/c9f06/image.webp 800w,\n/static/a1be53d5d8210ae59ab87eacf533a8cd/f47df/image.webp 1600w","type":"image/webp","sizes":"(min-width: 1600px) 1600px, 100vw"}]},"width":1600,"height":650}}},{"id":"d14c7057-fd15-5640-95d5-c157f55d2900","title":"Governance options overview for Microsoft 365 and Teams","slug":"/governance-options-overview-for-microsoft-365-and-teams/","link":null,"excerpt":"I introduced some high-level thoughts on a governance strategy and its importance in the previous…","timeToRead":4,"featured":true,"thumbnailText":null,"date":"November 15, 2021","category":{"id":"b0babac0-675d-51af-aa7a-ce603b3a7af4","name":"Microsoft 365","slug":"/category/microsoft-365/","color":"#f25022","icon":"/static/363fdd53d34303b727d9dab161b8e88b/microsoft365.svg"},"author":{"id":"6f313320-531a-5f32-9a22-708cb7653896","name":"Simon Ågren","slug":"/author/simon-agren/","title":"CTA & Microsoft MVP","description":"Solving business problems with tech","skills":["Microsoft 365","Azure"],"social":[{"name":"Github","url":"https://github.com/simonagren"},{"name":"Twitter","url":"https://twitter.com/agrenpoint"},{"name":"Website","url":"https://agrenpoint.com"}],"thumbnail":{"__typename":"ImageSharp","ImageSharp_small":{"layout":"fixed","backgroundColor":"#f8f8f8","images":{"fallback":{"src":"/static/bdc8525039042bedd52c0cf7d15e8521/ac0cb/simon-agren.jpg","srcSet":"/static/bdc8525039042bedd52c0cf7d15e8521/ac0cb/simon-agren.jpg 48w,\n/static/bdc8525039042bedd52c0cf7d15e8521/73f48/simon-agren.jpg 96w","sizes":"48px"},"sources":[{"srcSet":"/static/bdc8525039042bedd52c0cf7d15e8521/a3542/simon-agren.webp 48w,\n/static/bdc8525039042bedd52c0cf7d15e8521/0f66d/simon-agren.webp 96w","type":"image/webp","sizes":"48px"}]},"width":48,"height":48},"ImageSharp_regular":{"layout":"fixed","backgroundColor":"#f8f8f8","images":{"fallback":{"src":"/static/bdc8525039042bedd52c0cf7d15e8521/f679f/simon-agren.jpg","srcSet":"/static/bdc8525039042bedd52c0cf7d15e8521/f679f/simon-agren.jpg 150w,\n/static/bdc8525039042bedd52c0cf7d15e8521/78d3d/simon-agren.jpg 300w","sizes":"150px"},"sources":[{"srcSet":"/static/bdc8525039042bedd52c0cf7d15e8521/ae23d/simon-agren.webp 150w,\n/static/bdc8525039042bedd52c0cf7d15e8521/bd37b/simon-agren.webp 300w","type":"image/webp","sizes":"150px"}]},"width":150,"height":150}}},"thumbnail":{"__typename":"ImageSharp","ImageSharp_vertical":{"layout":"constrained","backgroundColor":"#484848","images":{"fallback":{"src":"/static/b7cd887809a8df737c6c319ac621d252/144fe/image.jpg","srcSet":"/static/b7cd887809a8df737c6c319ac621d252/9d7b9/image.jpg 190w,\n/static/b7cd887809a8df737c6c319ac621d252/144fe/image.jpg 380w","sizes":"(min-width: 380px) 380px, 100vw"},"sources":[{"srcSet":"/static/b7cd887809a8df737c6c319ac621d252/228d6/image.webp 190w,\n/static/b7cd887809a8df737c6c319ac621d252/6b99c/image.webp 380w","type":"image/webp","sizes":"(min-width: 380px) 380px, 100vw"}]},"width":380,"height":290},"ImageSharp_hero":{"layout":"constrained","backgroundColor":"#484848","images":{"fallback":{"src":"/static/b7cd887809a8df737c6c319ac621d252/5e493/image.jpg","srcSet":"/static/b7cd887809a8df737c6c319ac621d252/696c0/image.jpg 800w,\n/static/b7cd887809a8df737c6c319ac621d252/5e493/image.jpg 1600w","sizes":"(min-width: 1600px) 1600px, 100vw"},"sources":[{"srcSet":"/static/b7cd887809a8df737c6c319ac621d252/c9f06/image.webp 800w,\n/static/b7cd887809a8df737c6c319ac621d252/f47df/image.webp 1600w","type":"image/webp","sizes":"(min-width: 1600px) 1600px, 100vw"}]},"width":1600,"height":650}}},{"id":"769a2ccd-fcfd-5c1c-93b5-190ec2dece54","title":"Why you need a governance strategy for Microsoft Teams and M365","slug":"/why-you-need-a-governance-strategy-for-microsoft-teams-and-m365/","link":null,"excerpt":"What is governance strategy? Simply put, governance strategy is about defining people, processes…","timeToRead":3,"featured":true,"thumbnailText":null,"date":"November 01, 2021","category":{"id":"b0babac0-675d-51af-aa7a-ce603b3a7af4","name":"Microsoft 365","slug":"/category/microsoft-365/","color":"#f25022","icon":"/static/363fdd53d34303b727d9dab161b8e88b/microsoft365.svg"},"author":{"id":"6f313320-531a-5f32-9a22-708cb7653896","name":"Simon Ågren","slug":"/author/simon-agren/","title":"CTA & Microsoft MVP","description":"Solving business problems with tech","skills":["Microsoft 365","Azure"],"social":[{"name":"Github","url":"https://github.com/simonagren"},{"name":"Twitter","url":"https://twitter.com/agrenpoint"},{"name":"Website","url":"https://agrenpoint.com"}],"thumbnail":{"__typename":"ImageSharp","ImageSharp_small":{"layout":"fixed","backgroundColor":"#f8f8f8","images":{"fallback":{"src":"/static/bdc8525039042bedd52c0cf7d15e8521/ac0cb/simon-agren.jpg","srcSet":"/static/bdc8525039042bedd52c0cf7d15e8521/ac0cb/simon-agren.jpg 48w,\n/static/bdc8525039042bedd52c0cf7d15e8521/73f48/simon-agren.jpg 96w","sizes":"48px"},"sources":[{"srcSet":"/static/bdc8525039042bedd52c0cf7d15e8521/a3542/simon-agren.webp 48w,\n/static/bdc8525039042bedd52c0cf7d15e8521/0f66d/simon-agren.webp 96w","type":"image/webp","sizes":"48px"}]},"width":48,"height":48},"ImageSharp_regular":{"layout":"fixed","backgroundColor":"#f8f8f8","images":{"fallback":{"src":"/static/bdc8525039042bedd52c0cf7d15e8521/f679f/simon-agren.jpg","srcSet":"/static/bdc8525039042bedd52c0cf7d15e8521/f679f/simon-agren.jpg 150w,\n/static/bdc8525039042bedd52c0cf7d15e8521/78d3d/simon-agren.jpg 300w","sizes":"150px"},"sources":[{"srcSet":"/static/bdc8525039042bedd52c0cf7d15e8521/ae23d/simon-agren.webp 150w,\n/static/bdc8525039042bedd52c0cf7d15e8521/bd37b/simon-agren.webp 300w","type":"image/webp","sizes":"150px"}]},"width":150,"height":150}}},"thumbnail":{"__typename":"ImageSharp","ImageSharp_vertical":{"layout":"constrained","backgroundColor":"#181818","images":{"fallback":{"src":"/static/d405897dbdc3f1a34e986c8f134dbf66/144fe/image.jpg","srcSet":"/static/d405897dbdc3f1a34e986c8f134dbf66/9d7b9/image.jpg 190w,\n/static/d405897dbdc3f1a34e986c8f134dbf66/144fe/image.jpg 380w","sizes":"(min-width: 380px) 380px, 100vw"},"sources":[{"srcSet":"/static/d405897dbdc3f1a34e986c8f134dbf66/228d6/image.webp 190w,\n/static/d405897dbdc3f1a34e986c8f134dbf66/6b99c/image.webp 380w","type":"image/webp","sizes":"(min-width: 380px) 380px, 100vw"}]},"width":380,"height":290},"ImageSharp_hero":{"layout":"constrained","backgroundColor":"#181818","images":{"fallback":{"src":"/static/d405897dbdc3f1a34e986c8f134dbf66/5e493/image.jpg","srcSet":"/static/d405897dbdc3f1a34e986c8f134dbf66/696c0/image.jpg 800w,\n/static/d405897dbdc3f1a34e986c8f134dbf66/5e493/image.jpg 1600w","sizes":"(min-width: 1600px) 1600px, 100vw"},"sources":[{"srcSet":"/static/d405897dbdc3f1a34e986c8f134dbf66/c9f06/image.webp 800w,\n/static/d405897dbdc3f1a34e986c8f134dbf66/f47df/image.webp 1600w","type":"image/webp","sizes":"(min-width: 1600px) 1600px, 100vw"}]},"width":1600,"height":650}}},{"id":"49e2220d-3fd1-5575-b6c9-411f48106fbe","title":"PnP PowerShell - MFA account and Client Id","slug":"/pnp-powershell-mfa-account-and-client-id/","link":null,"excerpt":"The background of this post is that I got a question from a friend of mine. He was in a situation…","timeToRead":2,"featured":null,"thumbnailText":null,"date":"May 09, 2021","category":{"id":"b0babac0-675d-51af-aa7a-ce603b3a7af4","name":"Microsoft 365","slug":"/category/microsoft-365/","color":"#f25022","icon":"/static/363fdd53d34303b727d9dab161b8e88b/microsoft365.svg"},"author":{"id":"6f313320-531a-5f32-9a22-708cb7653896","name":"Simon Ågren","slug":"/author/simon-agren/","title":"CTA & Microsoft MVP","description":"Solving business problems with tech","skills":["Microsoft 365","Azure"],"social":[{"name":"Github","url":"https://github.com/simonagren"},{"name":"Twitter","url":"https://twitter.com/agrenpoint"},{"name":"Website","url":"https://agrenpoint.com"}],"thumbnail":{"__typename":"ImageSharp","ImageSharp_small":{"layout":"fixed","backgroundColor":"#f8f8f8","images":{"fallback":{"src":"/static/bdc8525039042bedd52c0cf7d15e8521/ac0cb/simon-agren.jpg","srcSet":"/static/bdc8525039042bedd52c0cf7d15e8521/ac0cb/simon-agren.jpg 48w,\n/static/bdc8525039042bedd52c0cf7d15e8521/73f48/simon-agren.jpg 96w","sizes":"48px"},"sources":[{"srcSet":"/static/bdc8525039042bedd52c0cf7d15e8521/a3542/simon-agren.webp 48w,\n/static/bdc8525039042bedd52c0cf7d15e8521/0f66d/simon-agren.webp 96w","type":"image/webp","sizes":"48px"}]},"width":48,"height":48},"ImageSharp_regular":{"layout":"fixed","backgroundColor":"#f8f8f8","images":{"fallback":{"src":"/static/bdc8525039042bedd52c0cf7d15e8521/f679f/simon-agren.jpg","srcSet":"/static/bdc8525039042bedd52c0cf7d15e8521/f679f/simon-agren.jpg 150w,\n/static/bdc8525039042bedd52c0cf7d15e8521/78d3d/simon-agren.jpg 300w","sizes":"150px"},"sources":[{"srcSet":"/static/bdc8525039042bedd52c0cf7d15e8521/ae23d/simon-agren.webp 150w,\n/static/bdc8525039042bedd52c0cf7d15e8521/bd37b/simon-agren.webp 300w","type":"image/webp","sizes":"150px"}]},"width":150,"height":150}}},"thumbnail":{"__typename":"ImageSharp","ImageSharp_vertical":{"layout":"constrained","backgroundColor":"#0878d8","images":{"fallback":{"src":"/static/2b3f18f10d74ac2dd7b40c9d152b1f9c/19188/pnppsmfa.png","srcSet":"/static/2b3f18f10d74ac2dd7b40c9d152b1f9c/db297/pnppsmfa.png 190w,\n/static/2b3f18f10d74ac2dd7b40c9d152b1f9c/19188/pnppsmfa.png 380w","sizes":"(min-width: 380px) 380px, 100vw"},"sources":[{"srcSet":"/static/2b3f18f10d74ac2dd7b40c9d152b1f9c/228d6/pnppsmfa.webp 190w,\n/static/2b3f18f10d74ac2dd7b40c9d152b1f9c/6b99c/pnppsmfa.webp 380w","type":"image/webp","sizes":"(min-width: 380px) 380px, 100vw"}]},"width":380,"height":290},"ImageSharp_hero":{"layout":"constrained","backgroundColor":"#0878d8","images":{"fallback":{"src":"/static/2b3f18f10d74ac2dd7b40c9d152b1f9c/945a8/pnppsmfa.png","srcSet":"/static/2b3f18f10d74ac2dd7b40c9d152b1f9c/17e9b/pnppsmfa.png 800w,\n/static/2b3f18f10d74ac2dd7b40c9d152b1f9c/945a8/pnppsmfa.png 1600w","sizes":"(min-width: 1600px) 1600px, 100vw"},"sources":[{"srcSet":"/static/2b3f18f10d74ac2dd7b40c9d152b1f9c/c9f06/pnppsmfa.webp 800w,\n/static/2b3f18f10d74ac2dd7b40c9d152b1f9c/f47df/pnppsmfa.webp 1600w","type":"image/webp","sizes":"(min-width: 1600px) 1600px, 100vw"}]},"width":1600,"height":650}}},{"id":"b6689366-45b3-5174-8830-400620fdce6a","title":"PnP PowerShell - Consent and Authentication","slug":"/pnp-powershell-consent-and-authentication/","link":null,"excerpt":"When it comes to authentication in PnP Powershell, the team have done great work providing a variety…","timeToRead":3,"featured":null,"thumbnailText":null,"date":"May 01, 2021","category":{"id":"b0babac0-675d-51af-aa7a-ce603b3a7af4","name":"Microsoft 365","slug":"/category/microsoft-365/","color":"#f25022","icon":"/static/363fdd53d34303b727d9dab161b8e88b/microsoft365.svg"},"author":{"id":"6f313320-531a-5f32-9a22-708cb7653896","name":"Simon Ågren","slug":"/author/simon-agren/","title":"CTA & Microsoft MVP","description":"Solving business problems with tech","skills":["Microsoft 365","Azure"],"social":[{"name":"Github","url":"https://github.com/simonagren"},{"name":"Twitter","url":"https://twitter.com/agrenpoint"},{"name":"Website","url":"https://agrenpoint.com"}],"thumbnail":{"__typename":"ImageSharp","ImageSharp_small":{"layout":"fixed","backgroundColor":"#f8f8f8","images":{"fallback":{"src":"/static/bdc8525039042bedd52c0cf7d15e8521/ac0cb/simon-agren.jpg","srcSet":"/static/bdc8525039042bedd52c0cf7d15e8521/ac0cb/simon-agren.jpg 48w,\n/static/bdc8525039042bedd52c0cf7d15e8521/73f48/simon-agren.jpg 96w","sizes":"48px"},"sources":[{"srcSet":"/static/bdc8525039042bedd52c0cf7d15e8521/a3542/simon-agren.webp 48w,\n/static/bdc8525039042bedd52c0cf7d15e8521/0f66d/simon-agren.webp 96w","type":"image/webp","sizes":"48px"}]},"width":48,"height":48},"ImageSharp_regular":{"layout":"fixed","backgroundColor":"#f8f8f8","images":{"fallback":{"src":"/static/bdc8525039042bedd52c0cf7d15e8521/f679f/simon-agren.jpg","srcSet":"/static/bdc8525039042bedd52c0cf7d15e8521/f679f/simon-agren.jpg 150w,\n/static/bdc8525039042bedd52c0cf7d15e8521/78d3d/simon-agren.jpg 300w","sizes":"150px"},"sources":[{"srcSet":"/static/bdc8525039042bedd52c0cf7d15e8521/ae23d/simon-agren.webp 150w,\n/static/bdc8525039042bedd52c0cf7d15e8521/bd37b/simon-agren.webp 300w","type":"image/webp","sizes":"150px"}]},"width":150,"height":150}}},"thumbnail":{"__typename":"ImageSharp","ImageSharp_vertical":{"layout":"constrained","backgroundColor":"#0878d8","images":{"fallback":{"src":"/static/dfdce5ddee3f9222cf6cde508b3917fa/19188/pnppsauth.png","srcSet":"/static/dfdce5ddee3f9222cf6cde508b3917fa/db297/pnppsauth.png 190w,\n/static/dfdce5ddee3f9222cf6cde508b3917fa/19188/pnppsauth.png 380w","sizes":"(min-width: 380px) 380px, 100vw"},"sources":[{"srcSet":"/static/dfdce5ddee3f9222cf6cde508b3917fa/228d6/pnppsauth.webp 190w,\n/static/dfdce5ddee3f9222cf6cde508b3917fa/6b99c/pnppsauth.webp 380w","type":"image/webp","sizes":"(min-width: 380px) 380px, 100vw"}]},"width":380,"height":290},"ImageSharp_hero":{"layout":"constrained","backgroundColor":"#0878d8","images":{"fallback":{"src":"/static/dfdce5ddee3f9222cf6cde508b3917fa/5fb32/pnppsauth.png","srcSet":"/static/dfdce5ddee3f9222cf6cde508b3917fa/739fd/pnppsauth.png 600w,\n/static/dfdce5ddee3f9222cf6cde508b3917fa/5fb32/pnppsauth.png 1200w","sizes":"(min-width: 1200px) 1200px, 100vw"},"sources":[{"srcSet":"/static/dfdce5ddee3f9222cf6cde508b3917fa/288e3/pnppsauth.webp 600w,\n/static/dfdce5ddee3f9222cf6cde508b3917fa/5b893/pnppsauth.webp 1200w","type":"image/webp","sizes":"(min-width: 1200px) 1200px, 100vw"}]},"width":1600,"height":650.6666666666666}}},{"id":"d68361d4-b0da-5903-a3f8-1a206a3e2e29","title":"Modern SharePoint site creation with site designs and REST","slug":"/sites-sitedesign-rest/","link":null,"excerpt":"In this post I will show you some REST operations to create modern SharePoint sites along with site…","timeToRead":3,"featured":null,"thumbnailText":null,"date":"February 25, 2019","category":{"id":"b0babac0-675d-51af-aa7a-ce603b3a7af4","name":"Microsoft 365","slug":"/category/microsoft-365/","color":"#f25022","icon":"/static/363fdd53d34303b727d9dab161b8e88b/microsoft365.svg"},"author":{"id":"6f313320-531a-5f32-9a22-708cb7653896","name":"Simon Ågren","slug":"/author/simon-agren/","title":"CTA & Microsoft MVP","description":"Solving business problems with tech","skills":["Microsoft 365","Azure"],"social":[{"name":"Github","url":"https://github.com/simonagren"},{"name":"Twitter","url":"https://twitter.com/agrenpoint"},{"name":"Website","url":"https://agrenpoint.com"}],"thumbnail":{"__typename":"ImageSharp","ImageSharp_small":{"layout":"fixed","backgroundColor":"#f8f8f8","images":{"fallback":{"src":"/static/bdc8525039042bedd52c0cf7d15e8521/ac0cb/simon-agren.jpg","srcSet":"/static/bdc8525039042bedd52c0cf7d15e8521/ac0cb/simon-agren.jpg 48w,\n/static/bdc8525039042bedd52c0cf7d15e8521/73f48/simon-agren.jpg 96w","sizes":"48px"},"sources":[{"srcSet":"/static/bdc8525039042bedd52c0cf7d15e8521/a3542/simon-agren.webp 48w,\n/static/bdc8525039042bedd52c0cf7d15e8521/0f66d/simon-agren.webp 96w","type":"image/webp","sizes":"48px"}]},"width":48,"height":48},"ImageSharp_regular":{"layout":"fixed","backgroundColor":"#f8f8f8","images":{"fallback":{"src":"/static/bdc8525039042bedd52c0cf7d15e8521/f679f/simon-agren.jpg","srcSet":"/static/bdc8525039042bedd52c0cf7d15e8521/f679f/simon-agren.jpg 150w,\n/static/bdc8525039042bedd52c0cf7d15e8521/78d3d/simon-agren.jpg 300w","sizes":"150px"},"sources":[{"srcSet":"/static/bdc8525039042bedd52c0cf7d15e8521/ae23d/simon-agren.webp 150w,\n/static/bdc8525039042bedd52c0cf7d15e8521/bd37b/simon-agren.webp 300w","type":"image/webp","sizes":"150px"}]},"width":150,"height":150}}},"thumbnail":{"__typename":"ImageSharp","ImageSharp_vertical":{"layout":"constrained","backgroundColor":"#f8f8f8","images":{"fallback":{"src":"/static/ff2b8fa9eecd9eb3cb337dceccaf0bb5/19188/sitescript.png","srcSet":"/static/ff2b8fa9eecd9eb3cb337dceccaf0bb5/db297/sitescript.png 190w,\n/static/ff2b8fa9eecd9eb3cb337dceccaf0bb5/19188/sitescript.png 380w","sizes":"(min-width: 380px) 380px, 100vw"},"sources":[{"srcSet":"/static/ff2b8fa9eecd9eb3cb337dceccaf0bb5/228d6/sitescript.webp 190w,\n/static/ff2b8fa9eecd9eb3cb337dceccaf0bb5/6b99c/sitescript.webp 380w","type":"image/webp","sizes":"(min-width: 380px) 380px, 100vw"}]},"width":380,"height":290},"ImageSharp_hero":{"layout":"constrained","backgroundColor":"#f8f8f8","images":{"fallback":{"src":"/static/ff2b8fa9eecd9eb3cb337dceccaf0bb5/5bdba/sitescript.png","srcSet":"/static/ff2b8fa9eecd9eb3cb337dceccaf0bb5/e6757/sitescript.png 499w,\n/static/ff2b8fa9eecd9eb3cb337dceccaf0bb5/5bdba/sitescript.png 998w","sizes":"(min-width: 998px) 998px, 100vw"},"sources":[{"srcSet":"/static/ff2b8fa9eecd9eb3cb337dceccaf0bb5/17534/sitescript.webp 499w,\n/static/ff2b8fa9eecd9eb3cb337dceccaf0bb5/54084/sitescript.webp 998w","type":"image/webp","sizes":"(min-width: 998px) 998px, 100vw"}]},"width":1600,"height":649.2985971943888}}}],"pageInfo":{"pageCount":9,"hasPreviousPage":true,"hasNextPage":true,"currentPage":8},"totalCount":52}},"pageContext":{"slug":"/category/microsoft-365/","limit":6,"skip":42,"collectionType":"category","paginatePostsPage":true,"basePath":"/","services":{"algolia":true,"mailchimp":false,"disqus":false,"graphComment":true,"facebookComment":false},"siteUrl":"https://www.agrenpoint.com","mobileMenu":{"title":"Topics","items":[{"name":"Azure","slug":"/category/azure/"},{"name":"Endpoint management","slug":"/category/endpoint-management/"},{"name":"Microsoft 365","slug":"/category/microsoft-365/"}]},"darkMode":true,"includeExcerpt":true,"includeTimeToRead":true,"includeTableOfContents":true,"imageQuality":75,"currentDate":"2026-03-02"}},"staticQueryHashes":["1992822086","2409295108","2925947909"]}