{"componentChunkName":"component---packages-blog-gatsby-blog-core-src-templates-collection-tag-js","path":"/tag/msgraph/","result":{"data":{"collectionInfo":{"id":"3854a95d-b2b2-52b0-a0d7-8e558721d1e6","name":"msgraph","slug":"/tag/msgraph/"},"posts":{"nodes":[{"id":"3775249d-bf27-553b-88e8-4f4354b2e1f5","title":"Custom Azure AD registration with Microsoft Graph PS","slug":"/custom-azure-ad-registration-with-microsoft-graph-ps/","link":null,"excerpt":"Introduction Similar to my post  PnP PowerShell - MFA account and Client Id  from a while back, I…","timeToRead":2,"featured":false,"thumbnailText":null,"date":"January 02, 2023","category":{"id":"b0babac0-675d-51af-aa7a-ce603b3a7af4","name":"Microsoft 365","slug":"/category/microsoft-365/","color":"#f25022","icon":"/static/363fdd53d34303b727d9dab161b8e88b/microsoft365.svg"},"author":{"id":"6f313320-531a-5f32-9a22-708cb7653896","name":"Simon Ågren","slug":"/author/simon-agren/","title":"CTA & Microsoft MVP","description":"Solving business problems with tech","skills":["Microsoft 365","Azure"],"social":[{"name":"Github","url":"https://github.com/simonagren"},{"name":"Twitter","url":"https://twitter.com/agrenpoint"},{"name":"Website","url":"https://agrenpoint.com"}],"thumbnail":{"__typename":"ImageSharp","ImageSharp_small":{"layout":"fixed","backgroundColor":"#f8f8f8","images":{"fallback":{"src":"/static/bdc8525039042bedd52c0cf7d15e8521/ac0cb/simon-agren.jpg","srcSet":"/static/bdc8525039042bedd52c0cf7d15e8521/ac0cb/simon-agren.jpg 48w,\n/static/bdc8525039042bedd52c0cf7d15e8521/73f48/simon-agren.jpg 96w","sizes":"48px"},"sources":[{"srcSet":"/static/bdc8525039042bedd52c0cf7d15e8521/a3542/simon-agren.webp 48w,\n/static/bdc8525039042bedd52c0cf7d15e8521/0f66d/simon-agren.webp 96w","type":"image/webp","sizes":"48px"}]},"width":48,"height":48},"ImageSharp_regular":{"layout":"fixed","backgroundColor":"#f8f8f8","images":{"fallback":{"src":"/static/bdc8525039042bedd52c0cf7d15e8521/f679f/simon-agren.jpg","srcSet":"/static/bdc8525039042bedd52c0cf7d15e8521/f679f/simon-agren.jpg 150w,\n/static/bdc8525039042bedd52c0cf7d15e8521/78d3d/simon-agren.jpg 300w","sizes":"150px"},"sources":[{"srcSet":"/static/bdc8525039042bedd52c0cf7d15e8521/ae23d/simon-agren.webp 150w,\n/static/bdc8525039042bedd52c0cf7d15e8521/bd37b/simon-agren.webp 300w","type":"image/webp","sizes":"150px"}]},"width":150,"height":150}}},"thumbnail":{"__typename":"ImageSharp","ImageSharp_vertical":{"layout":"constrained","backgroundColor":"#f8f8f8","images":{"fallback":{"src":"/static/277677938ffc6d236164bf3a4fef9f3c/6b99c/image.webp","srcSet":"/static/277677938ffc6d236164bf3a4fef9f3c/228d6/image.webp 190w,\n/static/277677938ffc6d236164bf3a4fef9f3c/6b99c/image.webp 380w","sizes":"(min-width: 380px) 380px, 100vw"},"sources":[]},"width":380,"height":290},"ImageSharp_hero":{"layout":"constrained","backgroundColor":"#f8f8f8","images":{"fallback":{"src":"/static/277677938ffc6d236164bf3a4fef9f3c/c9f06/image.webp","srcSet":"/static/277677938ffc6d236164bf3a4fef9f3c/6a2da/image.webp 400w,\n/static/277677938ffc6d236164bf3a4fef9f3c/c9f06/image.webp 800w","sizes":"(min-width: 800px) 800px, 100vw"},"sources":[]},"width":1600,"height":650}}},{"id":"49e2220d-3fd1-5575-b6c9-411f48106fbe","title":"PnP PowerShell - MFA account and Client Id","slug":"/pnp-powershell-mfa-account-and-client-id/","link":null,"excerpt":"The background of this post is that I got a question from a friend of mine. He was in a situation…","timeToRead":2,"featured":null,"thumbnailText":null,"date":"May 09, 2021","category":{"id":"b0babac0-675d-51af-aa7a-ce603b3a7af4","name":"Microsoft 365","slug":"/category/microsoft-365/","color":"#f25022","icon":"/static/363fdd53d34303b727d9dab161b8e88b/microsoft365.svg"},"author":{"id":"6f313320-531a-5f32-9a22-708cb7653896","name":"Simon Ågren","slug":"/author/simon-agren/","title":"CTA & Microsoft MVP","description":"Solving business problems with tech","skills":["Microsoft 365","Azure"],"social":[{"name":"Github","url":"https://github.com/simonagren"},{"name":"Twitter","url":"https://twitter.com/agrenpoint"},{"name":"Website","url":"https://agrenpoint.com"}],"thumbnail":{"__typename":"ImageSharp","ImageSharp_small":{"layout":"fixed","backgroundColor":"#f8f8f8","images":{"fallback":{"src":"/static/bdc8525039042bedd52c0cf7d15e8521/ac0cb/simon-agren.jpg","srcSet":"/static/bdc8525039042bedd52c0cf7d15e8521/ac0cb/simon-agren.jpg 48w,\n/static/bdc8525039042bedd52c0cf7d15e8521/73f48/simon-agren.jpg 96w","sizes":"48px"},"sources":[{"srcSet":"/static/bdc8525039042bedd52c0cf7d15e8521/a3542/simon-agren.webp 48w,\n/static/bdc8525039042bedd52c0cf7d15e8521/0f66d/simon-agren.webp 96w","type":"image/webp","sizes":"48px"}]},"width":48,"height":48},"ImageSharp_regular":{"layout":"fixed","backgroundColor":"#f8f8f8","images":{"fallback":{"src":"/static/bdc8525039042bedd52c0cf7d15e8521/f679f/simon-agren.jpg","srcSet":"/static/bdc8525039042bedd52c0cf7d15e8521/f679f/simon-agren.jpg 150w,\n/static/bdc8525039042bedd52c0cf7d15e8521/78d3d/simon-agren.jpg 300w","sizes":"150px"},"sources":[{"srcSet":"/static/bdc8525039042bedd52c0cf7d15e8521/ae23d/simon-agren.webp 150w,\n/static/bdc8525039042bedd52c0cf7d15e8521/bd37b/simon-agren.webp 300w","type":"image/webp","sizes":"150px"}]},"width":150,"height":150}}},"thumbnail":{"__typename":"ImageSharp","ImageSharp_vertical":{"layout":"constrained","backgroundColor":"#0878d8","images":{"fallback":{"src":"/static/2b3f18f10d74ac2dd7b40c9d152b1f9c/19188/pnppsmfa.png","srcSet":"/static/2b3f18f10d74ac2dd7b40c9d152b1f9c/db297/pnppsmfa.png 190w,\n/static/2b3f18f10d74ac2dd7b40c9d152b1f9c/19188/pnppsmfa.png 380w","sizes":"(min-width: 380px) 380px, 100vw"},"sources":[{"srcSet":"/static/2b3f18f10d74ac2dd7b40c9d152b1f9c/228d6/pnppsmfa.webp 190w,\n/static/2b3f18f10d74ac2dd7b40c9d152b1f9c/6b99c/pnppsmfa.webp 380w","type":"image/webp","sizes":"(min-width: 380px) 380px, 100vw"}]},"width":380,"height":290},"ImageSharp_hero":{"layout":"constrained","backgroundColor":"#0878d8","images":{"fallback":{"src":"/static/2b3f18f10d74ac2dd7b40c9d152b1f9c/945a8/pnppsmfa.png","srcSet":"/static/2b3f18f10d74ac2dd7b40c9d152b1f9c/17e9b/pnppsmfa.png 800w,\n/static/2b3f18f10d74ac2dd7b40c9d152b1f9c/945a8/pnppsmfa.png 1600w","sizes":"(min-width: 1600px) 1600px, 100vw"},"sources":[{"srcSet":"/static/2b3f18f10d74ac2dd7b40c9d152b1f9c/c9f06/pnppsmfa.webp 800w,\n/static/2b3f18f10d74ac2dd7b40c9d152b1f9c/f47df/pnppsmfa.webp 1600w","type":"image/webp","sizes":"(min-width: 1600px) 1600px, 100vw"}]},"width":1600,"height":650}}},{"id":"b6689366-45b3-5174-8830-400620fdce6a","title":"PnP PowerShell - Consent and Authentication","slug":"/pnp-powershell-consent-and-authentication/","link":null,"excerpt":"When it comes to authentication in PnP Powershell, the team have done great work providing a variety…","timeToRead":3,"featured":null,"thumbnailText":null,"date":"May 01, 2021","category":{"id":"b0babac0-675d-51af-aa7a-ce603b3a7af4","name":"Microsoft 365","slug":"/category/microsoft-365/","color":"#f25022","icon":"/static/363fdd53d34303b727d9dab161b8e88b/microsoft365.svg"},"author":{"id":"6f313320-531a-5f32-9a22-708cb7653896","name":"Simon Ågren","slug":"/author/simon-agren/","title":"CTA & Microsoft MVP","description":"Solving business problems with tech","skills":["Microsoft 365","Azure"],"social":[{"name":"Github","url":"https://github.com/simonagren"},{"name":"Twitter","url":"https://twitter.com/agrenpoint"},{"name":"Website","url":"https://agrenpoint.com"}],"thumbnail":{"__typename":"ImageSharp","ImageSharp_small":{"layout":"fixed","backgroundColor":"#f8f8f8","images":{"fallback":{"src":"/static/bdc8525039042bedd52c0cf7d15e8521/ac0cb/simon-agren.jpg","srcSet":"/static/bdc8525039042bedd52c0cf7d15e8521/ac0cb/simon-agren.jpg 48w,\n/static/bdc8525039042bedd52c0cf7d15e8521/73f48/simon-agren.jpg 96w","sizes":"48px"},"sources":[{"srcSet":"/static/bdc8525039042bedd52c0cf7d15e8521/a3542/simon-agren.webp 48w,\n/static/bdc8525039042bedd52c0cf7d15e8521/0f66d/simon-agren.webp 96w","type":"image/webp","sizes":"48px"}]},"width":48,"height":48},"ImageSharp_regular":{"layout":"fixed","backgroundColor":"#f8f8f8","images":{"fallback":{"src":"/static/bdc8525039042bedd52c0cf7d15e8521/f679f/simon-agren.jpg","srcSet":"/static/bdc8525039042bedd52c0cf7d15e8521/f679f/simon-agren.jpg 150w,\n/static/bdc8525039042bedd52c0cf7d15e8521/78d3d/simon-agren.jpg 300w","sizes":"150px"},"sources":[{"srcSet":"/static/bdc8525039042bedd52c0cf7d15e8521/ae23d/simon-agren.webp 150w,\n/static/bdc8525039042bedd52c0cf7d15e8521/bd37b/simon-agren.webp 300w","type":"image/webp","sizes":"150px"}]},"width":150,"height":150}}},"thumbnail":{"__typename":"ImageSharp","ImageSharp_vertical":{"layout":"constrained","backgroundColor":"#0878d8","images":{"fallback":{"src":"/static/dfdce5ddee3f9222cf6cde508b3917fa/19188/pnppsauth.png","srcSet":"/static/dfdce5ddee3f9222cf6cde508b3917fa/db297/pnppsauth.png 190w,\n/static/dfdce5ddee3f9222cf6cde508b3917fa/19188/pnppsauth.png 380w","sizes":"(min-width: 380px) 380px, 100vw"},"sources":[{"srcSet":"/static/dfdce5ddee3f9222cf6cde508b3917fa/228d6/pnppsauth.webp 190w,\n/static/dfdce5ddee3f9222cf6cde508b3917fa/6b99c/pnppsauth.webp 380w","type":"image/webp","sizes":"(min-width: 380px) 380px, 100vw"}]},"width":380,"height":290},"ImageSharp_hero":{"layout":"constrained","backgroundColor":"#0878d8","images":{"fallback":{"src":"/static/dfdce5ddee3f9222cf6cde508b3917fa/5fb32/pnppsauth.png","srcSet":"/static/dfdce5ddee3f9222cf6cde508b3917fa/739fd/pnppsauth.png 600w,\n/static/dfdce5ddee3f9222cf6cde508b3917fa/5fb32/pnppsauth.png 1200w","sizes":"(min-width: 1200px) 1200px, 100vw"},"sources":[{"srcSet":"/static/dfdce5ddee3f9222cf6cde508b3917fa/288e3/pnppsauth.webp 600w,\n/static/dfdce5ddee3f9222cf6cde508b3917fa/5b893/pnppsauth.webp 1200w","type":"image/webp","sizes":"(min-width: 1200px) 1200px, 100vw"}]},"width":1600,"height":650.6666666666666}}},{"id":"95bc278d-e498-54ab-9a09-4392f627a596","title":"Bot Framework in Node.js - Proactive messages and token validation","slug":"/azurebot-nodejs-part8/","link":null,"excerpt":"In the last post we got a little fancy using Adaptive cards in the Bot. We talked about workarounds…","timeToRead":3,"featured":null,"thumbnailText":null,"date":"April 10, 2021","category":{"id":"64f10eaf-091c-555c-a28e-13a12e934b04","name":"Azure","slug":"/category/azure/","color":"#007fff","icon":"/static/660faf3683bb1a8489baa9402bf62165/azure.svg"},"author":{"id":"6f313320-531a-5f32-9a22-708cb7653896","name":"Simon Ågren","slug":"/author/simon-agren/","title":"CTA & Microsoft MVP","description":"Solving business problems with tech","skills":["Microsoft 365","Azure"],"social":[{"name":"Github","url":"https://github.com/simonagren"},{"name":"Twitter","url":"https://twitter.com/agrenpoint"},{"name":"Website","url":"https://agrenpoint.com"}],"thumbnail":{"__typename":"ImageSharp","ImageSharp_small":{"layout":"fixed","backgroundColor":"#f8f8f8","images":{"fallback":{"src":"/static/bdc8525039042bedd52c0cf7d15e8521/ac0cb/simon-agren.jpg","srcSet":"/static/bdc8525039042bedd52c0cf7d15e8521/ac0cb/simon-agren.jpg 48w,\n/static/bdc8525039042bedd52c0cf7d15e8521/73f48/simon-agren.jpg 96w","sizes":"48px"},"sources":[{"srcSet":"/static/bdc8525039042bedd52c0cf7d15e8521/a3542/simon-agren.webp 48w,\n/static/bdc8525039042bedd52c0cf7d15e8521/0f66d/simon-agren.webp 96w","type":"image/webp","sizes":"48px"}]},"width":48,"height":48},"ImageSharp_regular":{"layout":"fixed","backgroundColor":"#f8f8f8","images":{"fallback":{"src":"/static/bdc8525039042bedd52c0cf7d15e8521/f679f/simon-agren.jpg","srcSet":"/static/bdc8525039042bedd52c0cf7d15e8521/f679f/simon-agren.jpg 150w,\n/static/bdc8525039042bedd52c0cf7d15e8521/78d3d/simon-agren.jpg 300w","sizes":"150px"},"sources":[{"srcSet":"/static/bdc8525039042bedd52c0cf7d15e8521/ae23d/simon-agren.webp 150w,\n/static/bdc8525039042bedd52c0cf7d15e8521/bd37b/simon-agren.webp 300w","type":"image/webp","sizes":"150px"}]},"width":150,"height":150}}},"thumbnail":{"__typename":"ImageSharp","ImageSharp_vertical":{"layout":"constrained","backgroundColor":"#3898d8","images":{"fallback":{"src":"/static/0011cc7c64bf6a7a48e29df018eb1adf/19188/botframework8.png","srcSet":"/static/0011cc7c64bf6a7a48e29df018eb1adf/db297/botframework8.png 190w,\n/static/0011cc7c64bf6a7a48e29df018eb1adf/19188/botframework8.png 380w","sizes":"(min-width: 380px) 380px, 100vw"},"sources":[{"srcSet":"/static/0011cc7c64bf6a7a48e29df018eb1adf/228d6/botframework8.webp 190w,\n/static/0011cc7c64bf6a7a48e29df018eb1adf/6b99c/botframework8.webp 380w","type":"image/webp","sizes":"(min-width: 380px) 380px, 100vw"}]},"width":380,"height":290},"ImageSharp_hero":{"layout":"constrained","backgroundColor":"#3898d8","images":{"fallback":{"src":"/static/0011cc7c64bf6a7a48e29df018eb1adf/5fb32/botframework8.png","srcSet":"/static/0011cc7c64bf6a7a48e29df018eb1adf/739fd/botframework8.png 600w,\n/static/0011cc7c64bf6a7a48e29df018eb1adf/5fb32/botframework8.png 1200w","sizes":"(min-width: 1200px) 1200px, 100vw"},"sources":[{"srcSet":"/static/0011cc7c64bf6a7a48e29df018eb1adf/288e3/botframework8.webp 600w,\n/static/0011cc7c64bf6a7a48e29df018eb1adf/5b893/botframework8.webp 1200w","type":"image/webp","sizes":"(min-width: 1200px) 1200px, 100vw"}]},"width":1600,"height":650.6666666666666}}},{"id":"47fa3c51-0e3f-5954-bc51-298d260844de","title":"Bot Framework in Node.js - Adaptive Cards (part 7)","slug":"/azurebot-nodejs-part7/","link":null,"excerpt":"In the previous post, we added some helpers and enabled the user to call Microsoft Graph. We used…","timeToRead":3,"featured":null,"thumbnailText":null,"date":"April 08, 2021","category":{"id":"64f10eaf-091c-555c-a28e-13a12e934b04","name":"Azure","slug":"/category/azure/","color":"#007fff","icon":"/static/660faf3683bb1a8489baa9402bf62165/azure.svg"},"author":{"id":"6f313320-531a-5f32-9a22-708cb7653896","name":"Simon Ågren","slug":"/author/simon-agren/","title":"CTA & Microsoft MVP","description":"Solving business problems with tech","skills":["Microsoft 365","Azure"],"social":[{"name":"Github","url":"https://github.com/simonagren"},{"name":"Twitter","url":"https://twitter.com/agrenpoint"},{"name":"Website","url":"https://agrenpoint.com"}],"thumbnail":{"__typename":"ImageSharp","ImageSharp_small":{"layout":"fixed","backgroundColor":"#f8f8f8","images":{"fallback":{"src":"/static/bdc8525039042bedd52c0cf7d15e8521/ac0cb/simon-agren.jpg","srcSet":"/static/bdc8525039042bedd52c0cf7d15e8521/ac0cb/simon-agren.jpg 48w,\n/static/bdc8525039042bedd52c0cf7d15e8521/73f48/simon-agren.jpg 96w","sizes":"48px"},"sources":[{"srcSet":"/static/bdc8525039042bedd52c0cf7d15e8521/a3542/simon-agren.webp 48w,\n/static/bdc8525039042bedd52c0cf7d15e8521/0f66d/simon-agren.webp 96w","type":"image/webp","sizes":"48px"}]},"width":48,"height":48},"ImageSharp_regular":{"layout":"fixed","backgroundColor":"#f8f8f8","images":{"fallback":{"src":"/static/bdc8525039042bedd52c0cf7d15e8521/f679f/simon-agren.jpg","srcSet":"/static/bdc8525039042bedd52c0cf7d15e8521/f679f/simon-agren.jpg 150w,\n/static/bdc8525039042bedd52c0cf7d15e8521/78d3d/simon-agren.jpg 300w","sizes":"150px"},"sources":[{"srcSet":"/static/bdc8525039042bedd52c0cf7d15e8521/ae23d/simon-agren.webp 150w,\n/static/bdc8525039042bedd52c0cf7d15e8521/bd37b/simon-agren.webp 300w","type":"image/webp","sizes":"150px"}]},"width":150,"height":150}}},"thumbnail":{"__typename":"ImageSharp","ImageSharp_vertical":{"layout":"constrained","backgroundColor":"#3898d8","images":{"fallback":{"src":"/static/b8577e12e0c806356bde4bd7135e8bcf/19188/botframework7.png","srcSet":"/static/b8577e12e0c806356bde4bd7135e8bcf/db297/botframework7.png 190w,\n/static/b8577e12e0c806356bde4bd7135e8bcf/19188/botframework7.png 380w","sizes":"(min-width: 380px) 380px, 100vw"},"sources":[{"srcSet":"/static/b8577e12e0c806356bde4bd7135e8bcf/228d6/botframework7.webp 190w,\n/static/b8577e12e0c806356bde4bd7135e8bcf/6b99c/botframework7.webp 380w","type":"image/webp","sizes":"(min-width: 380px) 380px, 100vw"}]},"width":380,"height":290},"ImageSharp_hero":{"layout":"constrained","backgroundColor":"#3898d8","images":{"fallback":{"src":"/static/b8577e12e0c806356bde4bd7135e8bcf/5fb32/botframework7.png","srcSet":"/static/b8577e12e0c806356bde4bd7135e8bcf/739fd/botframework7.png 600w,\n/static/b8577e12e0c806356bde4bd7135e8bcf/5fb32/botframework7.png 1200w","sizes":"(min-width: 1200px) 1200px, 100vw"},"sources":[{"srcSet":"/static/b8577e12e0c806356bde4bd7135e8bcf/288e3/botframework7.webp 600w,\n/static/b8577e12e0c806356bde4bd7135e8bcf/5b893/botframework7.webp 1200w","type":"image/webp","sizes":"(min-width: 1200px) 1200px, 100vw"}]},"width":1600,"height":650.6666666666666}}},{"id":"f22060a9-6d2c-5f4c-afb8-98a59bdcc540","title":"Microsoft Graph Presence API - top of mind scenarios","slug":"/graph-presence/","link":null,"excerpt":"The new presence API in Microsoft Graph is very popular. We've seen a lot of blog post where people…","timeToRead":3,"featured":null,"thumbnailText":null,"date":"April 06, 2020","category":{"id":"64f10eaf-091c-555c-a28e-13a12e934b04","name":"Azure","slug":"/category/azure/","color":"#007fff","icon":"/static/660faf3683bb1a8489baa9402bf62165/azure.svg"},"author":{"id":"6f313320-531a-5f32-9a22-708cb7653896","name":"Simon Ågren","slug":"/author/simon-agren/","title":"CTA & Microsoft MVP","description":"Solving business problems with tech","skills":["Microsoft 365","Azure"],"social":[{"name":"Github","url":"https://github.com/simonagren"},{"name":"Twitter","url":"https://twitter.com/agrenpoint"},{"name":"Website","url":"https://agrenpoint.com"}],"thumbnail":{"__typename":"ImageSharp","ImageSharp_small":{"layout":"fixed","backgroundColor":"#f8f8f8","images":{"fallback":{"src":"/static/bdc8525039042bedd52c0cf7d15e8521/ac0cb/simon-agren.jpg","srcSet":"/static/bdc8525039042bedd52c0cf7d15e8521/ac0cb/simon-agren.jpg 48w,\n/static/bdc8525039042bedd52c0cf7d15e8521/73f48/simon-agren.jpg 96w","sizes":"48px"},"sources":[{"srcSet":"/static/bdc8525039042bedd52c0cf7d15e8521/a3542/simon-agren.webp 48w,\n/static/bdc8525039042bedd52c0cf7d15e8521/0f66d/simon-agren.webp 96w","type":"image/webp","sizes":"48px"}]},"width":48,"height":48},"ImageSharp_regular":{"layout":"fixed","backgroundColor":"#f8f8f8","images":{"fallback":{"src":"/static/bdc8525039042bedd52c0cf7d15e8521/f679f/simon-agren.jpg","srcSet":"/static/bdc8525039042bedd52c0cf7d15e8521/f679f/simon-agren.jpg 150w,\n/static/bdc8525039042bedd52c0cf7d15e8521/78d3d/simon-agren.jpg 300w","sizes":"150px"},"sources":[{"srcSet":"/static/bdc8525039042bedd52c0cf7d15e8521/ae23d/simon-agren.webp 150w,\n/static/bdc8525039042bedd52c0cf7d15e8521/bd37b/simon-agren.webp 300w","type":"image/webp","sizes":"150px"}]},"width":150,"height":150}}},"thumbnail":{"__typename":"ImageSharp","ImageSharp_vertical":{"layout":"constrained","backgroundColor":"#f8f8f8","images":{"fallback":{"src":"/static/9349ac165f3b22a5d70d0a19c66bd235/19188/presence.png","srcSet":"/static/9349ac165f3b22a5d70d0a19c66bd235/db297/presence.png 190w,\n/static/9349ac165f3b22a5d70d0a19c66bd235/19188/presence.png 380w","sizes":"(min-width: 380px) 380px, 100vw"},"sources":[{"srcSet":"/static/9349ac165f3b22a5d70d0a19c66bd235/228d6/presence.webp 190w,\n/static/9349ac165f3b22a5d70d0a19c66bd235/6b99c/presence.webp 380w","type":"image/webp","sizes":"(min-width: 380px) 380px, 100vw"}]},"width":380,"height":290},"ImageSharp_hero":{"layout":"constrained","backgroundColor":"#f8f8f8","images":{"fallback":{"src":"/static/9349ac165f3b22a5d70d0a19c66bd235/945a8/presence.png","srcSet":"/static/9349ac165f3b22a5d70d0a19c66bd235/17e9b/presence.png 800w,\n/static/9349ac165f3b22a5d70d0a19c66bd235/945a8/presence.png 1600w","sizes":"(min-width: 1600px) 1600px, 100vw"},"sources":[{"srcSet":"/static/9349ac165f3b22a5d70d0a19c66bd235/c9f06/presence.webp 800w,\n/static/9349ac165f3b22a5d70d0a19c66bd235/f47df/presence.webp 1600w","type":"image/webp","sizes":"(min-width: 1600px) 1600px, 100vw"}]},"width":1600,"height":650}}}],"pageInfo":{"pageCount":2,"hasPreviousPage":false,"hasNextPage":true,"currentPage":1},"totalCount":10}},"pageContext":{"slug":"/tag/msgraph/","limit":6,"skip":0,"collectionType":"tags","paginatePostsPage":true,"basePath":"/","services":{"algolia":true,"mailchimp":false,"disqus":false,"graphComment":true,"facebookComment":false},"siteUrl":"https://www.agrenpoint.com","mobileMenu":{"title":"Topics","items":[{"name":"Azure","slug":"/category/azure/"},{"name":"Endpoint management","slug":"/category/endpoint-management/"},{"name":"Microsoft 365","slug":"/category/microsoft-365/"}]},"darkMode":true,"includeExcerpt":true,"includeTimeToRead":true,"includeTableOfContents":true,"imageQuality":75,"currentDate":"2026-03-02"}},"staticQueryHashes":["1992822086","2409295108","2925947909"]}