{"componentChunkName":"component---packages-blog-gatsby-blog-core-src-templates-collection-tag-js","path":"/tag/powershell/","result":{"data":{"collectionInfo":{"id":"321da9ae-ab2b-531e-8eef-7345d17e4396","name":"powershell","slug":"/tag/powershell/"},"posts":{"nodes":[{"id":"672427e3-49de-5c3e-a01f-d7b6d6d6d30a","title":"Creating Multilingual DLP Policies with PowerShell","slug":"/creating-multilingual-dlp-policies-with-powershell/","link":null,"excerpt":"Introduction In today's global business environment, it's essential to ensure that Data Loss…","timeToRead":1,"featured":true,"thumbnailText":null,"date":"October 15, 2024","category":{"id":"b0babac0-675d-51af-aa7a-ce603b3a7af4","name":"Microsoft 365","slug":"/category/microsoft-365/","color":"#f25022","icon":"/static/363fdd53d34303b727d9dab161b8e88b/microsoft365.svg"},"author":{"id":"6f313320-531a-5f32-9a22-708cb7653896","name":"Simon Ågren","slug":"/author/simon-agren/","title":"CTA & Microsoft MVP","description":"Solving business problems with tech","skills":["Microsoft 365","Azure"],"social":[{"name":"Github","url":"https://github.com/simonagren"},{"name":"Twitter","url":"https://twitter.com/agrenpoint"},{"name":"Website","url":"https://agrenpoint.com"}],"thumbnail":{"__typename":"ImageSharp","ImageSharp_small":{"layout":"fixed","backgroundColor":"#f8f8f8","images":{"fallback":{"src":"/static/bdc8525039042bedd52c0cf7d15e8521/ac0cb/simon-agren.jpg","srcSet":"/static/bdc8525039042bedd52c0cf7d15e8521/ac0cb/simon-agren.jpg 48w,\n/static/bdc8525039042bedd52c0cf7d15e8521/73f48/simon-agren.jpg 96w","sizes":"48px"},"sources":[{"srcSet":"/static/bdc8525039042bedd52c0cf7d15e8521/a3542/simon-agren.webp 48w,\n/static/bdc8525039042bedd52c0cf7d15e8521/0f66d/simon-agren.webp 96w","type":"image/webp","sizes":"48px"}]},"width":48,"height":48},"ImageSharp_regular":{"layout":"fixed","backgroundColor":"#f8f8f8","images":{"fallback":{"src":"/static/bdc8525039042bedd52c0cf7d15e8521/f679f/simon-agren.jpg","srcSet":"/static/bdc8525039042bedd52c0cf7d15e8521/f679f/simon-agren.jpg 150w,\n/static/bdc8525039042bedd52c0cf7d15e8521/78d3d/simon-agren.jpg 300w","sizes":"150px"},"sources":[{"srcSet":"/static/bdc8525039042bedd52c0cf7d15e8521/ae23d/simon-agren.webp 150w,\n/static/bdc8525039042bedd52c0cf7d15e8521/bd37b/simon-agren.webp 300w","type":"image/webp","sizes":"150px"}]},"width":150,"height":150}}},"thumbnail":{"__typename":"ImageSharp","ImageSharp_vertical":{"layout":"constrained","backgroundColor":"#183858","images":{"fallback":{"src":"/static/57ed1e619d73b07fdfea629c63605fa6/144fe/image.jpg","srcSet":"/static/57ed1e619d73b07fdfea629c63605fa6/9d7b9/image.jpg 190w,\n/static/57ed1e619d73b07fdfea629c63605fa6/144fe/image.jpg 380w","sizes":"(min-width: 380px) 380px, 100vw"},"sources":[{"srcSet":"/static/57ed1e619d73b07fdfea629c63605fa6/228d6/image.webp 190w,\n/static/57ed1e619d73b07fdfea629c63605fa6/6b99c/image.webp 380w","type":"image/webp","sizes":"(min-width: 380px) 380px, 100vw"}]},"width":380,"height":290},"ImageSharp_hero":{"layout":"constrained","backgroundColor":"#183858","images":{"fallback":{"src":"/static/57ed1e619d73b07fdfea629c63605fa6/7a1ff/image.jpg","srcSet":"/static/57ed1e619d73b07fdfea629c63605fa6/a6b27/image.jpg 512w,\n/static/57ed1e619d73b07fdfea629c63605fa6/7a1ff/image.jpg 1024w","sizes":"(min-width: 1024px) 1024px, 100vw"},"sources":[{"srcSet":"/static/57ed1e619d73b07fdfea629c63605fa6/99476/image.webp 512w,\n/static/57ed1e619d73b07fdfea629c63605fa6/251f6/image.webp 1024w","type":"image/webp","sizes":"(min-width: 1024px) 1024px, 100vw"}]},"width":1600,"height":650}}},{"id":"849fcbd7-04ce-51e9-a302-a72ed49a8d34","title":"Creating Advanced DLP Policies with PowerShell","slug":"/creating-advanced-dlp-policies-with-powershell/","link":null,"excerpt":"Introduction In today's digital landscape, protecting sensitive information is crucial for…","timeToRead":2,"featured":true,"thumbnailText":null,"date":"September 21, 2024","category":{"id":"b0babac0-675d-51af-aa7a-ce603b3a7af4","name":"Microsoft 365","slug":"/category/microsoft-365/","color":"#f25022","icon":"/static/363fdd53d34303b727d9dab161b8e88b/microsoft365.svg"},"author":{"id":"6f313320-531a-5f32-9a22-708cb7653896","name":"Simon Ågren","slug":"/author/simon-agren/","title":"CTA & Microsoft MVP","description":"Solving business problems with tech","skills":["Microsoft 365","Azure"],"social":[{"name":"Github","url":"https://github.com/simonagren"},{"name":"Twitter","url":"https://twitter.com/agrenpoint"},{"name":"Website","url":"https://agrenpoint.com"}],"thumbnail":{"__typename":"ImageSharp","ImageSharp_small":{"layout":"fixed","backgroundColor":"#f8f8f8","images":{"fallback":{"src":"/static/bdc8525039042bedd52c0cf7d15e8521/ac0cb/simon-agren.jpg","srcSet":"/static/bdc8525039042bedd52c0cf7d15e8521/ac0cb/simon-agren.jpg 48w,\n/static/bdc8525039042bedd52c0cf7d15e8521/73f48/simon-agren.jpg 96w","sizes":"48px"},"sources":[{"srcSet":"/static/bdc8525039042bedd52c0cf7d15e8521/a3542/simon-agren.webp 48w,\n/static/bdc8525039042bedd52c0cf7d15e8521/0f66d/simon-agren.webp 96w","type":"image/webp","sizes":"48px"}]},"width":48,"height":48},"ImageSharp_regular":{"layout":"fixed","backgroundColor":"#f8f8f8","images":{"fallback":{"src":"/static/bdc8525039042bedd52c0cf7d15e8521/f679f/simon-agren.jpg","srcSet":"/static/bdc8525039042bedd52c0cf7d15e8521/f679f/simon-agren.jpg 150w,\n/static/bdc8525039042bedd52c0cf7d15e8521/78d3d/simon-agren.jpg 300w","sizes":"150px"},"sources":[{"srcSet":"/static/bdc8525039042bedd52c0cf7d15e8521/ae23d/simon-agren.webp 150w,\n/static/bdc8525039042bedd52c0cf7d15e8521/bd37b/simon-agren.webp 300w","type":"image/webp","sizes":"150px"}]},"width":150,"height":150}}},"thumbnail":{"__typename":"ImageSharp","ImageSharp_vertical":{"layout":"constrained","backgroundColor":"#081838","images":{"fallback":{"src":"/static/d15073a01a992815835f672494d7dc2c/144fe/image.jpg","srcSet":"/static/d15073a01a992815835f672494d7dc2c/9d7b9/image.jpg 190w,\n/static/d15073a01a992815835f672494d7dc2c/144fe/image.jpg 380w","sizes":"(min-width: 380px) 380px, 100vw"},"sources":[{"srcSet":"/static/d15073a01a992815835f672494d7dc2c/228d6/image.webp 190w,\n/static/d15073a01a992815835f672494d7dc2c/6b99c/image.webp 380w","type":"image/webp","sizes":"(min-width: 380px) 380px, 100vw"}]},"width":380,"height":290},"ImageSharp_hero":{"layout":"constrained","backgroundColor":"#081838","images":{"fallback":{"src":"/static/d15073a01a992815835f672494d7dc2c/7a1ff/image.jpg","srcSet":"/static/d15073a01a992815835f672494d7dc2c/a6b27/image.jpg 512w,\n/static/d15073a01a992815835f672494d7dc2c/7a1ff/image.jpg 1024w","sizes":"(min-width: 1024px) 1024px, 100vw"},"sources":[{"srcSet":"/static/d15073a01a992815835f672494d7dc2c/99476/image.webp 512w,\n/static/d15073a01a992815835f672494d7dc2c/251f6/image.webp 1024w","type":"image/webp","sizes":"(min-width: 1024px) 1024px, 100vw"}]},"width":1600,"height":650}}},{"id":"1e1dbec1-3a1a-56b6-9147-676db3d4d146","title":"Creating Basic DLP Policies with PowerShell","slug":"/creating-basic-dlp-policies-with-powershell/","link":null,"excerpt":"Introduction In today's digital landscape, protecting sensitive information is crucial for…","timeToRead":1,"featured":true,"thumbnailText":null,"date":"September 14, 2024","category":{"id":"b0babac0-675d-51af-aa7a-ce603b3a7af4","name":"Microsoft 365","slug":"/category/microsoft-365/","color":"#f25022","icon":"/static/363fdd53d34303b727d9dab161b8e88b/microsoft365.svg"},"author":{"id":"6f313320-531a-5f32-9a22-708cb7653896","name":"Simon Ågren","slug":"/author/simon-agren/","title":"CTA & Microsoft MVP","description":"Solving business problems with tech","skills":["Microsoft 365","Azure"],"social":[{"name":"Github","url":"https://github.com/simonagren"},{"name":"Twitter","url":"https://twitter.com/agrenpoint"},{"name":"Website","url":"https://agrenpoint.com"}],"thumbnail":{"__typename":"ImageSharp","ImageSharp_small":{"layout":"fixed","backgroundColor":"#f8f8f8","images":{"fallback":{"src":"/static/bdc8525039042bedd52c0cf7d15e8521/ac0cb/simon-agren.jpg","srcSet":"/static/bdc8525039042bedd52c0cf7d15e8521/ac0cb/simon-agren.jpg 48w,\n/static/bdc8525039042bedd52c0cf7d15e8521/73f48/simon-agren.jpg 96w","sizes":"48px"},"sources":[{"srcSet":"/static/bdc8525039042bedd52c0cf7d15e8521/a3542/simon-agren.webp 48w,\n/static/bdc8525039042bedd52c0cf7d15e8521/0f66d/simon-agren.webp 96w","type":"image/webp","sizes":"48px"}]},"width":48,"height":48},"ImageSharp_regular":{"layout":"fixed","backgroundColor":"#f8f8f8","images":{"fallback":{"src":"/static/bdc8525039042bedd52c0cf7d15e8521/f679f/simon-agren.jpg","srcSet":"/static/bdc8525039042bedd52c0cf7d15e8521/f679f/simon-agren.jpg 150w,\n/static/bdc8525039042bedd52c0cf7d15e8521/78d3d/simon-agren.jpg 300w","sizes":"150px"},"sources":[{"srcSet":"/static/bdc8525039042bedd52c0cf7d15e8521/ae23d/simon-agren.webp 150w,\n/static/bdc8525039042bedd52c0cf7d15e8521/bd37b/simon-agren.webp 300w","type":"image/webp","sizes":"150px"}]},"width":150,"height":150}}},"thumbnail":{"__typename":"ImageSharp","ImageSharp_vertical":{"layout":"constrained","backgroundColor":"#281838","images":{"fallback":{"src":"/static/d22557695850a0a2276e4967d99c214d/144fe/image.jpg","srcSet":"/static/d22557695850a0a2276e4967d99c214d/9d7b9/image.jpg 190w,\n/static/d22557695850a0a2276e4967d99c214d/144fe/image.jpg 380w","sizes":"(min-width: 380px) 380px, 100vw"},"sources":[{"srcSet":"/static/d22557695850a0a2276e4967d99c214d/228d6/image.webp 190w,\n/static/d22557695850a0a2276e4967d99c214d/6b99c/image.webp 380w","type":"image/webp","sizes":"(min-width: 380px) 380px, 100vw"}]},"width":380,"height":290},"ImageSharp_hero":{"layout":"constrained","backgroundColor":"#281838","images":{"fallback":{"src":"/static/d22557695850a0a2276e4967d99c214d/7a1ff/image.jpg","srcSet":"/static/d22557695850a0a2276e4967d99c214d/a6b27/image.jpg 512w,\n/static/d22557695850a0a2276e4967d99c214d/7a1ff/image.jpg 1024w","sizes":"(min-width: 1024px) 1024px, 100vw"},"sources":[{"srcSet":"/static/d22557695850a0a2276e4967d99c214d/99476/image.webp 512w,\n/static/d22557695850a0a2276e4967d99c214d/251f6/image.webp 1024w","type":"image/webp","sizes":"(min-width: 1024px) 1024px, 100vw"}]},"width":1600,"height":650}}},{"id":"56429553-1a79-5f8f-8c8c-b5ce9755ed23","title":"Unveiling the Truth - Custom Sensitivity Label Colors","slug":"/unveiling-the-truth-custom-sensitivity-label-colors/","link":null,"excerpt":"In the previous post  Using Label Colors in Sensitivity Labels , we explored the significance of…","timeToRead":2,"featured":true,"thumbnailText":null,"date":"March 01, 2024","category":{"id":"b0babac0-675d-51af-aa7a-ce603b3a7af4","name":"Microsoft 365","slug":"/category/microsoft-365/","color":"#f25022","icon":"/static/363fdd53d34303b727d9dab161b8e88b/microsoft365.svg"},"author":{"id":"6f313320-531a-5f32-9a22-708cb7653896","name":"Simon Ågren","slug":"/author/simon-agren/","title":"CTA & Microsoft MVP","description":"Solving business problems with tech","skills":["Microsoft 365","Azure"],"social":[{"name":"Github","url":"https://github.com/simonagren"},{"name":"Twitter","url":"https://twitter.com/agrenpoint"},{"name":"Website","url":"https://agrenpoint.com"}],"thumbnail":{"__typename":"ImageSharp","ImageSharp_small":{"layout":"fixed","backgroundColor":"#f8f8f8","images":{"fallback":{"src":"/static/bdc8525039042bedd52c0cf7d15e8521/ac0cb/simon-agren.jpg","srcSet":"/static/bdc8525039042bedd52c0cf7d15e8521/ac0cb/simon-agren.jpg 48w,\n/static/bdc8525039042bedd52c0cf7d15e8521/73f48/simon-agren.jpg 96w","sizes":"48px"},"sources":[{"srcSet":"/static/bdc8525039042bedd52c0cf7d15e8521/a3542/simon-agren.webp 48w,\n/static/bdc8525039042bedd52c0cf7d15e8521/0f66d/simon-agren.webp 96w","type":"image/webp","sizes":"48px"}]},"width":48,"height":48},"ImageSharp_regular":{"layout":"fixed","backgroundColor":"#f8f8f8","images":{"fallback":{"src":"/static/bdc8525039042bedd52c0cf7d15e8521/f679f/simon-agren.jpg","srcSet":"/static/bdc8525039042bedd52c0cf7d15e8521/f679f/simon-agren.jpg 150w,\n/static/bdc8525039042bedd52c0cf7d15e8521/78d3d/simon-agren.jpg 300w","sizes":"150px"},"sources":[{"srcSet":"/static/bdc8525039042bedd52c0cf7d15e8521/ae23d/simon-agren.webp 150w,\n/static/bdc8525039042bedd52c0cf7d15e8521/bd37b/simon-agren.webp 300w","type":"image/webp","sizes":"150px"}]},"width":150,"height":150}}},"thumbnail":{"__typename":"ImageSharp","ImageSharp_vertical":{"layout":"constrained","backgroundColor":"#480808","images":{"fallback":{"src":"/static/992d87900c539c8da1ca8a4703fff786/144fe/image.jpg","srcSet":"/static/992d87900c539c8da1ca8a4703fff786/9d7b9/image.jpg 190w,\n/static/992d87900c539c8da1ca8a4703fff786/144fe/image.jpg 380w","sizes":"(min-width: 380px) 380px, 100vw"},"sources":[{"srcSet":"/static/992d87900c539c8da1ca8a4703fff786/228d6/image.webp 190w,\n/static/992d87900c539c8da1ca8a4703fff786/6b99c/image.webp 380w","type":"image/webp","sizes":"(min-width: 380px) 380px, 100vw"}]},"width":380,"height":290},"ImageSharp_hero":{"layout":"constrained","backgroundColor":"#480808","images":{"fallback":{"src":"/static/992d87900c539c8da1ca8a4703fff786/7a1ff/image.jpg","srcSet":"/static/992d87900c539c8da1ca8a4703fff786/a6b27/image.jpg 512w,\n/static/992d87900c539c8da1ca8a4703fff786/7a1ff/image.jpg 1024w","sizes":"(min-width: 1024px) 1024px, 100vw"},"sources":[{"srcSet":"/static/992d87900c539c8da1ca8a4703fff786/99476/image.webp 512w,\n/static/992d87900c539c8da1ca8a4703fff786/251f6/image.webp 1024w","type":"image/webp","sizes":"(min-width: 1024px) 1024px, 100vw"}]},"width":1600,"height":650}}},{"id":"ec0b5efa-7dc7-5854-bfb1-fa1619fbd587","title":"Container Labels in PowerShell","slug":"/container-labels-in-powershell/","link":null,"excerpt":"In our interconnected digital world, data moves effortlessly across platforms, applications, and…","timeToRead":2,"featured":true,"thumbnailText":null,"date":"November 15, 2023","category":{"id":"b0babac0-675d-51af-aa7a-ce603b3a7af4","name":"Microsoft 365","slug":"/category/microsoft-365/","color":"#f25022","icon":"/static/363fdd53d34303b727d9dab161b8e88b/microsoft365.svg"},"author":{"id":"6f313320-531a-5f32-9a22-708cb7653896","name":"Simon Ågren","slug":"/author/simon-agren/","title":"CTA & Microsoft MVP","description":"Solving business problems with tech","skills":["Microsoft 365","Azure"],"social":[{"name":"Github","url":"https://github.com/simonagren"},{"name":"Twitter","url":"https://twitter.com/agrenpoint"},{"name":"Website","url":"https://agrenpoint.com"}],"thumbnail":{"__typename":"ImageSharp","ImageSharp_small":{"layout":"fixed","backgroundColor":"#f8f8f8","images":{"fallback":{"src":"/static/bdc8525039042bedd52c0cf7d15e8521/ac0cb/simon-agren.jpg","srcSet":"/static/bdc8525039042bedd52c0cf7d15e8521/ac0cb/simon-agren.jpg 48w,\n/static/bdc8525039042bedd52c0cf7d15e8521/73f48/simon-agren.jpg 96w","sizes":"48px"},"sources":[{"srcSet":"/static/bdc8525039042bedd52c0cf7d15e8521/a3542/simon-agren.webp 48w,\n/static/bdc8525039042bedd52c0cf7d15e8521/0f66d/simon-agren.webp 96w","type":"image/webp","sizes":"48px"}]},"width":48,"height":48},"ImageSharp_regular":{"layout":"fixed","backgroundColor":"#f8f8f8","images":{"fallback":{"src":"/static/bdc8525039042bedd52c0cf7d15e8521/f679f/simon-agren.jpg","srcSet":"/static/bdc8525039042bedd52c0cf7d15e8521/f679f/simon-agren.jpg 150w,\n/static/bdc8525039042bedd52c0cf7d15e8521/78d3d/simon-agren.jpg 300w","sizes":"150px"},"sources":[{"srcSet":"/static/bdc8525039042bedd52c0cf7d15e8521/ae23d/simon-agren.webp 150w,\n/static/bdc8525039042bedd52c0cf7d15e8521/bd37b/simon-agren.webp 300w","type":"image/webp","sizes":"150px"}]},"width":150,"height":150}}},"thumbnail":{"__typename":"ImageSharp","ImageSharp_vertical":{"layout":"constrained","backgroundColor":"#083898","images":{"fallback":{"src":"/static/af3ec49eaa10de1dc0c642ba8a312e9a/144fe/image.jpg","srcSet":"/static/af3ec49eaa10de1dc0c642ba8a312e9a/9d7b9/image.jpg 190w,\n/static/af3ec49eaa10de1dc0c642ba8a312e9a/144fe/image.jpg 380w","sizes":"(min-width: 380px) 380px, 100vw"},"sources":[{"srcSet":"/static/af3ec49eaa10de1dc0c642ba8a312e9a/228d6/image.webp 190w,\n/static/af3ec49eaa10de1dc0c642ba8a312e9a/6b99c/image.webp 380w","type":"image/webp","sizes":"(min-width: 380px) 380px, 100vw"}]},"width":380,"height":290},"ImageSharp_hero":{"layout":"constrained","backgroundColor":"#083898","images":{"fallback":{"src":"/static/af3ec49eaa10de1dc0c642ba8a312e9a/7a1ff/image.jpg","srcSet":"/static/af3ec49eaa10de1dc0c642ba8a312e9a/a6b27/image.jpg 512w,\n/static/af3ec49eaa10de1dc0c642ba8a312e9a/7a1ff/image.jpg 1024w","sizes":"(min-width: 1024px) 1024px, 100vw"},"sources":[{"srcSet":"/static/af3ec49eaa10de1dc0c642ba8a312e9a/99476/image.webp 512w,\n/static/af3ec49eaa10de1dc0c642ba8a312e9a/251f6/image.webp 1024w","type":"image/webp","sizes":"(min-width: 1024px) 1024px, 100vw"}]},"width":1600,"height":650}}},{"id":"304a800e-5bec-5ef1-8cc6-d7c2b5655cdc","title":"Unlocking the Power of Multilingual Sensitivity Labels","slug":"/unlocking-the-power-of-multilingual-sensitivity-labels/","link":null,"excerpt":"Multilingual sensitivity labels bridge linguistic gaps in our global data landscape. \nThey protect…","timeToRead":1,"featured":true,"thumbnailText":null,"date":"October 10, 2023","category":{"id":"b0babac0-675d-51af-aa7a-ce603b3a7af4","name":"Microsoft 365","slug":"/category/microsoft-365/","color":"#f25022","icon":"/static/363fdd53d34303b727d9dab161b8e88b/microsoft365.svg"},"author":{"id":"6f313320-531a-5f32-9a22-708cb7653896","name":"Simon Ågren","slug":"/author/simon-agren/","title":"CTA & Microsoft MVP","description":"Solving business problems with tech","skills":["Microsoft 365","Azure"],"social":[{"name":"Github","url":"https://github.com/simonagren"},{"name":"Twitter","url":"https://twitter.com/agrenpoint"},{"name":"Website","url":"https://agrenpoint.com"}],"thumbnail":{"__typename":"ImageSharp","ImageSharp_small":{"layout":"fixed","backgroundColor":"#f8f8f8","images":{"fallback":{"src":"/static/bdc8525039042bedd52c0cf7d15e8521/ac0cb/simon-agren.jpg","srcSet":"/static/bdc8525039042bedd52c0cf7d15e8521/ac0cb/simon-agren.jpg 48w,\n/static/bdc8525039042bedd52c0cf7d15e8521/73f48/simon-agren.jpg 96w","sizes":"48px"},"sources":[{"srcSet":"/static/bdc8525039042bedd52c0cf7d15e8521/a3542/simon-agren.webp 48w,\n/static/bdc8525039042bedd52c0cf7d15e8521/0f66d/simon-agren.webp 96w","type":"image/webp","sizes":"48px"}]},"width":48,"height":48},"ImageSharp_regular":{"layout":"fixed","backgroundColor":"#f8f8f8","images":{"fallback":{"src":"/static/bdc8525039042bedd52c0cf7d15e8521/f679f/simon-agren.jpg","srcSet":"/static/bdc8525039042bedd52c0cf7d15e8521/f679f/simon-agren.jpg 150w,\n/static/bdc8525039042bedd52c0cf7d15e8521/78d3d/simon-agren.jpg 300w","sizes":"150px"},"sources":[{"srcSet":"/static/bdc8525039042bedd52c0cf7d15e8521/ae23d/simon-agren.webp 150w,\n/static/bdc8525039042bedd52c0cf7d15e8521/bd37b/simon-agren.webp 300w","type":"image/webp","sizes":"150px"}]},"width":150,"height":150}}},"thumbnail":{"__typename":"ImageSharp","ImageSharp_vertical":{"layout":"constrained","backgroundColor":"#f8f8c8","images":{"fallback":{"src":"/static/53246ca9afd1cc41dcacb2ba5538e49d/144fe/image.jpg","srcSet":"/static/53246ca9afd1cc41dcacb2ba5538e49d/9d7b9/image.jpg 190w,\n/static/53246ca9afd1cc41dcacb2ba5538e49d/144fe/image.jpg 380w","sizes":"(min-width: 380px) 380px, 100vw"},"sources":[{"srcSet":"/static/53246ca9afd1cc41dcacb2ba5538e49d/228d6/image.webp 190w,\n/static/53246ca9afd1cc41dcacb2ba5538e49d/6b99c/image.webp 380w","type":"image/webp","sizes":"(min-width: 380px) 380px, 100vw"}]},"width":380,"height":290},"ImageSharp_hero":{"layout":"constrained","backgroundColor":"#f8f8c8","images":{"fallback":{"src":"/static/53246ca9afd1cc41dcacb2ba5538e49d/7a1ff/image.jpg","srcSet":"/static/53246ca9afd1cc41dcacb2ba5538e49d/a6b27/image.jpg 512w,\n/static/53246ca9afd1cc41dcacb2ba5538e49d/7a1ff/image.jpg 1024w","sizes":"(min-width: 1024px) 1024px, 100vw"},"sources":[{"srcSet":"/static/53246ca9afd1cc41dcacb2ba5538e49d/99476/image.webp 512w,\n/static/53246ca9afd1cc41dcacb2ba5538e49d/251f6/image.webp 1024w","type":"image/webp","sizes":"(min-width: 1024px) 1024px, 100vw"}]},"width":1600,"height":650}}}],"pageInfo":{"pageCount":4,"hasPreviousPage":false,"hasNextPage":true,"currentPage":1},"totalCount":20}},"pageContext":{"slug":"/tag/powershell/","limit":6,"skip":0,"collectionType":"tags","paginatePostsPage":true,"basePath":"/","services":{"algolia":true,"mailchimp":false,"disqus":false,"graphComment":true,"facebookComment":false},"siteUrl":"https://www.agrenpoint.com","mobileMenu":{"title":"Topics","items":[{"name":"Azure","slug":"/category/azure/"},{"name":"Endpoint management","slug":"/category/endpoint-management/"},{"name":"Microsoft 365","slug":"/category/microsoft-365/"}]},"darkMode":true,"includeExcerpt":true,"includeTimeToRead":true,"includeTableOfContents":true,"imageQuality":75,"currentDate":"2026-03-02"}},"staticQueryHashes":["1992822086","2409295108","2925947909"]}