{"componentChunkName":"component---packages-blog-gatsby-blog-core-src-templates-collection-tag-js","path":"/tag/purview/page/4/","result":{"data":{"collectionInfo":{"id":"6b7f40fc-278c-5482-9153-fdc12a561f10","name":"purview","slug":"/tag/purview/"},"posts":{"nodes":[{"id":"dacea5b5-ce6c-542d-9b35-f9f22f297cba","title":"Margins in Microsoft Purview Sensitivity Labels","slug":"/margins-in-microsoft-purview-sensitivity-labels/","link":null,"excerpt":"I have a quick post about a recent scenario I encountered. A company I was working with had just…","timeToRead":1,"featured":true,"thumbnailText":null,"date":"May 06, 2023","category":{"id":"b0babac0-675d-51af-aa7a-ce603b3a7af4","name":"Microsoft 365","slug":"/category/microsoft-365/","color":"#f25022","icon":"/static/363fdd53d34303b727d9dab161b8e88b/microsoft365.svg"},"author":{"id":"6f313320-531a-5f32-9a22-708cb7653896","name":"Simon Ågren","slug":"/author/simon-agren/","title":"CTA & Microsoft MVP","description":"Solving business problems with tech","skills":["Microsoft 365","Azure"],"social":[{"name":"Github","url":"https://github.com/simonagren"},{"name":"Twitter","url":"https://twitter.com/agrenpoint"},{"name":"Website","url":"https://agrenpoint.com"}],"thumbnail":{"__typename":"ImageSharp","ImageSharp_small":{"layout":"fixed","backgroundColor":"#f8f8f8","images":{"fallback":{"src":"/static/bdc8525039042bedd52c0cf7d15e8521/ac0cb/simon-agren.jpg","srcSet":"/static/bdc8525039042bedd52c0cf7d15e8521/ac0cb/simon-agren.jpg 48w,\n/static/bdc8525039042bedd52c0cf7d15e8521/73f48/simon-agren.jpg 96w","sizes":"48px"},"sources":[{"srcSet":"/static/bdc8525039042bedd52c0cf7d15e8521/a3542/simon-agren.webp 48w,\n/static/bdc8525039042bedd52c0cf7d15e8521/0f66d/simon-agren.webp 96w","type":"image/webp","sizes":"48px"}]},"width":48,"height":48},"ImageSharp_regular":{"layout":"fixed","backgroundColor":"#f8f8f8","images":{"fallback":{"src":"/static/bdc8525039042bedd52c0cf7d15e8521/f679f/simon-agren.jpg","srcSet":"/static/bdc8525039042bedd52c0cf7d15e8521/f679f/simon-agren.jpg 150w,\n/static/bdc8525039042bedd52c0cf7d15e8521/78d3d/simon-agren.jpg 300w","sizes":"150px"},"sources":[{"srcSet":"/static/bdc8525039042bedd52c0cf7d15e8521/ae23d/simon-agren.webp 150w,\n/static/bdc8525039042bedd52c0cf7d15e8521/bd37b/simon-agren.webp 300w","type":"image/webp","sizes":"150px"}]},"width":150,"height":150}}},"thumbnail":{"__typename":"ImageSharp","ImageSharp_vertical":{"layout":"constrained","backgroundColor":"#280868","images":{"fallback":{"src":"/static/746d455681ce63690e96b98af9159e96/144fe/image.jpg","srcSet":"/static/746d455681ce63690e96b98af9159e96/9d7b9/image.jpg 190w,\n/static/746d455681ce63690e96b98af9159e96/144fe/image.jpg 380w","sizes":"(min-width: 380px) 380px, 100vw"},"sources":[{"srcSet":"/static/746d455681ce63690e96b98af9159e96/228d6/image.webp 190w,\n/static/746d455681ce63690e96b98af9159e96/6b99c/image.webp 380w","type":"image/webp","sizes":"(min-width: 380px) 380px, 100vw"}]},"width":380,"height":290},"ImageSharp_hero":{"layout":"constrained","backgroundColor":"#280868","images":{"fallback":{"src":"/static/746d455681ce63690e96b98af9159e96/7a1ff/image.jpg","srcSet":"/static/746d455681ce63690e96b98af9159e96/a6b27/image.jpg 512w,\n/static/746d455681ce63690e96b98af9159e96/7a1ff/image.jpg 1024w","sizes":"(min-width: 1024px) 1024px, 100vw"},"sources":[{"srcSet":"/static/746d455681ce63690e96b98af9159e96/99476/image.webp 512w,\n/static/746d455681ce63690e96b98af9159e96/251f6/image.webp 1024w","type":"image/webp","sizes":"(min-width: 1024px) 1024px, 100vw"}]},"width":1600,"height":650}}},{"id":"548d5f1d-a4c6-531f-8c21-b9ae76576627","title":"When the UI fails - Update Sensitivity Labels via PowerShell","slug":"/when-the-ui-fails-update-sensitivity-labels-via-powershell/","link":null,"excerpt":"Working in  Microsoft Purview , I recently came across a bug. After creating  Sensitivity Labels…","timeToRead":1,"featured":true,"thumbnailText":null,"date":"April 30, 2023","category":{"id":"b0babac0-675d-51af-aa7a-ce603b3a7af4","name":"Microsoft 365","slug":"/category/microsoft-365/","color":"#f25022","icon":"/static/363fdd53d34303b727d9dab161b8e88b/microsoft365.svg"},"author":{"id":"6f313320-531a-5f32-9a22-708cb7653896","name":"Simon Ågren","slug":"/author/simon-agren/","title":"CTA & Microsoft MVP","description":"Solving business problems with tech","skills":["Microsoft 365","Azure"],"social":[{"name":"Github","url":"https://github.com/simonagren"},{"name":"Twitter","url":"https://twitter.com/agrenpoint"},{"name":"Website","url":"https://agrenpoint.com"}],"thumbnail":{"__typename":"ImageSharp","ImageSharp_small":{"layout":"fixed","backgroundColor":"#f8f8f8","images":{"fallback":{"src":"/static/bdc8525039042bedd52c0cf7d15e8521/ac0cb/simon-agren.jpg","srcSet":"/static/bdc8525039042bedd52c0cf7d15e8521/ac0cb/simon-agren.jpg 48w,\n/static/bdc8525039042bedd52c0cf7d15e8521/73f48/simon-agren.jpg 96w","sizes":"48px"},"sources":[{"srcSet":"/static/bdc8525039042bedd52c0cf7d15e8521/a3542/simon-agren.webp 48w,\n/static/bdc8525039042bedd52c0cf7d15e8521/0f66d/simon-agren.webp 96w","type":"image/webp","sizes":"48px"}]},"width":48,"height":48},"ImageSharp_regular":{"layout":"fixed","backgroundColor":"#f8f8f8","images":{"fallback":{"src":"/static/bdc8525039042bedd52c0cf7d15e8521/f679f/simon-agren.jpg","srcSet":"/static/bdc8525039042bedd52c0cf7d15e8521/f679f/simon-agren.jpg 150w,\n/static/bdc8525039042bedd52c0cf7d15e8521/78d3d/simon-agren.jpg 300w","sizes":"150px"},"sources":[{"srcSet":"/static/bdc8525039042bedd52c0cf7d15e8521/ae23d/simon-agren.webp 150w,\n/static/bdc8525039042bedd52c0cf7d15e8521/bd37b/simon-agren.webp 300w","type":"image/webp","sizes":"150px"}]},"width":150,"height":150}}},"thumbnail":{"__typename":"ImageSharp","ImageSharp_vertical":{"layout":"constrained","backgroundColor":"#d84808","images":{"fallback":{"src":"/static/5d507db04dc02dcc7458f69b1f0cc4b8/144fe/image.jpg","srcSet":"/static/5d507db04dc02dcc7458f69b1f0cc4b8/9d7b9/image.jpg 190w,\n/static/5d507db04dc02dcc7458f69b1f0cc4b8/144fe/image.jpg 380w","sizes":"(min-width: 380px) 380px, 100vw"},"sources":[{"srcSet":"/static/5d507db04dc02dcc7458f69b1f0cc4b8/228d6/image.webp 190w,\n/static/5d507db04dc02dcc7458f69b1f0cc4b8/6b99c/image.webp 380w","type":"image/webp","sizes":"(min-width: 380px) 380px, 100vw"}]},"width":380,"height":290},"ImageSharp_hero":{"layout":"constrained","backgroundColor":"#d84808","images":{"fallback":{"src":"/static/5d507db04dc02dcc7458f69b1f0cc4b8/7a1ff/image.jpg","srcSet":"/static/5d507db04dc02dcc7458f69b1f0cc4b8/a6b27/image.jpg 512w,\n/static/5d507db04dc02dcc7458f69b1f0cc4b8/7a1ff/image.jpg 1024w","sizes":"(min-width: 1024px) 1024px, 100vw"},"sources":[{"srcSet":"/static/5d507db04dc02dcc7458f69b1f0cc4b8/99476/image.webp 512w,\n/static/5d507db04dc02dcc7458f69b1f0cc4b8/251f6/image.webp 1024w","type":"image/webp","sizes":"(min-width: 1024px) 1024px, 100vw"}]},"width":1600,"height":650}}},{"id":"3ef466ca-640a-51af-9dc9-ec47bcf869bb","title":"Microsoft Purview Custom SIT via PowerShell","slug":"/microsoft-purview-custom-sit-via-powershell/","link":null,"excerpt":"Introduction It's really about defining what is sensitive in your organization, and we could use…","timeToRead":2,"featured":true,"thumbnailText":null,"date":"March 01, 2023","category":{"id":"b0babac0-675d-51af-aa7a-ce603b3a7af4","name":"Microsoft 365","slug":"/category/microsoft-365/","color":"#f25022","icon":"/static/363fdd53d34303b727d9dab161b8e88b/microsoft365.svg"},"author":{"id":"6f313320-531a-5f32-9a22-708cb7653896","name":"Simon Ågren","slug":"/author/simon-agren/","title":"CTA & Microsoft MVP","description":"Solving business problems with tech","skills":["Microsoft 365","Azure"],"social":[{"name":"Github","url":"https://github.com/simonagren"},{"name":"Twitter","url":"https://twitter.com/agrenpoint"},{"name":"Website","url":"https://agrenpoint.com"}],"thumbnail":{"__typename":"ImageSharp","ImageSharp_small":{"layout":"fixed","backgroundColor":"#f8f8f8","images":{"fallback":{"src":"/static/bdc8525039042bedd52c0cf7d15e8521/ac0cb/simon-agren.jpg","srcSet":"/static/bdc8525039042bedd52c0cf7d15e8521/ac0cb/simon-agren.jpg 48w,\n/static/bdc8525039042bedd52c0cf7d15e8521/73f48/simon-agren.jpg 96w","sizes":"48px"},"sources":[{"srcSet":"/static/bdc8525039042bedd52c0cf7d15e8521/a3542/simon-agren.webp 48w,\n/static/bdc8525039042bedd52c0cf7d15e8521/0f66d/simon-agren.webp 96w","type":"image/webp","sizes":"48px"}]},"width":48,"height":48},"ImageSharp_regular":{"layout":"fixed","backgroundColor":"#f8f8f8","images":{"fallback":{"src":"/static/bdc8525039042bedd52c0cf7d15e8521/f679f/simon-agren.jpg","srcSet":"/static/bdc8525039042bedd52c0cf7d15e8521/f679f/simon-agren.jpg 150w,\n/static/bdc8525039042bedd52c0cf7d15e8521/78d3d/simon-agren.jpg 300w","sizes":"150px"},"sources":[{"srcSet":"/static/bdc8525039042bedd52c0cf7d15e8521/ae23d/simon-agren.webp 150w,\n/static/bdc8525039042bedd52c0cf7d15e8521/bd37b/simon-agren.webp 300w","type":"image/webp","sizes":"150px"}]},"width":150,"height":150}}},"thumbnail":{"__typename":"ImageSharp","ImageSharp_vertical":{"layout":"constrained","backgroundColor":"#080808","images":{"fallback":{"src":"/static/f3aa06e1ac1b82e7664e4cbf387037b8/19188/image.png","srcSet":"/static/f3aa06e1ac1b82e7664e4cbf387037b8/db297/image.png 190w,\n/static/f3aa06e1ac1b82e7664e4cbf387037b8/19188/image.png 380w","sizes":"(min-width: 380px) 380px, 100vw"},"sources":[{"srcSet":"/static/f3aa06e1ac1b82e7664e4cbf387037b8/228d6/image.webp 190w,\n/static/f3aa06e1ac1b82e7664e4cbf387037b8/6b99c/image.webp 380w","type":"image/webp","sizes":"(min-width: 380px) 380px, 100vw"}]},"width":380,"height":290},"ImageSharp_hero":{"layout":"constrained","backgroundColor":"#080808","images":{"fallback":{"src":"/static/f3aa06e1ac1b82e7664e4cbf387037b8/739fd/image.png","srcSet":"/static/f3aa06e1ac1b82e7664e4cbf387037b8/a16e7/image.png 300w,\n/static/f3aa06e1ac1b82e7664e4cbf387037b8/739fd/image.png 600w","sizes":"(min-width: 600px) 600px, 100vw"},"sources":[{"srcSet":"/static/f3aa06e1ac1b82e7664e4cbf387037b8/797c8/image.webp 300w,\n/static/f3aa06e1ac1b82e7664e4cbf387037b8/288e3/image.webp 600w","type":"image/webp","sizes":"(min-width: 600px) 600px, 100vw"}]},"width":1600,"height":650.6666666666666}}},{"id":"75b10dd1-1fc9-58d5-8891-113fc66c2467","title":"A collection of Microsoft Ninja Training","slug":"/a-collection-of-microsoft-ninja-training/","link":null,"excerpt":"Introduction Recently, I completed two pieces of Ninja training; Microsoft Purview Information…","timeToRead":1,"featured":true,"thumbnailText":null,"date":"February 09, 2023","category":{"id":"b0babac0-675d-51af-aa7a-ce603b3a7af4","name":"Microsoft 365","slug":"/category/microsoft-365/","color":"#f25022","icon":"/static/363fdd53d34303b727d9dab161b8e88b/microsoft365.svg"},"author":{"id":"6f313320-531a-5f32-9a22-708cb7653896","name":"Simon Ågren","slug":"/author/simon-agren/","title":"CTA & Microsoft MVP","description":"Solving business problems with tech","skills":["Microsoft 365","Azure"],"social":[{"name":"Github","url":"https://github.com/simonagren"},{"name":"Twitter","url":"https://twitter.com/agrenpoint"},{"name":"Website","url":"https://agrenpoint.com"}],"thumbnail":{"__typename":"ImageSharp","ImageSharp_small":{"layout":"fixed","backgroundColor":"#f8f8f8","images":{"fallback":{"src":"/static/bdc8525039042bedd52c0cf7d15e8521/ac0cb/simon-agren.jpg","srcSet":"/static/bdc8525039042bedd52c0cf7d15e8521/ac0cb/simon-agren.jpg 48w,\n/static/bdc8525039042bedd52c0cf7d15e8521/73f48/simon-agren.jpg 96w","sizes":"48px"},"sources":[{"srcSet":"/static/bdc8525039042bedd52c0cf7d15e8521/a3542/simon-agren.webp 48w,\n/static/bdc8525039042bedd52c0cf7d15e8521/0f66d/simon-agren.webp 96w","type":"image/webp","sizes":"48px"}]},"width":48,"height":48},"ImageSharp_regular":{"layout":"fixed","backgroundColor":"#f8f8f8","images":{"fallback":{"src":"/static/bdc8525039042bedd52c0cf7d15e8521/f679f/simon-agren.jpg","srcSet":"/static/bdc8525039042bedd52c0cf7d15e8521/f679f/simon-agren.jpg 150w,\n/static/bdc8525039042bedd52c0cf7d15e8521/78d3d/simon-agren.jpg 300w","sizes":"150px"},"sources":[{"srcSet":"/static/bdc8525039042bedd52c0cf7d15e8521/ae23d/simon-agren.webp 150w,\n/static/bdc8525039042bedd52c0cf7d15e8521/bd37b/simon-agren.webp 300w","type":"image/webp","sizes":"150px"}]},"width":150,"height":150}}},"thumbnail":{"__typename":"ImageSharp","ImageSharp_vertical":{"layout":"constrained","backgroundColor":"#f8f8f8","images":{"fallback":{"src":"/static/aa6b304aeede00e2d25f6bbeab7fb0f6/144fe/image.jpg","srcSet":"/static/aa6b304aeede00e2d25f6bbeab7fb0f6/9d7b9/image.jpg 190w,\n/static/aa6b304aeede00e2d25f6bbeab7fb0f6/144fe/image.jpg 380w","sizes":"(min-width: 380px) 380px, 100vw"},"sources":[{"srcSet":"/static/aa6b304aeede00e2d25f6bbeab7fb0f6/228d6/image.webp 190w,\n/static/aa6b304aeede00e2d25f6bbeab7fb0f6/6b99c/image.webp 380w","type":"image/webp","sizes":"(min-width: 380px) 380px, 100vw"}]},"width":380,"height":290},"ImageSharp_hero":{"layout":"constrained","backgroundColor":"#f8f8f8","images":{"fallback":{"src":"/static/aa6b304aeede00e2d25f6bbeab7fb0f6/fb1e2/image.jpg","srcSet":"/static/aa6b304aeede00e2d25f6bbeab7fb0f6/737e6/image.jpg 500w,\n/static/aa6b304aeede00e2d25f6bbeab7fb0f6/fb1e2/image.jpg 999w","sizes":"(min-width: 999px) 999px, 100vw"},"sources":[{"srcSet":"/static/aa6b304aeede00e2d25f6bbeab7fb0f6/e3a40/image.webp 500w,\n/static/aa6b304aeede00e2d25f6bbeab7fb0f6/e62d1/image.webp 999w","type":"image/webp","sizes":"(min-width: 999px) 999px, 100vw"}]},"width":1600,"height":650.2502502502502}}},{"id":"7fceb2f9-988f-56bf-845e-8d9bd3521d17","title":"When n00bs Fiddle(r) with PowerShell","slug":"/when-n00bs-fiddler-with-powershell/","link":null,"excerpt":"My punny title is referencing to \"fiddle with something in an unskilled and unsuccessful effort\". I…","timeToRead":1,"featured":true,"thumbnailText":null,"date":"May 31, 2022","category":{"id":"b0babac0-675d-51af-aa7a-ce603b3a7af4","name":"Microsoft 365","slug":"/category/microsoft-365/","color":"#f25022","icon":"/static/363fdd53d34303b727d9dab161b8e88b/microsoft365.svg"},"author":{"id":"6f313320-531a-5f32-9a22-708cb7653896","name":"Simon Ågren","slug":"/author/simon-agren/","title":"CTA & Microsoft MVP","description":"Solving business problems with tech","skills":["Microsoft 365","Azure"],"social":[{"name":"Github","url":"https://github.com/simonagren"},{"name":"Twitter","url":"https://twitter.com/agrenpoint"},{"name":"Website","url":"https://agrenpoint.com"}],"thumbnail":{"__typename":"ImageSharp","ImageSharp_small":{"layout":"fixed","backgroundColor":"#f8f8f8","images":{"fallback":{"src":"/static/bdc8525039042bedd52c0cf7d15e8521/ac0cb/simon-agren.jpg","srcSet":"/static/bdc8525039042bedd52c0cf7d15e8521/ac0cb/simon-agren.jpg 48w,\n/static/bdc8525039042bedd52c0cf7d15e8521/73f48/simon-agren.jpg 96w","sizes":"48px"},"sources":[{"srcSet":"/static/bdc8525039042bedd52c0cf7d15e8521/a3542/simon-agren.webp 48w,\n/static/bdc8525039042bedd52c0cf7d15e8521/0f66d/simon-agren.webp 96w","type":"image/webp","sizes":"48px"}]},"width":48,"height":48},"ImageSharp_regular":{"layout":"fixed","backgroundColor":"#f8f8f8","images":{"fallback":{"src":"/static/bdc8525039042bedd52c0cf7d15e8521/f679f/simon-agren.jpg","srcSet":"/static/bdc8525039042bedd52c0cf7d15e8521/f679f/simon-agren.jpg 150w,\n/static/bdc8525039042bedd52c0cf7d15e8521/78d3d/simon-agren.jpg 300w","sizes":"150px"},"sources":[{"srcSet":"/static/bdc8525039042bedd52c0cf7d15e8521/ae23d/simon-agren.webp 150w,\n/static/bdc8525039042bedd52c0cf7d15e8521/bd37b/simon-agren.webp 300w","type":"image/webp","sizes":"150px"}]},"width":150,"height":150}}},"thumbnail":{"__typename":"ImageSharp","ImageSharp_vertical":{"layout":"constrained","backgroundColor":"#080808","images":{"fallback":{"src":"/static/0a32a043ebd375e280077b89e67a941d/144fe/image.jpg","srcSet":"/static/0a32a043ebd375e280077b89e67a941d/9d7b9/image.jpg 190w,\n/static/0a32a043ebd375e280077b89e67a941d/144fe/image.jpg 380w","sizes":"(min-width: 380px) 380px, 100vw"},"sources":[{"srcSet":"/static/0a32a043ebd375e280077b89e67a941d/228d6/image.webp 190w,\n/static/0a32a043ebd375e280077b89e67a941d/6b99c/image.webp 380w","type":"image/webp","sizes":"(min-width: 380px) 380px, 100vw"}]},"width":380,"height":290},"ImageSharp_hero":{"layout":"constrained","backgroundColor":"#080808","images":{"fallback":{"src":"/static/0a32a043ebd375e280077b89e67a941d/e9e14/image.jpg","srcSet":"/static/0a32a043ebd375e280077b89e67a941d/6df8b/image.jpg 640w,\n/static/0a32a043ebd375e280077b89e67a941d/e9e14/image.jpg 1280w","sizes":"(min-width: 1280px) 1280px, 100vw"},"sources":[{"srcSet":"/static/0a32a043ebd375e280077b89e67a941d/5f634/image.webp 640w,\n/static/0a32a043ebd375e280077b89e67a941d/f81d8/image.webp 1280w","type":"image/webp","sizes":"(min-width: 1280px) 1280px, 100vw"}]},"width":1600,"height":650}}}],"pageInfo":{"pageCount":4,"hasPreviousPage":true,"hasNextPage":false,"currentPage":4},"totalCount":23}},"pageContext":{"slug":"/tag/purview/","limit":6,"skip":18,"collectionType":"tags","paginatePostsPage":true,"basePath":"/","services":{"algolia":true,"mailchimp":false,"disqus":false,"graphComment":true,"facebookComment":false},"siteUrl":"https://www.agrenpoint.com","mobileMenu":{"title":"Topics","items":[{"name":"Azure","slug":"/category/azure/"},{"name":"Endpoint management","slug":"/category/endpoint-management/"},{"name":"Microsoft 365","slug":"/category/microsoft-365/"}]},"darkMode":true,"includeExcerpt":true,"includeTimeToRead":true,"includeTableOfContents":true,"imageQuality":75,"currentDate":"2026-03-02"}},"staticQueryHashes":["1992822086","2409295108","2925947909"]}