{"componentChunkName":"component---packages-blog-gatsby-blog-core-src-templates-collection-author-js","path":"/author/simon-agren/page/12/","result":{"data":{"collectionInfo":{"id":"6f313320-531a-5f32-9a22-708cb7653896","name":"Simon Ågren","slug":"/author/simon-agren/","title":"CTA & Microsoft MVP","description":"Solving business problems with tech","skills":["Microsoft 365","Azure"],"social":[{"name":"Github","url":"https://github.com/simonagren"},{"name":"Twitter","url":"https://twitter.com/agrenpoint"},{"name":"Website","url":"https://agrenpoint.com"}],"thumbnail":{"__typename":"ImageSharp","ImageSharp_small":{"layout":"fixed","backgroundColor":"#f8f8f8","images":{"fallback":{"src":"/static/bdc8525039042bedd52c0cf7d15e8521/ac0cb/simon-agren.jpg","srcSet":"/static/bdc8525039042bedd52c0cf7d15e8521/ac0cb/simon-agren.jpg 48w,\n/static/bdc8525039042bedd52c0cf7d15e8521/73f48/simon-agren.jpg 96w","sizes":"48px"},"sources":[{"srcSet":"/static/bdc8525039042bedd52c0cf7d15e8521/a3542/simon-agren.webp 48w,\n/static/bdc8525039042bedd52c0cf7d15e8521/0f66d/simon-agren.webp 96w","type":"image/webp","sizes":"48px"}]},"width":48,"height":48},"ImageSharp_regular":{"layout":"fixed","backgroundColor":"#f8f8f8","images":{"fallback":{"src":"/static/bdc8525039042bedd52c0cf7d15e8521/f679f/simon-agren.jpg","srcSet":"/static/bdc8525039042bedd52c0cf7d15e8521/f679f/simon-agren.jpg 150w,\n/static/bdc8525039042bedd52c0cf7d15e8521/78d3d/simon-agren.jpg 300w","sizes":"150px"},"sources":[{"srcSet":"/static/bdc8525039042bedd52c0cf7d15e8521/ae23d/simon-agren.webp 150w,\n/static/bdc8525039042bedd52c0cf7d15e8521/bd37b/simon-agren.webp 300w","type":"image/webp","sizes":"150px"}]},"width":150,"height":150}}},"posts":{"nodes":[{"id":"cb52762b-13f2-59de-b38c-e70f9d2532b6","title":"Extending My Links in SharePoint Starter Kit","slug":"/sp-starter-xml-links/","link":null,"excerpt":"I made two posts at once and here is the previous:  Findings from issues with SharePoint Starter Kit…","timeToRead":1,"featured":null,"thumbnailText":null,"date":"February 07, 2019","category":{"id":"b0babac0-675d-51af-aa7a-ce603b3a7af4","name":"Microsoft 365","slug":"/category/microsoft-365/","color":"#f25022","icon":"/static/363fdd53d34303b727d9dab161b8e88b/microsoft365.svg"},"author":{"id":"6f313320-531a-5f32-9a22-708cb7653896","name":"Simon Ågren","slug":"/author/simon-agren/","title":"CTA & Microsoft MVP","description":"Solving business problems with tech","skills":["Microsoft 365","Azure"],"social":[{"name":"Github","url":"https://github.com/simonagren"},{"name":"Twitter","url":"https://twitter.com/agrenpoint"},{"name":"Website","url":"https://agrenpoint.com"}],"thumbnail":{"__typename":"ImageSharp","ImageSharp_small":{"layout":"fixed","backgroundColor":"#f8f8f8","images":{"fallback":{"src":"/static/bdc8525039042bedd52c0cf7d15e8521/ac0cb/simon-agren.jpg","srcSet":"/static/bdc8525039042bedd52c0cf7d15e8521/ac0cb/simon-agren.jpg 48w,\n/static/bdc8525039042bedd52c0cf7d15e8521/73f48/simon-agren.jpg 96w","sizes":"48px"},"sources":[{"srcSet":"/static/bdc8525039042bedd52c0cf7d15e8521/a3542/simon-agren.webp 48w,\n/static/bdc8525039042bedd52c0cf7d15e8521/0f66d/simon-agren.webp 96w","type":"image/webp","sizes":"48px"}]},"width":48,"height":48},"ImageSharp_regular":{"layout":"fixed","backgroundColor":"#f8f8f8","images":{"fallback":{"src":"/static/bdc8525039042bedd52c0cf7d15e8521/f679f/simon-agren.jpg","srcSet":"/static/bdc8525039042bedd52c0cf7d15e8521/f679f/simon-agren.jpg 150w,\n/static/bdc8525039042bedd52c0cf7d15e8521/78d3d/simon-agren.jpg 300w","sizes":"150px"},"sources":[{"srcSet":"/static/bdc8525039042bedd52c0cf7d15e8521/ae23d/simon-agren.webp 150w,\n/static/bdc8525039042bedd52c0cf7d15e8521/bd37b/simon-agren.webp 300w","type":"image/webp","sizes":"150px"}]},"width":150,"height":150}}},"thumbnail":{"__typename":"ImageSharp","ImageSharp_vertical":{"layout":"constrained","backgroundColor":"#181818","images":{"fallback":{"src":"/static/8a14189f90fa0cda77481a083fa52391/144fe/extend.jpg","srcSet":"/static/8a14189f90fa0cda77481a083fa52391/9d7b9/extend.jpg 190w,\n/static/8a14189f90fa0cda77481a083fa52391/144fe/extend.jpg 380w","sizes":"(min-width: 380px) 380px, 100vw"},"sources":[{"srcSet":"/static/8a14189f90fa0cda77481a083fa52391/228d6/extend.webp 190w,\n/static/8a14189f90fa0cda77481a083fa52391/6b99c/extend.webp 380w","type":"image/webp","sizes":"(min-width: 380px) 380px, 100vw"}]},"width":380,"height":290},"ImageSharp_hero":{"layout":"constrained","backgroundColor":"#181818","images":{"fallback":{"src":"/static/8a14189f90fa0cda77481a083fa52391/5e493/extend.jpg","srcSet":"/static/8a14189f90fa0cda77481a083fa52391/696c0/extend.jpg 800w,\n/static/8a14189f90fa0cda77481a083fa52391/5e493/extend.jpg 1600w","sizes":"(min-width: 1600px) 1600px, 100vw"},"sources":[{"srcSet":"/static/8a14189f90fa0cda77481a083fa52391/c9f06/extend.webp 800w,\n/static/8a14189f90fa0cda77481a083fa52391/f47df/extend.webp 1600w","type":"image/webp","sizes":"(min-width: 1600px) 1600px, 100vw"}]},"width":1600,"height":650}}},{"id":"490e44d7-a010-5c95-8f05-c4d0e1be57b5","title":"Part 4 - Azure Functions V2 + VS Code + PnPJs === true","slug":"/part4-azurefunction/","link":null,"excerpt":"The posts in this series Part 4 - Azure Functions V2 + VS Code + PnPJs === true This is the last…","timeToRead":5,"featured":null,"thumbnailText":null,"date":"November 25, 2018","category":{"id":"64f10eaf-091c-555c-a28e-13a12e934b04","name":"Azure","slug":"/category/azure/","color":"#007fff","icon":"/static/660faf3683bb1a8489baa9402bf62165/azure.svg"},"author":{"id":"6f313320-531a-5f32-9a22-708cb7653896","name":"Simon Ågren","slug":"/author/simon-agren/","title":"CTA & Microsoft MVP","description":"Solving business problems with tech","skills":["Microsoft 365","Azure"],"social":[{"name":"Github","url":"https://github.com/simonagren"},{"name":"Twitter","url":"https://twitter.com/agrenpoint"},{"name":"Website","url":"https://agrenpoint.com"}],"thumbnail":{"__typename":"ImageSharp","ImageSharp_small":{"layout":"fixed","backgroundColor":"#f8f8f8","images":{"fallback":{"src":"/static/bdc8525039042bedd52c0cf7d15e8521/ac0cb/simon-agren.jpg","srcSet":"/static/bdc8525039042bedd52c0cf7d15e8521/ac0cb/simon-agren.jpg 48w,\n/static/bdc8525039042bedd52c0cf7d15e8521/73f48/simon-agren.jpg 96w","sizes":"48px"},"sources":[{"srcSet":"/static/bdc8525039042bedd52c0cf7d15e8521/a3542/simon-agren.webp 48w,\n/static/bdc8525039042bedd52c0cf7d15e8521/0f66d/simon-agren.webp 96w","type":"image/webp","sizes":"48px"}]},"width":48,"height":48},"ImageSharp_regular":{"layout":"fixed","backgroundColor":"#f8f8f8","images":{"fallback":{"src":"/static/bdc8525039042bedd52c0cf7d15e8521/f679f/simon-agren.jpg","srcSet":"/static/bdc8525039042bedd52c0cf7d15e8521/f679f/simon-agren.jpg 150w,\n/static/bdc8525039042bedd52c0cf7d15e8521/78d3d/simon-agren.jpg 300w","sizes":"150px"},"sources":[{"srcSet":"/static/bdc8525039042bedd52c0cf7d15e8521/ae23d/simon-agren.webp 150w,\n/static/bdc8525039042bedd52c0cf7d15e8521/bd37b/simon-agren.webp 300w","type":"image/webp","sizes":"150px"}]},"width":150,"height":150}}},"thumbnail":{"__typename":"ImageSharp","ImageSharp_vertical":{"layout":"constrained","backgroundColor":"#f8f8f8","images":{"fallback":{"src":"/static/9eba6bc91f2af79fc88248378c1ecef4/19188/funcpnp4.png","srcSet":"/static/9eba6bc91f2af79fc88248378c1ecef4/db297/funcpnp4.png 190w,\n/static/9eba6bc91f2af79fc88248378c1ecef4/19188/funcpnp4.png 380w","sizes":"(min-width: 380px) 380px, 100vw"},"sources":[{"srcSet":"/static/9eba6bc91f2af79fc88248378c1ecef4/228d6/funcpnp4.webp 190w,\n/static/9eba6bc91f2af79fc88248378c1ecef4/6b99c/funcpnp4.webp 380w","type":"image/webp","sizes":"(min-width: 380px) 380px, 100vw"}]},"width":380,"height":290},"ImageSharp_hero":{"layout":"constrained","backgroundColor":"#f8f8f8","images":{"fallback":{"src":"/static/9eba6bc91f2af79fc88248378c1ecef4/17e9b/funcpnp4.png","srcSet":"/static/9eba6bc91f2af79fc88248378c1ecef4/bed7a/funcpnp4.png 400w,\n/static/9eba6bc91f2af79fc88248378c1ecef4/17e9b/funcpnp4.png 800w","sizes":"(min-width: 800px) 800px, 100vw"},"sources":[{"srcSet":"/static/9eba6bc91f2af79fc88248378c1ecef4/6a2da/funcpnp4.webp 400w,\n/static/9eba6bc91f2af79fc88248378c1ecef4/c9f06/funcpnp4.webp 800w","type":"image/webp","sizes":"(min-width: 800px) 800px, 100vw"}]},"width":1600,"height":650}}},{"id":"e6eeb50c-d28b-5e8c-87ba-08fe7119f410","title":"Part 3 - Azure Functions V2 + VS Code + PnPJs === true","slug":"/part3-azurefunction/","link":null,"excerpt":"The posts in this series Part 3 - Azure Functions V2 + VS Code + PnPJs === true I this post we will…","timeToRead":2,"featured":null,"thumbnailText":null,"date":"November 20, 2018","category":{"id":"64f10eaf-091c-555c-a28e-13a12e934b04","name":"Azure","slug":"/category/azure/","color":"#007fff","icon":"/static/660faf3683bb1a8489baa9402bf62165/azure.svg"},"author":{"id":"6f313320-531a-5f32-9a22-708cb7653896","name":"Simon Ågren","slug":"/author/simon-agren/","title":"CTA & Microsoft MVP","description":"Solving business problems with tech","skills":["Microsoft 365","Azure"],"social":[{"name":"Github","url":"https://github.com/simonagren"},{"name":"Twitter","url":"https://twitter.com/agrenpoint"},{"name":"Website","url":"https://agrenpoint.com"}],"thumbnail":{"__typename":"ImageSharp","ImageSharp_small":{"layout":"fixed","backgroundColor":"#f8f8f8","images":{"fallback":{"src":"/static/bdc8525039042bedd52c0cf7d15e8521/ac0cb/simon-agren.jpg","srcSet":"/static/bdc8525039042bedd52c0cf7d15e8521/ac0cb/simon-agren.jpg 48w,\n/static/bdc8525039042bedd52c0cf7d15e8521/73f48/simon-agren.jpg 96w","sizes":"48px"},"sources":[{"srcSet":"/static/bdc8525039042bedd52c0cf7d15e8521/a3542/simon-agren.webp 48w,\n/static/bdc8525039042bedd52c0cf7d15e8521/0f66d/simon-agren.webp 96w","type":"image/webp","sizes":"48px"}]},"width":48,"height":48},"ImageSharp_regular":{"layout":"fixed","backgroundColor":"#f8f8f8","images":{"fallback":{"src":"/static/bdc8525039042bedd52c0cf7d15e8521/f679f/simon-agren.jpg","srcSet":"/static/bdc8525039042bedd52c0cf7d15e8521/f679f/simon-agren.jpg 150w,\n/static/bdc8525039042bedd52c0cf7d15e8521/78d3d/simon-agren.jpg 300w","sizes":"150px"},"sources":[{"srcSet":"/static/bdc8525039042bedd52c0cf7d15e8521/ae23d/simon-agren.webp 150w,\n/static/bdc8525039042bedd52c0cf7d15e8521/bd37b/simon-agren.webp 300w","type":"image/webp","sizes":"150px"}]},"width":150,"height":150}}},"thumbnail":{"__typename":"ImageSharp","ImageSharp_vertical":{"layout":"constrained","backgroundColor":"#f8f8f8","images":{"fallback":{"src":"/static/c7aa3f5193d2ac45392b4291dbd280fc/19188/funcpnp3.png","srcSet":"/static/c7aa3f5193d2ac45392b4291dbd280fc/db297/funcpnp3.png 190w,\n/static/c7aa3f5193d2ac45392b4291dbd280fc/19188/funcpnp3.png 380w","sizes":"(min-width: 380px) 380px, 100vw"},"sources":[{"srcSet":"/static/c7aa3f5193d2ac45392b4291dbd280fc/228d6/funcpnp3.webp 190w,\n/static/c7aa3f5193d2ac45392b4291dbd280fc/6b99c/funcpnp3.webp 380w","type":"image/webp","sizes":"(min-width: 380px) 380px, 100vw"}]},"width":380,"height":290},"ImageSharp_hero":{"layout":"constrained","backgroundColor":"#f8f8f8","images":{"fallback":{"src":"/static/c7aa3f5193d2ac45392b4291dbd280fc/17e9b/funcpnp3.png","srcSet":"/static/c7aa3f5193d2ac45392b4291dbd280fc/bed7a/funcpnp3.png 400w,\n/static/c7aa3f5193d2ac45392b4291dbd280fc/17e9b/funcpnp3.png 800w","sizes":"(min-width: 800px) 800px, 100vw"},"sources":[{"srcSet":"/static/c7aa3f5193d2ac45392b4291dbd280fc/6a2da/funcpnp3.webp 400w,\n/static/c7aa3f5193d2ac45392b4291dbd280fc/c9f06/funcpnp3.webp 800w","type":"image/webp","sizes":"(min-width: 800px) 800px, 100vw"}]},"width":1600,"height":650}}},{"id":"c3d92c6c-7dd7-57b6-81b9-e43cd9398509","title":"Part 1 - Azure Functions V2 + VS Code + PnPJs === true","slug":"/azurefunction-v2-pnpjs/","link":null,"excerpt":"The posts in this series Part 1 - Azure Functions V2 + VS Code + PnPJs === true As the title may…","timeToRead":2,"featured":null,"thumbnailText":null,"date":"November 11, 2018","category":{"id":"64f10eaf-091c-555c-a28e-13a12e934b04","name":"Azure","slug":"/category/azure/","color":"#007fff","icon":"/static/660faf3683bb1a8489baa9402bf62165/azure.svg"},"author":{"id":"6f313320-531a-5f32-9a22-708cb7653896","name":"Simon Ågren","slug":"/author/simon-agren/","title":"CTA & Microsoft MVP","description":"Solving business problems with tech","skills":["Microsoft 365","Azure"],"social":[{"name":"Github","url":"https://github.com/simonagren"},{"name":"Twitter","url":"https://twitter.com/agrenpoint"},{"name":"Website","url":"https://agrenpoint.com"}],"thumbnail":{"__typename":"ImageSharp","ImageSharp_small":{"layout":"fixed","backgroundColor":"#f8f8f8","images":{"fallback":{"src":"/static/bdc8525039042bedd52c0cf7d15e8521/ac0cb/simon-agren.jpg","srcSet":"/static/bdc8525039042bedd52c0cf7d15e8521/ac0cb/simon-agren.jpg 48w,\n/static/bdc8525039042bedd52c0cf7d15e8521/73f48/simon-agren.jpg 96w","sizes":"48px"},"sources":[{"srcSet":"/static/bdc8525039042bedd52c0cf7d15e8521/a3542/simon-agren.webp 48w,\n/static/bdc8525039042bedd52c0cf7d15e8521/0f66d/simon-agren.webp 96w","type":"image/webp","sizes":"48px"}]},"width":48,"height":48},"ImageSharp_regular":{"layout":"fixed","backgroundColor":"#f8f8f8","images":{"fallback":{"src":"/static/bdc8525039042bedd52c0cf7d15e8521/f679f/simon-agren.jpg","srcSet":"/static/bdc8525039042bedd52c0cf7d15e8521/f679f/simon-agren.jpg 150w,\n/static/bdc8525039042bedd52c0cf7d15e8521/78d3d/simon-agren.jpg 300w","sizes":"150px"},"sources":[{"srcSet":"/static/bdc8525039042bedd52c0cf7d15e8521/ae23d/simon-agren.webp 150w,\n/static/bdc8525039042bedd52c0cf7d15e8521/bd37b/simon-agren.webp 300w","type":"image/webp","sizes":"150px"}]},"width":150,"height":150}}},"thumbnail":{"__typename":"ImageSharp","ImageSharp_vertical":{"layout":"constrained","backgroundColor":"#f8f8f8","images":{"fallback":{"src":"/static/dfec975154c30531070e5894527e0e5f/19188/funcpnp.png","srcSet":"/static/dfec975154c30531070e5894527e0e5f/db297/funcpnp.png 190w,\n/static/dfec975154c30531070e5894527e0e5f/19188/funcpnp.png 380w","sizes":"(min-width: 380px) 380px, 100vw"},"sources":[{"srcSet":"/static/dfec975154c30531070e5894527e0e5f/228d6/funcpnp.webp 190w,\n/static/dfec975154c30531070e5894527e0e5f/6b99c/funcpnp.webp 380w","type":"image/webp","sizes":"(min-width: 380px) 380px, 100vw"}]},"width":380,"height":290},"ImageSharp_hero":{"layout":"constrained","backgroundColor":"#f8f8f8","images":{"fallback":{"src":"/static/dfec975154c30531070e5894527e0e5f/17e9b/funcpnp.png","srcSet":"/static/dfec975154c30531070e5894527e0e5f/bed7a/funcpnp.png 400w,\n/static/dfec975154c30531070e5894527e0e5f/17e9b/funcpnp.png 800w","sizes":"(min-width: 800px) 800px, 100vw"},"sources":[{"srcSet":"/static/dfec975154c30531070e5894527e0e5f/6a2da/funcpnp.webp 400w,\n/static/dfec975154c30531070e5894527e0e5f/c9f06/funcpnp.webp 800w","type":"image/webp","sizes":"(min-width: 800px) 800px, 100vw"}]},"width":1600,"height":650}}},{"id":"b9f6c5b7-8870-5d32-addd-7b37e2e9a58d","title":"Update managed metadata fields with PnPJs","slug":"/pnpjs-update-managed-metadata/","link":null,"excerpt":"Last night I was helping out with an issue in the PnPJs repository on GitHub where the user wanted…","timeToRead":1,"featured":null,"thumbnailText":null,"date":"November 09, 2018","category":{"id":"b0babac0-675d-51af-aa7a-ce603b3a7af4","name":"Microsoft 365","slug":"/category/microsoft-365/","color":"#f25022","icon":"/static/363fdd53d34303b727d9dab161b8e88b/microsoft365.svg"},"author":{"id":"6f313320-531a-5f32-9a22-708cb7653896","name":"Simon Ågren","slug":"/author/simon-agren/","title":"CTA & Microsoft MVP","description":"Solving business problems with tech","skills":["Microsoft 365","Azure"],"social":[{"name":"Github","url":"https://github.com/simonagren"},{"name":"Twitter","url":"https://twitter.com/agrenpoint"},{"name":"Website","url":"https://agrenpoint.com"}],"thumbnail":{"__typename":"ImageSharp","ImageSharp_small":{"layout":"fixed","backgroundColor":"#f8f8f8","images":{"fallback":{"src":"/static/bdc8525039042bedd52c0cf7d15e8521/ac0cb/simon-agren.jpg","srcSet":"/static/bdc8525039042bedd52c0cf7d15e8521/ac0cb/simon-agren.jpg 48w,\n/static/bdc8525039042bedd52c0cf7d15e8521/73f48/simon-agren.jpg 96w","sizes":"48px"},"sources":[{"srcSet":"/static/bdc8525039042bedd52c0cf7d15e8521/a3542/simon-agren.webp 48w,\n/static/bdc8525039042bedd52c0cf7d15e8521/0f66d/simon-agren.webp 96w","type":"image/webp","sizes":"48px"}]},"width":48,"height":48},"ImageSharp_regular":{"layout":"fixed","backgroundColor":"#f8f8f8","images":{"fallback":{"src":"/static/bdc8525039042bedd52c0cf7d15e8521/f679f/simon-agren.jpg","srcSet":"/static/bdc8525039042bedd52c0cf7d15e8521/f679f/simon-agren.jpg 150w,\n/static/bdc8525039042bedd52c0cf7d15e8521/78d3d/simon-agren.jpg 300w","sizes":"150px"},"sources":[{"srcSet":"/static/bdc8525039042bedd52c0cf7d15e8521/ae23d/simon-agren.webp 150w,\n/static/bdc8525039042bedd52c0cf7d15e8521/bd37b/simon-agren.webp 300w","type":"image/webp","sizes":"150px"}]},"width":150,"height":150}}},"thumbnail":{"__typename":"ImageSharp","ImageSharp_vertical":{"layout":"constrained","backgroundColor":"#2878b8","images":{"fallback":{"src":"/static/558bcf95ded30b225148cfbca1a4ed0c/19188/pnp-pnpjs-600.png","srcSet":"/static/558bcf95ded30b225148cfbca1a4ed0c/db297/pnp-pnpjs-600.png 190w,\n/static/558bcf95ded30b225148cfbca1a4ed0c/19188/pnp-pnpjs-600.png 380w","sizes":"(min-width: 380px) 380px, 100vw"},"sources":[{"srcSet":"/static/558bcf95ded30b225148cfbca1a4ed0c/228d6/pnp-pnpjs-600.webp 190w,\n/static/558bcf95ded30b225148cfbca1a4ed0c/6b99c/pnp-pnpjs-600.webp 380w","type":"image/webp","sizes":"(min-width: 380px) 380px, 100vw"}]},"width":380,"height":290},"ImageSharp_hero":{"layout":"constrained","backgroundColor":"#2878b8","images":{"fallback":{"src":"/static/558bcf95ded30b225148cfbca1a4ed0c/739fd/pnp-pnpjs-600.png","srcSet":"/static/558bcf95ded30b225148cfbca1a4ed0c/a16e7/pnp-pnpjs-600.png 300w,\n/static/558bcf95ded30b225148cfbca1a4ed0c/739fd/pnp-pnpjs-600.png 600w","sizes":"(min-width: 600px) 600px, 100vw"},"sources":[{"srcSet":"/static/558bcf95ded30b225148cfbca1a4ed0c/797c8/pnp-pnpjs-600.webp 300w,\n/static/558bcf95ded30b225148cfbca1a4ed0c/288e3/pnp-pnpjs-600.webp 600w","type":"image/webp","sizes":"(min-width: 600px) 600px, 100vw"}]},"width":1600,"height":650.6666666666666}}},{"id":"64a6b995-03f8-5c5d-838a-7578336e266c","title":"Create a Microsoft Team using site designs, Flow and Hub Sites","slug":"/create-team-site-script/","link":null,"excerpt":"I was asked a few days ago if we could automate  Microsoft Teams  creation when a Modern Team Site…","timeToRead":2,"featured":null,"thumbnailText":null,"date":"November 08, 2018","category":{"id":"b0babac0-675d-51af-aa7a-ce603b3a7af4","name":"Microsoft 365","slug":"/category/microsoft-365/","color":"#f25022","icon":"/static/363fdd53d34303b727d9dab161b8e88b/microsoft365.svg"},"author":{"id":"6f313320-531a-5f32-9a22-708cb7653896","name":"Simon Ågren","slug":"/author/simon-agren/","title":"CTA & Microsoft MVP","description":"Solving business problems with tech","skills":["Microsoft 365","Azure"],"social":[{"name":"Github","url":"https://github.com/simonagren"},{"name":"Twitter","url":"https://twitter.com/agrenpoint"},{"name":"Website","url":"https://agrenpoint.com"}],"thumbnail":{"__typename":"ImageSharp","ImageSharp_small":{"layout":"fixed","backgroundColor":"#f8f8f8","images":{"fallback":{"src":"/static/bdc8525039042bedd52c0cf7d15e8521/ac0cb/simon-agren.jpg","srcSet":"/static/bdc8525039042bedd52c0cf7d15e8521/ac0cb/simon-agren.jpg 48w,\n/static/bdc8525039042bedd52c0cf7d15e8521/73f48/simon-agren.jpg 96w","sizes":"48px"},"sources":[{"srcSet":"/static/bdc8525039042bedd52c0cf7d15e8521/a3542/simon-agren.webp 48w,\n/static/bdc8525039042bedd52c0cf7d15e8521/0f66d/simon-agren.webp 96w","type":"image/webp","sizes":"48px"}]},"width":48,"height":48},"ImageSharp_regular":{"layout":"fixed","backgroundColor":"#f8f8f8","images":{"fallback":{"src":"/static/bdc8525039042bedd52c0cf7d15e8521/f679f/simon-agren.jpg","srcSet":"/static/bdc8525039042bedd52c0cf7d15e8521/f679f/simon-agren.jpg 150w,\n/static/bdc8525039042bedd52c0cf7d15e8521/78d3d/simon-agren.jpg 300w","sizes":"150px"},"sources":[{"srcSet":"/static/bdc8525039042bedd52c0cf7d15e8521/ae23d/simon-agren.webp 150w,\n/static/bdc8525039042bedd52c0cf7d15e8521/bd37b/simon-agren.webp 300w","type":"image/webp","sizes":"150px"}]},"width":150,"height":150}}},"thumbnail":{"__typename":"ImageSharp","ImageSharp_vertical":{"layout":"constrained","backgroundColor":"#f8f8f8","images":{"fallback":{"src":"/static/b3efa29ae13967ac3136f9727b3cd824/144fe/success.jpg","srcSet":"/static/b3efa29ae13967ac3136f9727b3cd824/9d7b9/success.jpg 190w,\n/static/b3efa29ae13967ac3136f9727b3cd824/144fe/success.jpg 380w","sizes":"(min-width: 380px) 380px, 100vw"},"sources":[{"srcSet":"/static/b3efa29ae13967ac3136f9727b3cd824/228d6/success.webp 190w,\n/static/b3efa29ae13967ac3136f9727b3cd824/6b99c/success.webp 380w","type":"image/webp","sizes":"(min-width: 380px) 380px, 100vw"}]},"width":380,"height":290},"ImageSharp_hero":{"layout":"constrained","backgroundColor":"#f8f8f8","images":{"fallback":{"src":"/static/b3efa29ae13967ac3136f9727b3cd824/49675/success.jpg","srcSet":"/static/b3efa29ae13967ac3136f9727b3cd824/7463f/success.jpg 626w,\n/static/b3efa29ae13967ac3136f9727b3cd824/49675/success.jpg 1252w","sizes":"(min-width: 1252px) 1252px, 100vw"},"sources":[{"srcSet":"/static/b3efa29ae13967ac3136f9727b3cd824/509fe/success.webp 626w,\n/static/b3efa29ae13967ac3136f9727b3cd824/41f78/success.webp 1252w","type":"image/webp","sizes":"(min-width: 1252px) 1252px, 100vw"}]},"width":1600,"height":650.479233226837}}}],"pageInfo":{"pageCount":12,"hasPreviousPage":true,"hasNextPage":false,"currentPage":12},"totalCount":72}},"pageContext":{"slug":"/author/simon-agren/","limit":6,"skip":66,"collectionType":"author","paginatePostsPage":true,"basePath":"/","services":{"algolia":true,"mailchimp":false,"disqus":false,"graphComment":true,"facebookComment":false},"siteUrl":"https://www.agrenpoint.com","mobileMenu":{"title":"Topics","items":[{"name":"Azure","slug":"/category/azure/"},{"name":"Endpoint management","slug":"/category/endpoint-management/"},{"name":"Microsoft 365","slug":"/category/microsoft-365/"}]},"darkMode":true,"includeExcerpt":true,"includeTimeToRead":true,"includeTableOfContents":true,"imageQuality":75,"currentDate":"2026-03-02"}},"staticQueryHashes":["1992822086","2409295108","2925947909"]}