{"componentChunkName":"component---packages-blog-gatsby-blog-core-src-templates-collection-author-js","path":"/author/simon-agren/","result":{"data":{"collectionInfo":{"id":"6f313320-531a-5f32-9a22-708cb7653896","name":"Simon Ågren","slug":"/author/simon-agren/","title":"CTA & Microsoft MVP","description":"Solving business problems with tech","skills":["Microsoft 365","Azure"],"social":[{"name":"Github","url":"https://github.com/simonagren"},{"name":"Twitter","url":"https://twitter.com/agrenpoint"},{"name":"Website","url":"https://agrenpoint.com"}],"thumbnail":{"__typename":"ImageSharp","ImageSharp_small":{"layout":"fixed","placeholder":{"fallback":"data:image/svg+xml,%3csvg%20xmlns='http://www.w3.org/2000/svg'%20width='48'%20height='48'%20viewBox='0%200%2048%2048'%20preserveAspectRatio='none'%3e%3cpath%20d='M18%205h2c3%200%204%200%205%202%203%203%203%207%201%208s-2%202-2%204c1%203-2%206-4%204l-2%202c0%203-3%201-3-2%200-2%200-2-1-1V9c2-4-4%203-6%208-6%2012%203%2026%2017%2026%2011%200%2018-7%2018-19%200-8-3-12-12-17-7-4-9-5-13-2'%20fill='%23d3d3d3'%20fill-rule='evenodd'/%3e%3c/svg%3e"},"images":{"fallback":{"src":"/static/bdc8525039042bedd52c0cf7d15e8521/ac0cb/simon-agren.jpg","srcSet":"/static/bdc8525039042bedd52c0cf7d15e8521/ac0cb/simon-agren.jpg 48w,\n/static/bdc8525039042bedd52c0cf7d15e8521/73f48/simon-agren.jpg 96w","sizes":"48px"},"sources":[{"srcSet":"/static/bdc8525039042bedd52c0cf7d15e8521/a3542/simon-agren.webp 48w,\n/static/bdc8525039042bedd52c0cf7d15e8521/0f66d/simon-agren.webp 96w","type":"image/webp","sizes":"48px"}]},"width":48,"height":48},"ImageSharp_regular":{"layout":"fixed","placeholder":{"fallback":"data:image/svg+xml,%3csvg%20xmlns='http://www.w3.org/2000/svg'%20width='48'%20height='48'%20viewBox='0%200%2048%2048'%20preserveAspectRatio='none'%3e%3cpath%20d='M18%205h2c3%200%204%200%205%202%203%203%203%207%201%208s-2%202-2%204c1%203-2%206-4%204l-2%202c0%203-3%201-3-2%200-2%200-2-1-1V9c2-4-4%203-6%208-6%2012%203%2026%2017%2026%2011%200%2018-7%2018-19%200-8-3-12-12-17-7-4-9-5-13-2'%20fill='%23d3d3d3'%20fill-rule='evenodd'/%3e%3c/svg%3e"},"images":{"fallback":{"src":"/static/bdc8525039042bedd52c0cf7d15e8521/f679f/simon-agren.jpg","srcSet":"/static/bdc8525039042bedd52c0cf7d15e8521/f679f/simon-agren.jpg 150w,\n/static/bdc8525039042bedd52c0cf7d15e8521/78d3d/simon-agren.jpg 300w","sizes":"150px"},"sources":[{"srcSet":"/static/bdc8525039042bedd52c0cf7d15e8521/ae23d/simon-agren.webp 150w,\n/static/bdc8525039042bedd52c0cf7d15e8521/bd37b/simon-agren.webp 300w","type":"image/webp","sizes":"150px"}]},"width":150,"height":150}}},"posts":{"nodes":[{"id":"56429553-1a79-5f8f-8c8c-b5ce9755ed23","title":"Unveiling the Truth - Custom Sensitivity Label Colors","slug":"/unveiling-the-truth-custom-sensitivity-label-colors/","link":null,"excerpt":"In the previous post  Using Label Colors in Sensitivity Labels , we explored the significance of…","timeToRead":2,"featured":true,"thumbnailText":null,"date":"March 01, 2024","category":{"id":"b0babac0-675d-51af-aa7a-ce603b3a7af4","name":"Microsoft 365","slug":"/category/microsoft-365/","color":"#f25022","icon":"/static/363fdd53d34303b727d9dab161b8e88b/microsoft365.svg"},"author":{"id":"6f313320-531a-5f32-9a22-708cb7653896","name":"Simon Ågren","slug":"/author/simon-agren/","title":"CTA & Microsoft MVP","description":"Solving business problems with tech","skills":["Microsoft 365","Azure"],"social":[{"name":"Github","url":"https://github.com/simonagren"},{"name":"Twitter","url":"https://twitter.com/agrenpoint"},{"name":"Website","url":"https://agrenpoint.com"}],"thumbnail":{"__typename":"ImageSharp","ImageSharp_small":{"layout":"fixed","placeholder":{"fallback":"data:image/svg+xml,%3csvg%20xmlns='http://www.w3.org/2000/svg'%20width='48'%20height='48'%20viewBox='0%200%2048%2048'%20preserveAspectRatio='none'%3e%3cpath%20d='M18%205h2c3%200%204%200%205%202%203%203%203%207%201%208s-2%202-2%204c1%203-2%206-4%204l-2%202c0%203-3%201-3-2%200-2%200-2-1-1V9c2-4-4%203-6%208-6%2012%203%2026%2017%2026%2011%200%2018-7%2018-19%200-8-3-12-12-17-7-4-9-5-13-2'%20fill='%23d3d3d3'%20fill-rule='evenodd'/%3e%3c/svg%3e"},"images":{"fallback":{"src":"/static/bdc8525039042bedd52c0cf7d15e8521/ac0cb/simon-agren.jpg","srcSet":"/static/bdc8525039042bedd52c0cf7d15e8521/ac0cb/simon-agren.jpg 48w,\n/static/bdc8525039042bedd52c0cf7d15e8521/73f48/simon-agren.jpg 96w","sizes":"48px"},"sources":[{"srcSet":"/static/bdc8525039042bedd52c0cf7d15e8521/a3542/simon-agren.webp 48w,\n/static/bdc8525039042bedd52c0cf7d15e8521/0f66d/simon-agren.webp 96w","type":"image/webp","sizes":"48px"}]},"width":48,"height":48},"ImageSharp_regular":{"layout":"fixed","placeholder":{"fallback":"data:image/svg+xml,%3csvg%20xmlns='http://www.w3.org/2000/svg'%20width='48'%20height='48'%20viewBox='0%200%2048%2048'%20preserveAspectRatio='none'%3e%3cpath%20d='M18%205h2c3%200%204%200%205%202%203%203%203%207%201%208s-2%202-2%204c1%203-2%206-4%204l-2%202c0%203-3%201-3-2%200-2%200-2-1-1V9c2-4-4%203-6%208-6%2012%203%2026%2017%2026%2011%200%2018-7%2018-19%200-8-3-12-12-17-7-4-9-5-13-2'%20fill='%23d3d3d3'%20fill-rule='evenodd'/%3e%3c/svg%3e"},"images":{"fallback":{"src":"/static/bdc8525039042bedd52c0cf7d15e8521/f679f/simon-agren.jpg","srcSet":"/static/bdc8525039042bedd52c0cf7d15e8521/f679f/simon-agren.jpg 150w,\n/static/bdc8525039042bedd52c0cf7d15e8521/78d3d/simon-agren.jpg 300w","sizes":"150px"},"sources":[{"srcSet":"/static/bdc8525039042bedd52c0cf7d15e8521/ae23d/simon-agren.webp 150w,\n/static/bdc8525039042bedd52c0cf7d15e8521/bd37b/simon-agren.webp 300w","type":"image/webp","sizes":"150px"}]},"width":150,"height":150}}},"thumbnail":{"__typename":"ImageSharp","ImageSharp_vertical":{"layout":"constrained","backgroundColor":"#480808","images":{"fallback":{"src":"/static/992d87900c539c8da1ca8a4703fff786/144fe/image.jpg","srcSet":"/static/992d87900c539c8da1ca8a4703fff786/9d7b9/image.jpg 190w,\n/static/992d87900c539c8da1ca8a4703fff786/144fe/image.jpg 380w","sizes":"(min-width: 380px) 380px, 100vw"},"sources":[{"srcSet":"/static/992d87900c539c8da1ca8a4703fff786/228d6/image.webp 190w,\n/static/992d87900c539c8da1ca8a4703fff786/6b99c/image.webp 380w","type":"image/webp","sizes":"(min-width: 380px) 380px, 100vw"}]},"width":380,"height":290},"ImageSharp_hero":{"layout":"constrained","backgroundColor":"#480808","images":{"fallback":{"src":"/static/992d87900c539c8da1ca8a4703fff786/7a1ff/image.jpg","srcSet":"/static/992d87900c539c8da1ca8a4703fff786/a6b27/image.jpg 512w,\n/static/992d87900c539c8da1ca8a4703fff786/7a1ff/image.jpg 1024w","sizes":"(min-width: 1024px) 1024px, 100vw"},"sources":[{"srcSet":"/static/992d87900c539c8da1ca8a4703fff786/99476/image.webp 512w,\n/static/992d87900c539c8da1ca8a4703fff786/251f6/image.webp 1024w","type":"image/webp","sizes":"(min-width: 1024px) 1024px, 100vw"}]},"width":1600,"height":650}}},{"id":"fcd2fd85-3e5b-5e12-b7af-1cec65e818b4","title":"Microsoft 365 Copilot and Information Protection","slug":"/microsoft-365-copilot-and-information-protection/","link":null,"excerpt":"When it comes to safeguarding sensitive information, Microsoft Copilot adheres to a strict principle…","timeToRead":3,"featured":true,"thumbnailText":null,"date":"January 26, 2024","category":{"id":"b0babac0-675d-51af-aa7a-ce603b3a7af4","name":"Microsoft 365","slug":"/category/microsoft-365/","color":"#f25022","icon":"/static/363fdd53d34303b727d9dab161b8e88b/microsoft365.svg"},"author":{"id":"6f313320-531a-5f32-9a22-708cb7653896","name":"Simon Ågren","slug":"/author/simon-agren/","title":"CTA & Microsoft MVP","description":"Solving business problems with tech","skills":["Microsoft 365","Azure"],"social":[{"name":"Github","url":"https://github.com/simonagren"},{"name":"Twitter","url":"https://twitter.com/agrenpoint"},{"name":"Website","url":"https://agrenpoint.com"}],"thumbnail":{"__typename":"ImageSharp","ImageSharp_small":{"layout":"fixed","placeholder":{"fallback":"data:image/svg+xml,%3csvg%20xmlns='http://www.w3.org/2000/svg'%20width='48'%20height='48'%20viewBox='0%200%2048%2048'%20preserveAspectRatio='none'%3e%3cpath%20d='M18%205h2c3%200%204%200%205%202%203%203%203%207%201%208s-2%202-2%204c1%203-2%206-4%204l-2%202c0%203-3%201-3-2%200-2%200-2-1-1V9c2-4-4%203-6%208-6%2012%203%2026%2017%2026%2011%200%2018-7%2018-19%200-8-3-12-12-17-7-4-9-5-13-2'%20fill='%23d3d3d3'%20fill-rule='evenodd'/%3e%3c/svg%3e"},"images":{"fallback":{"src":"/static/bdc8525039042bedd52c0cf7d15e8521/ac0cb/simon-agren.jpg","srcSet":"/static/bdc8525039042bedd52c0cf7d15e8521/ac0cb/simon-agren.jpg 48w,\n/static/bdc8525039042bedd52c0cf7d15e8521/73f48/simon-agren.jpg 96w","sizes":"48px"},"sources":[{"srcSet":"/static/bdc8525039042bedd52c0cf7d15e8521/a3542/simon-agren.webp 48w,\n/static/bdc8525039042bedd52c0cf7d15e8521/0f66d/simon-agren.webp 96w","type":"image/webp","sizes":"48px"}]},"width":48,"height":48},"ImageSharp_regular":{"layout":"fixed","placeholder":{"fallback":"data:image/svg+xml,%3csvg%20xmlns='http://www.w3.org/2000/svg'%20width='48'%20height='48'%20viewBox='0%200%2048%2048'%20preserveAspectRatio='none'%3e%3cpath%20d='M18%205h2c3%200%204%200%205%202%203%203%203%207%201%208s-2%202-2%204c1%203-2%206-4%204l-2%202c0%203-3%201-3-2%200-2%200-2-1-1V9c2-4-4%203-6%208-6%2012%203%2026%2017%2026%2011%200%2018-7%2018-19%200-8-3-12-12-17-7-4-9-5-13-2'%20fill='%23d3d3d3'%20fill-rule='evenodd'/%3e%3c/svg%3e"},"images":{"fallback":{"src":"/static/bdc8525039042bedd52c0cf7d15e8521/f679f/simon-agren.jpg","srcSet":"/static/bdc8525039042bedd52c0cf7d15e8521/f679f/simon-agren.jpg 150w,\n/static/bdc8525039042bedd52c0cf7d15e8521/78d3d/simon-agren.jpg 300w","sizes":"150px"},"sources":[{"srcSet":"/static/bdc8525039042bedd52c0cf7d15e8521/ae23d/simon-agren.webp 150w,\n/static/bdc8525039042bedd52c0cf7d15e8521/bd37b/simon-agren.webp 300w","type":"image/webp","sizes":"150px"}]},"width":150,"height":150}}},"thumbnail":{"__typename":"ImageSharp","ImageSharp_vertical":{"layout":"constrained","backgroundColor":"#181838","images":{"fallback":{"src":"/static/dc09785296f8283dbeaa161d043d80f0/144fe/image.jpg","srcSet":"/static/dc09785296f8283dbeaa161d043d80f0/9d7b9/image.jpg 190w,\n/static/dc09785296f8283dbeaa161d043d80f0/144fe/image.jpg 380w","sizes":"(min-width: 380px) 380px, 100vw"},"sources":[{"srcSet":"/static/dc09785296f8283dbeaa161d043d80f0/228d6/image.webp 190w,\n/static/dc09785296f8283dbeaa161d043d80f0/6b99c/image.webp 380w","type":"image/webp","sizes":"(min-width: 380px) 380px, 100vw"}]},"width":380,"height":290},"ImageSharp_hero":{"layout":"constrained","backgroundColor":"#181838","images":{"fallback":{"src":"/static/dc09785296f8283dbeaa161d043d80f0/7a1ff/image.jpg","srcSet":"/static/dc09785296f8283dbeaa161d043d80f0/a6b27/image.jpg 512w,\n/static/dc09785296f8283dbeaa161d043d80f0/7a1ff/image.jpg 1024w","sizes":"(min-width: 1024px) 1024px, 100vw"},"sources":[{"srcSet":"/static/dc09785296f8283dbeaa161d043d80f0/99476/image.webp 512w,\n/static/dc09785296f8283dbeaa161d043d80f0/251f6/image.webp 1024w","type":"image/webp","sizes":"(min-width: 1024px) 1024px, 100vw"}]},"width":1600,"height":650}}},{"id":"ec0b5efa-7dc7-5854-bfb1-fa1619fbd587","title":"Container Labels in PowerShell","slug":"/container-labels-in-powershell/","link":null,"excerpt":"In our interconnected digital world, data moves effortlessly across platforms, applications, and…","timeToRead":2,"featured":true,"thumbnailText":null,"date":"November 15, 2023","category":{"id":"b0babac0-675d-51af-aa7a-ce603b3a7af4","name":"Microsoft 365","slug":"/category/microsoft-365/","color":"#f25022","icon":"/static/363fdd53d34303b727d9dab161b8e88b/microsoft365.svg"},"author":{"id":"6f313320-531a-5f32-9a22-708cb7653896","name":"Simon Ågren","slug":"/author/simon-agren/","title":"CTA & Microsoft MVP","description":"Solving business problems with tech","skills":["Microsoft 365","Azure"],"social":[{"name":"Github","url":"https://github.com/simonagren"},{"name":"Twitter","url":"https://twitter.com/agrenpoint"},{"name":"Website","url":"https://agrenpoint.com"}],"thumbnail":{"__typename":"ImageSharp","ImageSharp_small":{"layout":"fixed","placeholder":{"fallback":"data:image/svg+xml,%3csvg%20xmlns='http://www.w3.org/2000/svg'%20width='48'%20height='48'%20viewBox='0%200%2048%2048'%20preserveAspectRatio='none'%3e%3cpath%20d='M18%205h2c3%200%204%200%205%202%203%203%203%207%201%208s-2%202-2%204c1%203-2%206-4%204l-2%202c0%203-3%201-3-2%200-2%200-2-1-1V9c2-4-4%203-6%208-6%2012%203%2026%2017%2026%2011%200%2018-7%2018-19%200-8-3-12-12-17-7-4-9-5-13-2'%20fill='%23d3d3d3'%20fill-rule='evenodd'/%3e%3c/svg%3e"},"images":{"fallback":{"src":"/static/bdc8525039042bedd52c0cf7d15e8521/ac0cb/simon-agren.jpg","srcSet":"/static/bdc8525039042bedd52c0cf7d15e8521/ac0cb/simon-agren.jpg 48w,\n/static/bdc8525039042bedd52c0cf7d15e8521/73f48/simon-agren.jpg 96w","sizes":"48px"},"sources":[{"srcSet":"/static/bdc8525039042bedd52c0cf7d15e8521/a3542/simon-agren.webp 48w,\n/static/bdc8525039042bedd52c0cf7d15e8521/0f66d/simon-agren.webp 96w","type":"image/webp","sizes":"48px"}]},"width":48,"height":48},"ImageSharp_regular":{"layout":"fixed","placeholder":{"fallback":"data:image/svg+xml,%3csvg%20xmlns='http://www.w3.org/2000/svg'%20width='48'%20height='48'%20viewBox='0%200%2048%2048'%20preserveAspectRatio='none'%3e%3cpath%20d='M18%205h2c3%200%204%200%205%202%203%203%203%207%201%208s-2%202-2%204c1%203-2%206-4%204l-2%202c0%203-3%201-3-2%200-2%200-2-1-1V9c2-4-4%203-6%208-6%2012%203%2026%2017%2026%2011%200%2018-7%2018-19%200-8-3-12-12-17-7-4-9-5-13-2'%20fill='%23d3d3d3'%20fill-rule='evenodd'/%3e%3c/svg%3e"},"images":{"fallback":{"src":"/static/bdc8525039042bedd52c0cf7d15e8521/f679f/simon-agren.jpg","srcSet":"/static/bdc8525039042bedd52c0cf7d15e8521/f679f/simon-agren.jpg 150w,\n/static/bdc8525039042bedd52c0cf7d15e8521/78d3d/simon-agren.jpg 300w","sizes":"150px"},"sources":[{"srcSet":"/static/bdc8525039042bedd52c0cf7d15e8521/ae23d/simon-agren.webp 150w,\n/static/bdc8525039042bedd52c0cf7d15e8521/bd37b/simon-agren.webp 300w","type":"image/webp","sizes":"150px"}]},"width":150,"height":150}}},"thumbnail":{"__typename":"ImageSharp","ImageSharp_vertical":{"layout":"constrained","backgroundColor":"#083898","images":{"fallback":{"src":"/static/af3ec49eaa10de1dc0c642ba8a312e9a/144fe/image.jpg","srcSet":"/static/af3ec49eaa10de1dc0c642ba8a312e9a/9d7b9/image.jpg 190w,\n/static/af3ec49eaa10de1dc0c642ba8a312e9a/144fe/image.jpg 380w","sizes":"(min-width: 380px) 380px, 100vw"},"sources":[{"srcSet":"/static/af3ec49eaa10de1dc0c642ba8a312e9a/228d6/image.webp 190w,\n/static/af3ec49eaa10de1dc0c642ba8a312e9a/6b99c/image.webp 380w","type":"image/webp","sizes":"(min-width: 380px) 380px, 100vw"}]},"width":380,"height":290},"ImageSharp_hero":{"layout":"constrained","backgroundColor":"#083898","images":{"fallback":{"src":"/static/af3ec49eaa10de1dc0c642ba8a312e9a/7a1ff/image.jpg","srcSet":"/static/af3ec49eaa10de1dc0c642ba8a312e9a/a6b27/image.jpg 512w,\n/static/af3ec49eaa10de1dc0c642ba8a312e9a/7a1ff/image.jpg 1024w","sizes":"(min-width: 1024px) 1024px, 100vw"},"sources":[{"srcSet":"/static/af3ec49eaa10de1dc0c642ba8a312e9a/99476/image.webp 512w,\n/static/af3ec49eaa10de1dc0c642ba8a312e9a/251f6/image.webp 1024w","type":"image/webp","sizes":"(min-width: 1024px) 1024px, 100vw"}]},"width":1600,"height":650}}},{"id":"304a800e-5bec-5ef1-8cc6-d7c2b5655cdc","title":"Unlocking the Power of Multilingual Sensitivity Labels","slug":"/unlocking-the-power-of-multilingual-sensitivity-labels/","link":null,"excerpt":"Multilingual sensitivity labels bridge linguistic gaps in our global data landscape. \nThey protect…","timeToRead":1,"featured":true,"thumbnailText":null,"date":"October 10, 2023","category":{"id":"b0babac0-675d-51af-aa7a-ce603b3a7af4","name":"Microsoft 365","slug":"/category/microsoft-365/","color":"#f25022","icon":"/static/363fdd53d34303b727d9dab161b8e88b/microsoft365.svg"},"author":{"id":"6f313320-531a-5f32-9a22-708cb7653896","name":"Simon Ågren","slug":"/author/simon-agren/","title":"CTA & Microsoft MVP","description":"Solving business problems with tech","skills":["Microsoft 365","Azure"],"social":[{"name":"Github","url":"https://github.com/simonagren"},{"name":"Twitter","url":"https://twitter.com/agrenpoint"},{"name":"Website","url":"https://agrenpoint.com"}],"thumbnail":{"__typename":"ImageSharp","ImageSharp_small":{"layout":"fixed","placeholder":{"fallback":"data:image/svg+xml,%3csvg%20xmlns='http://www.w3.org/2000/svg'%20width='48'%20height='48'%20viewBox='0%200%2048%2048'%20preserveAspectRatio='none'%3e%3cpath%20d='M18%205h2c3%200%204%200%205%202%203%203%203%207%201%208s-2%202-2%204c1%203-2%206-4%204l-2%202c0%203-3%201-3-2%200-2%200-2-1-1V9c2-4-4%203-6%208-6%2012%203%2026%2017%2026%2011%200%2018-7%2018-19%200-8-3-12-12-17-7-4-9-5-13-2'%20fill='%23d3d3d3'%20fill-rule='evenodd'/%3e%3c/svg%3e"},"images":{"fallback":{"src":"/static/bdc8525039042bedd52c0cf7d15e8521/ac0cb/simon-agren.jpg","srcSet":"/static/bdc8525039042bedd52c0cf7d15e8521/ac0cb/simon-agren.jpg 48w,\n/static/bdc8525039042bedd52c0cf7d15e8521/73f48/simon-agren.jpg 96w","sizes":"48px"},"sources":[{"srcSet":"/static/bdc8525039042bedd52c0cf7d15e8521/a3542/simon-agren.webp 48w,\n/static/bdc8525039042bedd52c0cf7d15e8521/0f66d/simon-agren.webp 96w","type":"image/webp","sizes":"48px"}]},"width":48,"height":48},"ImageSharp_regular":{"layout":"fixed","placeholder":{"fallback":"data:image/svg+xml,%3csvg%20xmlns='http://www.w3.org/2000/svg'%20width='48'%20height='48'%20viewBox='0%200%2048%2048'%20preserveAspectRatio='none'%3e%3cpath%20d='M18%205h2c3%200%204%200%205%202%203%203%203%207%201%208s-2%202-2%204c1%203-2%206-4%204l-2%202c0%203-3%201-3-2%200-2%200-2-1-1V9c2-4-4%203-6%208-6%2012%203%2026%2017%2026%2011%200%2018-7%2018-19%200-8-3-12-12-17-7-4-9-5-13-2'%20fill='%23d3d3d3'%20fill-rule='evenodd'/%3e%3c/svg%3e"},"images":{"fallback":{"src":"/static/bdc8525039042bedd52c0cf7d15e8521/f679f/simon-agren.jpg","srcSet":"/static/bdc8525039042bedd52c0cf7d15e8521/f679f/simon-agren.jpg 150w,\n/static/bdc8525039042bedd52c0cf7d15e8521/78d3d/simon-agren.jpg 300w","sizes":"150px"},"sources":[{"srcSet":"/static/bdc8525039042bedd52c0cf7d15e8521/ae23d/simon-agren.webp 150w,\n/static/bdc8525039042bedd52c0cf7d15e8521/bd37b/simon-agren.webp 300w","type":"image/webp","sizes":"150px"}]},"width":150,"height":150}}},"thumbnail":{"__typename":"ImageSharp","ImageSharp_vertical":{"layout":"constrained","backgroundColor":"#080828","images":{"fallback":{"src":"/static/53246ca9afd1cc41dcacb2ba5538e49d/144fe/image.jpg","srcSet":"/static/53246ca9afd1cc41dcacb2ba5538e49d/9d7b9/image.jpg 190w,\n/static/53246ca9afd1cc41dcacb2ba5538e49d/144fe/image.jpg 380w","sizes":"(min-width: 380px) 380px, 100vw"},"sources":[{"srcSet":"/static/53246ca9afd1cc41dcacb2ba5538e49d/228d6/image.webp 190w,\n/static/53246ca9afd1cc41dcacb2ba5538e49d/6b99c/image.webp 380w","type":"image/webp","sizes":"(min-width: 380px) 380px, 100vw"}]},"width":380,"height":290},"ImageSharp_hero":{"layout":"constrained","backgroundColor":"#080828","images":{"fallback":{"src":"/static/53246ca9afd1cc41dcacb2ba5538e49d/7a1ff/image.jpg","srcSet":"/static/53246ca9afd1cc41dcacb2ba5538e49d/a6b27/image.jpg 512w,\n/static/53246ca9afd1cc41dcacb2ba5538e49d/7a1ff/image.jpg 1024w","sizes":"(min-width: 1024px) 1024px, 100vw"},"sources":[{"srcSet":"/static/53246ca9afd1cc41dcacb2ba5538e49d/99476/image.webp 512w,\n/static/53246ca9afd1cc41dcacb2ba5538e49d/251f6/image.webp 1024w","type":"image/webp","sizes":"(min-width: 1024px) 1024px, 100vw"}]},"width":1600,"height":650}}},{"id":"a9c3788d-aeb8-536a-92a5-b539c3bb1f6a","title":"Using Label Colors in Sensitivity Labels","slug":"/using-label-colors-in-sensitivity-labels/","link":null,"excerpt":"Why Use Label Colors? When it comes to safeguarding your organization's data,  color speaks volumes…","timeToRead":2,"featured":true,"thumbnailText":null,"date":"September 01, 2023","category":{"id":"b0babac0-675d-51af-aa7a-ce603b3a7af4","name":"Microsoft 365","slug":"/category/microsoft-365/","color":"#f25022","icon":"/static/363fdd53d34303b727d9dab161b8e88b/microsoft365.svg"},"author":{"id":"6f313320-531a-5f32-9a22-708cb7653896","name":"Simon Ågren","slug":"/author/simon-agren/","title":"CTA & Microsoft MVP","description":"Solving business problems with tech","skills":["Microsoft 365","Azure"],"social":[{"name":"Github","url":"https://github.com/simonagren"},{"name":"Twitter","url":"https://twitter.com/agrenpoint"},{"name":"Website","url":"https://agrenpoint.com"}],"thumbnail":{"__typename":"ImageSharp","ImageSharp_small":{"layout":"fixed","placeholder":{"fallback":"data:image/svg+xml,%3csvg%20xmlns='http://www.w3.org/2000/svg'%20width='48'%20height='48'%20viewBox='0%200%2048%2048'%20preserveAspectRatio='none'%3e%3cpath%20d='M18%205h2c3%200%204%200%205%202%203%203%203%207%201%208s-2%202-2%204c1%203-2%206-4%204l-2%202c0%203-3%201-3-2%200-2%200-2-1-1V9c2-4-4%203-6%208-6%2012%203%2026%2017%2026%2011%200%2018-7%2018-19%200-8-3-12-12-17-7-4-9-5-13-2'%20fill='%23d3d3d3'%20fill-rule='evenodd'/%3e%3c/svg%3e"},"images":{"fallback":{"src":"/static/bdc8525039042bedd52c0cf7d15e8521/ac0cb/simon-agren.jpg","srcSet":"/static/bdc8525039042bedd52c0cf7d15e8521/ac0cb/simon-agren.jpg 48w,\n/static/bdc8525039042bedd52c0cf7d15e8521/73f48/simon-agren.jpg 96w","sizes":"48px"},"sources":[{"srcSet":"/static/bdc8525039042bedd52c0cf7d15e8521/a3542/simon-agren.webp 48w,\n/static/bdc8525039042bedd52c0cf7d15e8521/0f66d/simon-agren.webp 96w","type":"image/webp","sizes":"48px"}]},"width":48,"height":48},"ImageSharp_regular":{"layout":"fixed","placeholder":{"fallback":"data:image/svg+xml,%3csvg%20xmlns='http://www.w3.org/2000/svg'%20width='48'%20height='48'%20viewBox='0%200%2048%2048'%20preserveAspectRatio='none'%3e%3cpath%20d='M18%205h2c3%200%204%200%205%202%203%203%203%207%201%208s-2%202-2%204c1%203-2%206-4%204l-2%202c0%203-3%201-3-2%200-2%200-2-1-1V9c2-4-4%203-6%208-6%2012%203%2026%2017%2026%2011%200%2018-7%2018-19%200-8-3-12-12-17-7-4-9-5-13-2'%20fill='%23d3d3d3'%20fill-rule='evenodd'/%3e%3c/svg%3e"},"images":{"fallback":{"src":"/static/bdc8525039042bedd52c0cf7d15e8521/f679f/simon-agren.jpg","srcSet":"/static/bdc8525039042bedd52c0cf7d15e8521/f679f/simon-agren.jpg 150w,\n/static/bdc8525039042bedd52c0cf7d15e8521/78d3d/simon-agren.jpg 300w","sizes":"150px"},"sources":[{"srcSet":"/static/bdc8525039042bedd52c0cf7d15e8521/ae23d/simon-agren.webp 150w,\n/static/bdc8525039042bedd52c0cf7d15e8521/bd37b/simon-agren.webp 300w","type":"image/webp","sizes":"150px"}]},"width":150,"height":150}}},"thumbnail":{"__typename":"ImageSharp","ImageSharp_vertical":{"layout":"constrained","backgroundColor":"#083878","images":{"fallback":{"src":"/static/9c398cae6a6a6331a8465d049aa0f816/144fe/image.jpg","srcSet":"/static/9c398cae6a6a6331a8465d049aa0f816/9d7b9/image.jpg 190w,\n/static/9c398cae6a6a6331a8465d049aa0f816/144fe/image.jpg 380w","sizes":"(min-width: 380px) 380px, 100vw"},"sources":[{"srcSet":"/static/9c398cae6a6a6331a8465d049aa0f816/228d6/image.webp 190w,\n/static/9c398cae6a6a6331a8465d049aa0f816/6b99c/image.webp 380w","type":"image/webp","sizes":"(min-width: 380px) 380px, 100vw"}]},"width":380,"height":290},"ImageSharp_hero":{"layout":"constrained","backgroundColor":"#083878","images":{"fallback":{"src":"/static/9c398cae6a6a6331a8465d049aa0f816/7a1ff/image.jpg","srcSet":"/static/9c398cae6a6a6331a8465d049aa0f816/a6b27/image.jpg 512w,\n/static/9c398cae6a6a6331a8465d049aa0f816/7a1ff/image.jpg 1024w","sizes":"(min-width: 1024px) 1024px, 100vw"},"sources":[{"srcSet":"/static/9c398cae6a6a6331a8465d049aa0f816/99476/image.webp 512w,\n/static/9c398cae6a6a6331a8465d049aa0f816/251f6/image.webp 1024w","type":"image/webp","sizes":"(min-width: 1024px) 1024px, 100vw"}]},"width":1600,"height":650}}},{"id":"31862850-9115-5dcb-b992-f5370456e5f7","title":"Advanced item sensitivity labels in PowerShell - Part 3","slug":"/advanced-item-sensitivity-labels-in-powershell-part-3/","link":null,"excerpt":"Welcome back to our exploration of the intricate world of sensitivity labels! In this segment, we'll…","timeToRead":1,"featured":true,"thumbnailText":null,"date":"June 30, 2023","category":{"id":"b0babac0-675d-51af-aa7a-ce603b3a7af4","name":"Microsoft 365","slug":"/category/microsoft-365/","color":"#f25022","icon":"/static/363fdd53d34303b727d9dab161b8e88b/microsoft365.svg"},"author":{"id":"6f313320-531a-5f32-9a22-708cb7653896","name":"Simon Ågren","slug":"/author/simon-agren/","title":"CTA & Microsoft MVP","description":"Solving business problems with tech","skills":["Microsoft 365","Azure"],"social":[{"name":"Github","url":"https://github.com/simonagren"},{"name":"Twitter","url":"https://twitter.com/agrenpoint"},{"name":"Website","url":"https://agrenpoint.com"}],"thumbnail":{"__typename":"ImageSharp","ImageSharp_small":{"layout":"fixed","placeholder":{"fallback":"data:image/svg+xml,%3csvg%20xmlns='http://www.w3.org/2000/svg'%20width='48'%20height='48'%20viewBox='0%200%2048%2048'%20preserveAspectRatio='none'%3e%3cpath%20d='M18%205h2c3%200%204%200%205%202%203%203%203%207%201%208s-2%202-2%204c1%203-2%206-4%204l-2%202c0%203-3%201-3-2%200-2%200-2-1-1V9c2-4-4%203-6%208-6%2012%203%2026%2017%2026%2011%200%2018-7%2018-19%200-8-3-12-12-17-7-4-9-5-13-2'%20fill='%23d3d3d3'%20fill-rule='evenodd'/%3e%3c/svg%3e"},"images":{"fallback":{"src":"/static/bdc8525039042bedd52c0cf7d15e8521/ac0cb/simon-agren.jpg","srcSet":"/static/bdc8525039042bedd52c0cf7d15e8521/ac0cb/simon-agren.jpg 48w,\n/static/bdc8525039042bedd52c0cf7d15e8521/73f48/simon-agren.jpg 96w","sizes":"48px"},"sources":[{"srcSet":"/static/bdc8525039042bedd52c0cf7d15e8521/a3542/simon-agren.webp 48w,\n/static/bdc8525039042bedd52c0cf7d15e8521/0f66d/simon-agren.webp 96w","type":"image/webp","sizes":"48px"}]},"width":48,"height":48},"ImageSharp_regular":{"layout":"fixed","placeholder":{"fallback":"data:image/svg+xml,%3csvg%20xmlns='http://www.w3.org/2000/svg'%20width='48'%20height='48'%20viewBox='0%200%2048%2048'%20preserveAspectRatio='none'%3e%3cpath%20d='M18%205h2c3%200%204%200%205%202%203%203%203%207%201%208s-2%202-2%204c1%203-2%206-4%204l-2%202c0%203-3%201-3-2%200-2%200-2-1-1V9c2-4-4%203-6%208-6%2012%203%2026%2017%2026%2011%200%2018-7%2018-19%200-8-3-12-12-17-7-4-9-5-13-2'%20fill='%23d3d3d3'%20fill-rule='evenodd'/%3e%3c/svg%3e"},"images":{"fallback":{"src":"/static/bdc8525039042bedd52c0cf7d15e8521/f679f/simon-agren.jpg","srcSet":"/static/bdc8525039042bedd52c0cf7d15e8521/f679f/simon-agren.jpg 150w,\n/static/bdc8525039042bedd52c0cf7d15e8521/78d3d/simon-agren.jpg 300w","sizes":"150px"},"sources":[{"srcSet":"/static/bdc8525039042bedd52c0cf7d15e8521/ae23d/simon-agren.webp 150w,\n/static/bdc8525039042bedd52c0cf7d15e8521/bd37b/simon-agren.webp 300w","type":"image/webp","sizes":"150px"}]},"width":150,"height":150}}},"thumbnail":{"__typename":"ImageSharp","ImageSharp_vertical":{"layout":"constrained","backgroundColor":"#081868","images":{"fallback":{"src":"/static/f6781fc847a106799be9379a610791c6/144fe/image.jpg","srcSet":"/static/f6781fc847a106799be9379a610791c6/9d7b9/image.jpg 190w,\n/static/f6781fc847a106799be9379a610791c6/144fe/image.jpg 380w","sizes":"(min-width: 380px) 380px, 100vw"},"sources":[{"srcSet":"/static/f6781fc847a106799be9379a610791c6/228d6/image.webp 190w,\n/static/f6781fc847a106799be9379a610791c6/6b99c/image.webp 380w","type":"image/webp","sizes":"(min-width: 380px) 380px, 100vw"}]},"width":380,"height":290},"ImageSharp_hero":{"layout":"constrained","backgroundColor":"#081868","images":{"fallback":{"src":"/static/f6781fc847a106799be9379a610791c6/7a1ff/image.jpg","srcSet":"/static/f6781fc847a106799be9379a610791c6/a6b27/image.jpg 512w,\n/static/f6781fc847a106799be9379a610791c6/7a1ff/image.jpg 1024w","sizes":"(min-width: 1024px) 1024px, 100vw"},"sources":[{"srcSet":"/static/f6781fc847a106799be9379a610791c6/99476/image.webp 512w,\n/static/f6781fc847a106799be9379a610791c6/251f6/image.webp 1024w","type":"image/webp","sizes":"(min-width: 1024px) 1024px, 100vw"}]},"width":1600,"height":650}}}],"pageInfo":{"pageCount":11,"hasPreviousPage":false,"hasNextPage":true,"currentPage":1},"totalCount":63}},"pageContext":{"slug":"/author/simon-agren/","limit":6,"skip":0,"collectionType":"author","paginatePostsPage":true,"basePath":"/","services":{"algolia":true,"mailchimp":false,"disqus":false,"graphComment":true,"facebookComment":false},"siteUrl":"https://www.agrenpoint.com","mobileMenu":{"title":"Topics","items":[{"name":"Azure","slug":"/category/azure/"},{"name":"Endpoint management","slug":"/category/endpoint-management/"},{"name":"Microsoft 365","slug":"/category/microsoft-365/"}]},"darkMode":true,"includeExcerpt":true,"includeTimeToRead":true,"includeTableOfContents":true,"imageQuality":75,"currentDate":"2024-12-18"}},"staticQueryHashes":["1992822086","2409295108","2925947909"]}