{"componentChunkName":"component---packages-blog-gatsby-blog-core-src-templates-collection-tag-js","path":"/tag/pnp/","result":{"data":{"collectionInfo":{"id":"6713309e-fa1a-584b-960e-f8bec674ab65","name":"pnp","slug":"/tag/pnp/"},"posts":{"nodes":[{"id":"49e2220d-3fd1-5575-b6c9-411f48106fbe","title":"PnP PowerShell - MFA account and Client Id","slug":"/pnp-powershell-mfa-account-and-client-id/","link":null,"excerpt":"The background of this post is that I got a question from a friend of mine. He was in a situation…","timeToRead":2,"featured":null,"thumbnailText":null,"date":"May 09, 2021","category":{"id":"b0babac0-675d-51af-aa7a-ce603b3a7af4","name":"Microsoft 365","slug":"/category/microsoft-365/","color":"#f25022","icon":"/static/363fdd53d34303b727d9dab161b8e88b/microsoft365.svg"},"author":{"id":"6f313320-531a-5f32-9a22-708cb7653896","name":"Simon Ågren","slug":"/author/simon-agren/","title":"CTA & Microsoft MVP","description":"Solving business problems with tech","skills":["Microsoft 365","Azure"],"social":[{"name":"Github","url":"https://github.com/simonagren"},{"name":"Twitter","url":"https://twitter.com/agrenpoint"},{"name":"Website","url":"https://agrenpoint.com"}],"thumbnail":{"__typename":"ImageSharp","ImageSharp_small":{"layout":"fixed","backgroundColor":"#f8f8f8","images":{"fallback":{"src":"/static/bdc8525039042bedd52c0cf7d15e8521/ac0cb/simon-agren.jpg","srcSet":"/static/bdc8525039042bedd52c0cf7d15e8521/ac0cb/simon-agren.jpg 48w,\n/static/bdc8525039042bedd52c0cf7d15e8521/73f48/simon-agren.jpg 96w","sizes":"48px"},"sources":[{"srcSet":"/static/bdc8525039042bedd52c0cf7d15e8521/a3542/simon-agren.webp 48w,\n/static/bdc8525039042bedd52c0cf7d15e8521/0f66d/simon-agren.webp 96w","type":"image/webp","sizes":"48px"}]},"width":48,"height":48},"ImageSharp_regular":{"layout":"fixed","backgroundColor":"#f8f8f8","images":{"fallback":{"src":"/static/bdc8525039042bedd52c0cf7d15e8521/f679f/simon-agren.jpg","srcSet":"/static/bdc8525039042bedd52c0cf7d15e8521/f679f/simon-agren.jpg 150w,\n/static/bdc8525039042bedd52c0cf7d15e8521/78d3d/simon-agren.jpg 300w","sizes":"150px"},"sources":[{"srcSet":"/static/bdc8525039042bedd52c0cf7d15e8521/ae23d/simon-agren.webp 150w,\n/static/bdc8525039042bedd52c0cf7d15e8521/bd37b/simon-agren.webp 300w","type":"image/webp","sizes":"150px"}]},"width":150,"height":150}}},"thumbnail":{"__typename":"ImageSharp","ImageSharp_vertical":{"layout":"constrained","backgroundColor":"#0878d8","images":{"fallback":{"src":"/static/2b3f18f10d74ac2dd7b40c9d152b1f9c/19188/pnppsmfa.png","srcSet":"/static/2b3f18f10d74ac2dd7b40c9d152b1f9c/db297/pnppsmfa.png 190w,\n/static/2b3f18f10d74ac2dd7b40c9d152b1f9c/19188/pnppsmfa.png 380w","sizes":"(min-width: 380px) 380px, 100vw"},"sources":[{"srcSet":"/static/2b3f18f10d74ac2dd7b40c9d152b1f9c/228d6/pnppsmfa.webp 190w,\n/static/2b3f18f10d74ac2dd7b40c9d152b1f9c/6b99c/pnppsmfa.webp 380w","type":"image/webp","sizes":"(min-width: 380px) 380px, 100vw"}]},"width":380,"height":290},"ImageSharp_hero":{"layout":"constrained","backgroundColor":"#0878d8","images":{"fallback":{"src":"/static/2b3f18f10d74ac2dd7b40c9d152b1f9c/945a8/pnppsmfa.png","srcSet":"/static/2b3f18f10d74ac2dd7b40c9d152b1f9c/17e9b/pnppsmfa.png 800w,\n/static/2b3f18f10d74ac2dd7b40c9d152b1f9c/945a8/pnppsmfa.png 1600w","sizes":"(min-width: 1600px) 1600px, 100vw"},"sources":[{"srcSet":"/static/2b3f18f10d74ac2dd7b40c9d152b1f9c/c9f06/pnppsmfa.webp 800w,\n/static/2b3f18f10d74ac2dd7b40c9d152b1f9c/f47df/pnppsmfa.webp 1600w","type":"image/webp","sizes":"(min-width: 1600px) 1600px, 100vw"}]},"width":1600,"height":650}}},{"id":"b6689366-45b3-5174-8830-400620fdce6a","title":"PnP PowerShell - Consent and Authentication","slug":"/pnp-powershell-consent-and-authentication/","link":null,"excerpt":"When it comes to authentication in PnP Powershell, the team have done great work providing a variety…","timeToRead":3,"featured":null,"thumbnailText":null,"date":"May 01, 2021","category":{"id":"b0babac0-675d-51af-aa7a-ce603b3a7af4","name":"Microsoft 365","slug":"/category/microsoft-365/","color":"#f25022","icon":"/static/363fdd53d34303b727d9dab161b8e88b/microsoft365.svg"},"author":{"id":"6f313320-531a-5f32-9a22-708cb7653896","name":"Simon Ågren","slug":"/author/simon-agren/","title":"CTA & Microsoft MVP","description":"Solving business problems with tech","skills":["Microsoft 365","Azure"],"social":[{"name":"Github","url":"https://github.com/simonagren"},{"name":"Twitter","url":"https://twitter.com/agrenpoint"},{"name":"Website","url":"https://agrenpoint.com"}],"thumbnail":{"__typename":"ImageSharp","ImageSharp_small":{"layout":"fixed","backgroundColor":"#f8f8f8","images":{"fallback":{"src":"/static/bdc8525039042bedd52c0cf7d15e8521/ac0cb/simon-agren.jpg","srcSet":"/static/bdc8525039042bedd52c0cf7d15e8521/ac0cb/simon-agren.jpg 48w,\n/static/bdc8525039042bedd52c0cf7d15e8521/73f48/simon-agren.jpg 96w","sizes":"48px"},"sources":[{"srcSet":"/static/bdc8525039042bedd52c0cf7d15e8521/a3542/simon-agren.webp 48w,\n/static/bdc8525039042bedd52c0cf7d15e8521/0f66d/simon-agren.webp 96w","type":"image/webp","sizes":"48px"}]},"width":48,"height":48},"ImageSharp_regular":{"layout":"fixed","backgroundColor":"#f8f8f8","images":{"fallback":{"src":"/static/bdc8525039042bedd52c0cf7d15e8521/f679f/simon-agren.jpg","srcSet":"/static/bdc8525039042bedd52c0cf7d15e8521/f679f/simon-agren.jpg 150w,\n/static/bdc8525039042bedd52c0cf7d15e8521/78d3d/simon-agren.jpg 300w","sizes":"150px"},"sources":[{"srcSet":"/static/bdc8525039042bedd52c0cf7d15e8521/ae23d/simon-agren.webp 150w,\n/static/bdc8525039042bedd52c0cf7d15e8521/bd37b/simon-agren.webp 300w","type":"image/webp","sizes":"150px"}]},"width":150,"height":150}}},"thumbnail":{"__typename":"ImageSharp","ImageSharp_vertical":{"layout":"constrained","backgroundColor":"#0878d8","images":{"fallback":{"src":"/static/dfdce5ddee3f9222cf6cde508b3917fa/19188/pnppsauth.png","srcSet":"/static/dfdce5ddee3f9222cf6cde508b3917fa/db297/pnppsauth.png 190w,\n/static/dfdce5ddee3f9222cf6cde508b3917fa/19188/pnppsauth.png 380w","sizes":"(min-width: 380px) 380px, 100vw"},"sources":[{"srcSet":"/static/dfdce5ddee3f9222cf6cde508b3917fa/228d6/pnppsauth.webp 190w,\n/static/dfdce5ddee3f9222cf6cde508b3917fa/6b99c/pnppsauth.webp 380w","type":"image/webp","sizes":"(min-width: 380px) 380px, 100vw"}]},"width":380,"height":290},"ImageSharp_hero":{"layout":"constrained","backgroundColor":"#0878d8","images":{"fallback":{"src":"/static/dfdce5ddee3f9222cf6cde508b3917fa/5fb32/pnppsauth.png","srcSet":"/static/dfdce5ddee3f9222cf6cde508b3917fa/739fd/pnppsauth.png 600w,\n/static/dfdce5ddee3f9222cf6cde508b3917fa/5fb32/pnppsauth.png 1200w","sizes":"(min-width: 1200px) 1200px, 100vw"},"sources":[{"srcSet":"/static/dfdce5ddee3f9222cf6cde508b3917fa/288e3/pnppsauth.webp 600w,\n/static/dfdce5ddee3f9222cf6cde508b3917fa/5b893/pnppsauth.webp 1200w","type":"image/webp","sizes":"(min-width: 1200px) 1200px, 100vw"}]},"width":1600,"height":650.6666666666666}}},{"id":"47fa3c51-0e3f-5954-bc51-298d260844de","title":"Bot Framework in Node.js - Adaptive Cards (part 7)","slug":"/azurebot-nodejs-part7/","link":null,"excerpt":"In the previous post, we added some helpers and enabled the user to call Microsoft Graph. We used…","timeToRead":3,"featured":null,"thumbnailText":null,"date":"April 08, 2021","category":{"id":"64f10eaf-091c-555c-a28e-13a12e934b04","name":"Azure","slug":"/category/azure/","color":"#007fff","icon":"/static/660faf3683bb1a8489baa9402bf62165/azure.svg"},"author":{"id":"6f313320-531a-5f32-9a22-708cb7653896","name":"Simon Ågren","slug":"/author/simon-agren/","title":"CTA & Microsoft MVP","description":"Solving business problems with tech","skills":["Microsoft 365","Azure"],"social":[{"name":"Github","url":"https://github.com/simonagren"},{"name":"Twitter","url":"https://twitter.com/agrenpoint"},{"name":"Website","url":"https://agrenpoint.com"}],"thumbnail":{"__typename":"ImageSharp","ImageSharp_small":{"layout":"fixed","backgroundColor":"#f8f8f8","images":{"fallback":{"src":"/static/bdc8525039042bedd52c0cf7d15e8521/ac0cb/simon-agren.jpg","srcSet":"/static/bdc8525039042bedd52c0cf7d15e8521/ac0cb/simon-agren.jpg 48w,\n/static/bdc8525039042bedd52c0cf7d15e8521/73f48/simon-agren.jpg 96w","sizes":"48px"},"sources":[{"srcSet":"/static/bdc8525039042bedd52c0cf7d15e8521/a3542/simon-agren.webp 48w,\n/static/bdc8525039042bedd52c0cf7d15e8521/0f66d/simon-agren.webp 96w","type":"image/webp","sizes":"48px"}]},"width":48,"height":48},"ImageSharp_regular":{"layout":"fixed","backgroundColor":"#f8f8f8","images":{"fallback":{"src":"/static/bdc8525039042bedd52c0cf7d15e8521/f679f/simon-agren.jpg","srcSet":"/static/bdc8525039042bedd52c0cf7d15e8521/f679f/simon-agren.jpg 150w,\n/static/bdc8525039042bedd52c0cf7d15e8521/78d3d/simon-agren.jpg 300w","sizes":"150px"},"sources":[{"srcSet":"/static/bdc8525039042bedd52c0cf7d15e8521/ae23d/simon-agren.webp 150w,\n/static/bdc8525039042bedd52c0cf7d15e8521/bd37b/simon-agren.webp 300w","type":"image/webp","sizes":"150px"}]},"width":150,"height":150}}},"thumbnail":{"__typename":"ImageSharp","ImageSharp_vertical":{"layout":"constrained","backgroundColor":"#3898d8","images":{"fallback":{"src":"/static/b8577e12e0c806356bde4bd7135e8bcf/19188/botframework7.png","srcSet":"/static/b8577e12e0c806356bde4bd7135e8bcf/db297/botframework7.png 190w,\n/static/b8577e12e0c806356bde4bd7135e8bcf/19188/botframework7.png 380w","sizes":"(min-width: 380px) 380px, 100vw"},"sources":[{"srcSet":"/static/b8577e12e0c806356bde4bd7135e8bcf/228d6/botframework7.webp 190w,\n/static/b8577e12e0c806356bde4bd7135e8bcf/6b99c/botframework7.webp 380w","type":"image/webp","sizes":"(min-width: 380px) 380px, 100vw"}]},"width":380,"height":290},"ImageSharp_hero":{"layout":"constrained","backgroundColor":"#3898d8","images":{"fallback":{"src":"/static/b8577e12e0c806356bde4bd7135e8bcf/5fb32/botframework7.png","srcSet":"/static/b8577e12e0c806356bde4bd7135e8bcf/739fd/botframework7.png 600w,\n/static/b8577e12e0c806356bde4bd7135e8bcf/5fb32/botframework7.png 1200w","sizes":"(min-width: 1200px) 1200px, 100vw"},"sources":[{"srcSet":"/static/b8577e12e0c806356bde4bd7135e8bcf/288e3/botframework7.webp 600w,\n/static/b8577e12e0c806356bde4bd7135e8bcf/5b893/botframework7.webp 1200w","type":"image/webp","sizes":"(min-width: 1200px) 1200px, 100vw"}]},"width":1600,"height":650.6666666666666}}},{"id":"0ed2d4e8-d282-5d9c-b490-c2ce1b500a61","title":"Bot Framework in Node.js - Calling Microsoft Graph (part 6)","slug":"/azurebot-nodejs-part6/","link":null,"excerpt":"I the previous post, we created a new Azure AD Application registration, gave it permissions to…","timeToRead":3,"featured":null,"thumbnailText":null,"date":"March 22, 2020","category":{"id":"64f10eaf-091c-555c-a28e-13a12e934b04","name":"Azure","slug":"/category/azure/","color":"#007fff","icon":"/static/660faf3683bb1a8489baa9402bf62165/azure.svg"},"author":{"id":"6f313320-531a-5f32-9a22-708cb7653896","name":"Simon Ågren","slug":"/author/simon-agren/","title":"CTA & Microsoft MVP","description":"Solving business problems with tech","skills":["Microsoft 365","Azure"],"social":[{"name":"Github","url":"https://github.com/simonagren"},{"name":"Twitter","url":"https://twitter.com/agrenpoint"},{"name":"Website","url":"https://agrenpoint.com"}],"thumbnail":{"__typename":"ImageSharp","ImageSharp_small":{"layout":"fixed","backgroundColor":"#f8f8f8","images":{"fallback":{"src":"/static/bdc8525039042bedd52c0cf7d15e8521/ac0cb/simon-agren.jpg","srcSet":"/static/bdc8525039042bedd52c0cf7d15e8521/ac0cb/simon-agren.jpg 48w,\n/static/bdc8525039042bedd52c0cf7d15e8521/73f48/simon-agren.jpg 96w","sizes":"48px"},"sources":[{"srcSet":"/static/bdc8525039042bedd52c0cf7d15e8521/a3542/simon-agren.webp 48w,\n/static/bdc8525039042bedd52c0cf7d15e8521/0f66d/simon-agren.webp 96w","type":"image/webp","sizes":"48px"}]},"width":48,"height":48},"ImageSharp_regular":{"layout":"fixed","backgroundColor":"#f8f8f8","images":{"fallback":{"src":"/static/bdc8525039042bedd52c0cf7d15e8521/f679f/simon-agren.jpg","srcSet":"/static/bdc8525039042bedd52c0cf7d15e8521/f679f/simon-agren.jpg 150w,\n/static/bdc8525039042bedd52c0cf7d15e8521/78d3d/simon-agren.jpg 300w","sizes":"150px"},"sources":[{"srcSet":"/static/bdc8525039042bedd52c0cf7d15e8521/ae23d/simon-agren.webp 150w,\n/static/bdc8525039042bedd52c0cf7d15e8521/bd37b/simon-agren.webp 300w","type":"image/webp","sizes":"150px"}]},"width":150,"height":150}}},"thumbnail":{"__typename":"ImageSharp","ImageSharp_vertical":{"layout":"constrained","backgroundColor":"#3898d8","images":{"fallback":{"src":"/static/fb02b1615213cb512da7d1c78b9ad995/19188/botframework6.png","srcSet":"/static/fb02b1615213cb512da7d1c78b9ad995/db297/botframework6.png 190w,\n/static/fb02b1615213cb512da7d1c78b9ad995/19188/botframework6.png 380w","sizes":"(min-width: 380px) 380px, 100vw"},"sources":[{"srcSet":"/static/fb02b1615213cb512da7d1c78b9ad995/228d6/botframework6.webp 190w,\n/static/fb02b1615213cb512da7d1c78b9ad995/6b99c/botframework6.webp 380w","type":"image/webp","sizes":"(min-width: 380px) 380px, 100vw"}]},"width":380,"height":290},"ImageSharp_hero":{"layout":"constrained","backgroundColor":"#3898d8","images":{"fallback":{"src":"/static/fb02b1615213cb512da7d1c78b9ad995/5fb32/botframework6.png","srcSet":"/static/fb02b1615213cb512da7d1c78b9ad995/739fd/botframework6.png 600w,\n/static/fb02b1615213cb512da7d1c78b9ad995/5fb32/botframework6.png 1200w","sizes":"(min-width: 1200px) 1200px, 100vw"},"sources":[{"srcSet":"/static/fb02b1615213cb512da7d1c78b9ad995/288e3/botframework6.webp 600w,\n/static/fb02b1615213cb512da7d1c78b9ad995/5b893/botframework6.webp 1200w","type":"image/webp","sizes":"(min-width: 1200px) 1200px, 100vw"}]},"width":1600,"height":650.6666666666666}}},{"id":"e0dec6ac-7617-5591-93b4-01f9d7a42ea5","title":"Intro to Durable Functions in Node.js with PnPJs","slug":"/intro-durable/","link":null,"excerpt":"Durable functions are what Microsoft is calling \"orchestrator functions\". It's an extension of Azure…","timeToRead":5,"featured":null,"thumbnailText":null,"date":"November 25, 2019","category":{"id":"64f10eaf-091c-555c-a28e-13a12e934b04","name":"Azure","slug":"/category/azure/","color":"#007fff","icon":"/static/660faf3683bb1a8489baa9402bf62165/azure.svg"},"author":{"id":"6f313320-531a-5f32-9a22-708cb7653896","name":"Simon Ågren","slug":"/author/simon-agren/","title":"CTA & Microsoft MVP","description":"Solving business problems with tech","skills":["Microsoft 365","Azure"],"social":[{"name":"Github","url":"https://github.com/simonagren"},{"name":"Twitter","url":"https://twitter.com/agrenpoint"},{"name":"Website","url":"https://agrenpoint.com"}],"thumbnail":{"__typename":"ImageSharp","ImageSharp_small":{"layout":"fixed","backgroundColor":"#f8f8f8","images":{"fallback":{"src":"/static/bdc8525039042bedd52c0cf7d15e8521/ac0cb/simon-agren.jpg","srcSet":"/static/bdc8525039042bedd52c0cf7d15e8521/ac0cb/simon-agren.jpg 48w,\n/static/bdc8525039042bedd52c0cf7d15e8521/73f48/simon-agren.jpg 96w","sizes":"48px"},"sources":[{"srcSet":"/static/bdc8525039042bedd52c0cf7d15e8521/a3542/simon-agren.webp 48w,\n/static/bdc8525039042bedd52c0cf7d15e8521/0f66d/simon-agren.webp 96w","type":"image/webp","sizes":"48px"}]},"width":48,"height":48},"ImageSharp_regular":{"layout":"fixed","backgroundColor":"#f8f8f8","images":{"fallback":{"src":"/static/bdc8525039042bedd52c0cf7d15e8521/f679f/simon-agren.jpg","srcSet":"/static/bdc8525039042bedd52c0cf7d15e8521/f679f/simon-agren.jpg 150w,\n/static/bdc8525039042bedd52c0cf7d15e8521/78d3d/simon-agren.jpg 300w","sizes":"150px"},"sources":[{"srcSet":"/static/bdc8525039042bedd52c0cf7d15e8521/ae23d/simon-agren.webp 150w,\n/static/bdc8525039042bedd52c0cf7d15e8521/bd37b/simon-agren.webp 300w","type":"image/webp","sizes":"150px"}]},"width":150,"height":150}}},"thumbnail":{"__typename":"ImageSharp","ImageSharp_vertical":{"layout":"constrained","backgroundColor":"#f8f8f8","images":{"fallback":{"src":"/static/1a54320cc4d378a5d07eeb28b33dec88/144fe/architecture.jpg","srcSet":"/static/1a54320cc4d378a5d07eeb28b33dec88/9d7b9/architecture.jpg 190w,\n/static/1a54320cc4d378a5d07eeb28b33dec88/144fe/architecture.jpg 380w","sizes":"(min-width: 380px) 380px, 100vw"},"sources":[{"srcSet":"/static/1a54320cc4d378a5d07eeb28b33dec88/228d6/architecture.webp 190w,\n/static/1a54320cc4d378a5d07eeb28b33dec88/6b99c/architecture.webp 380w","type":"image/webp","sizes":"(min-width: 380px) 380px, 100vw"}]},"width":380,"height":290},"ImageSharp_hero":{"layout":"constrained","backgroundColor":"#f8f8f8","images":{"fallback":{"src":"/static/1a54320cc4d378a5d07eeb28b33dec88/061b3/architecture.jpg","srcSet":"/static/1a54320cc4d378a5d07eeb28b33dec88/fd7a7/architecture.jpg 605w,\n/static/1a54320cc4d378a5d07eeb28b33dec88/061b3/architecture.jpg 1209w","sizes":"(min-width: 1209px) 1209px, 100vw"},"sources":[{"srcSet":"/static/1a54320cc4d378a5d07eeb28b33dec88/6f4ef/architecture.webp 605w,\n/static/1a54320cc4d378a5d07eeb28b33dec88/2891d/architecture.webp 1209w","type":"image/webp","sizes":"(min-width: 1209px) 1209px, 100vw"}]},"width":1600,"height":649.7932175351531}}},{"id":"800b7e77-e2aa-5a23-b50b-88680a16b735","title":"Findings from issues with SharePoint Starter Kit","slug":"/sp-starter-footer/","link":null,"excerpt":"I have been getting some questions about how to resolve some of the issues with the footer and links…","timeToRead":3,"featured":null,"thumbnailText":null,"date":"February 07, 2019","category":{"id":"b0babac0-675d-51af-aa7a-ce603b3a7af4","name":"Microsoft 365","slug":"/category/microsoft-365/","color":"#f25022","icon":"/static/363fdd53d34303b727d9dab161b8e88b/microsoft365.svg"},"author":{"id":"6f313320-531a-5f32-9a22-708cb7653896","name":"Simon Ågren","slug":"/author/simon-agren/","title":"CTA & Microsoft MVP","description":"Solving business problems with tech","skills":["Microsoft 365","Azure"],"social":[{"name":"Github","url":"https://github.com/simonagren"},{"name":"Twitter","url":"https://twitter.com/agrenpoint"},{"name":"Website","url":"https://agrenpoint.com"}],"thumbnail":{"__typename":"ImageSharp","ImageSharp_small":{"layout":"fixed","backgroundColor":"#f8f8f8","images":{"fallback":{"src":"/static/bdc8525039042bedd52c0cf7d15e8521/ac0cb/simon-agren.jpg","srcSet":"/static/bdc8525039042bedd52c0cf7d15e8521/ac0cb/simon-agren.jpg 48w,\n/static/bdc8525039042bedd52c0cf7d15e8521/73f48/simon-agren.jpg 96w","sizes":"48px"},"sources":[{"srcSet":"/static/bdc8525039042bedd52c0cf7d15e8521/a3542/simon-agren.webp 48w,\n/static/bdc8525039042bedd52c0cf7d15e8521/0f66d/simon-agren.webp 96w","type":"image/webp","sizes":"48px"}]},"width":48,"height":48},"ImageSharp_regular":{"layout":"fixed","backgroundColor":"#f8f8f8","images":{"fallback":{"src":"/static/bdc8525039042bedd52c0cf7d15e8521/f679f/simon-agren.jpg","srcSet":"/static/bdc8525039042bedd52c0cf7d15e8521/f679f/simon-agren.jpg 150w,\n/static/bdc8525039042bedd52c0cf7d15e8521/78d3d/simon-agren.jpg 300w","sizes":"150px"},"sources":[{"srcSet":"/static/bdc8525039042bedd52c0cf7d15e8521/ae23d/simon-agren.webp 150w,\n/static/bdc8525039042bedd52c0cf7d15e8521/bd37b/simon-agren.webp 300w","type":"image/webp","sizes":"150px"}]},"width":150,"height":150}}},"thumbnail":{"__typename":"ImageSharp","ImageSharp_vertical":{"layout":"constrained","backgroundColor":"#f8f8f8","images":{"fallback":{"src":"/static/a9c673011e6ee31cd62829d6065f636d/19188/default-front-page-contoso.png","srcSet":"/static/a9c673011e6ee31cd62829d6065f636d/db297/default-front-page-contoso.png 190w,\n/static/a9c673011e6ee31cd62829d6065f636d/19188/default-front-page-contoso.png 380w","sizes":"(min-width: 380px) 380px, 100vw"},"sources":[{"srcSet":"/static/a9c673011e6ee31cd62829d6065f636d/228d6/default-front-page-contoso.webp 190w,\n/static/a9c673011e6ee31cd62829d6065f636d/6b99c/default-front-page-contoso.webp 380w","type":"image/webp","sizes":"(min-width: 380px) 380px, 100vw"}]},"width":380,"height":290},"ImageSharp_hero":{"layout":"constrained","backgroundColor":"#f8f8f8","images":{"fallback":{"src":"/static/a9c673011e6ee31cd62829d6065f636d/dfc00/default-front-page-contoso.png","srcSet":"/static/a9c673011e6ee31cd62829d6065f636d/481ea/default-front-page-contoso.png 608w,\n/static/a9c673011e6ee31cd62829d6065f636d/dfc00/default-front-page-contoso.png 1216w","sizes":"(min-width: 1216px) 1216px, 100vw"},"sources":[{"srcSet":"/static/a9c673011e6ee31cd62829d6065f636d/e93b9/default-front-page-contoso.webp 608w,\n/static/a9c673011e6ee31cd62829d6065f636d/a4e5a/default-front-page-contoso.webp 1216w","type":"image/webp","sizes":"(min-width: 1216px) 1216px, 100vw"}]},"width":1600,"height":650}}}],"pageInfo":{"pageCount":3,"hasPreviousPage":false,"hasNextPage":true,"currentPage":1},"totalCount":13}},"pageContext":{"slug":"/tag/pnp/","limit":6,"skip":0,"collectionType":"tags","paginatePostsPage":true,"basePath":"/","services":{"algolia":true,"mailchimp":false,"disqus":false,"graphComment":true,"facebookComment":false},"siteUrl":"https://www.agrenpoint.com","mobileMenu":{"title":"Topics","items":[{"name":"Azure","slug":"/category/azure/"},{"name":"Endpoint management","slug":"/category/endpoint-management/"},{"name":"Microsoft 365","slug":"/category/microsoft-365/"}]},"darkMode":true,"includeExcerpt":true,"includeTimeToRead":true,"includeTableOfContents":true,"imageQuality":75,"currentDate":"2026-03-02"}},"staticQueryHashes":["1992822086","2409295108","2925947909"]}