{"componentChunkName":"component---packages-blog-gatsby-blog-core-src-templates-collection-category-js","path":"/category/azure/page/2/","result":{"data":{"collectionInfo":{"id":"64f10eaf-091c-555c-a28e-13a12e934b04","name":"Azure","slug":"/category/azure/","description":"This category involves different Azure-related topics. Bots, Azure functions, Azure AD, Indentity etc."},"posts":{"nodes":[{"id":"d45b509b-06e7-5f59-9963-ab5041c1c9ec","title":"Azure AD & Microsoft Graph permission scopes, with Azure CLI","slug":"/azcli-adscope/","link":null,"excerpt":"In this small post, we will look at a scenario where we want to register an Azure AD Application…","timeToRead":3,"featured":null,"thumbnailText":null,"date":"March 09, 2020","category":{"id":"64f10eaf-091c-555c-a28e-13a12e934b04","name":"Azure","slug":"/category/azure/","color":"#007fff","icon":"/static/660faf3683bb1a8489baa9402bf62165/azure.svg"},"author":{"id":"6f313320-531a-5f32-9a22-708cb7653896","name":"Simon Ågren","slug":"/author/simon-agren/","title":"CTA & Microsoft MVP","description":"Solving business problems with tech","skills":["Microsoft 365","Azure"],"social":[{"name":"Github","url":"https://github.com/simonagren"},{"name":"Twitter","url":"https://twitter.com/agrenpoint"},{"name":"Website","url":"https://agrenpoint.com"}],"thumbnail":{"__typename":"ImageSharp","ImageSharp_small":{"layout":"fixed","backgroundColor":"#f8f8f8","images":{"fallback":{"src":"/static/bdc8525039042bedd52c0cf7d15e8521/ac0cb/simon-agren.jpg","srcSet":"/static/bdc8525039042bedd52c0cf7d15e8521/ac0cb/simon-agren.jpg 48w,\n/static/bdc8525039042bedd52c0cf7d15e8521/73f48/simon-agren.jpg 96w","sizes":"48px"},"sources":[{"srcSet":"/static/bdc8525039042bedd52c0cf7d15e8521/a3542/simon-agren.webp 48w,\n/static/bdc8525039042bedd52c0cf7d15e8521/0f66d/simon-agren.webp 96w","type":"image/webp","sizes":"48px"}]},"width":48,"height":48},"ImageSharp_regular":{"layout":"fixed","backgroundColor":"#f8f8f8","images":{"fallback":{"src":"/static/bdc8525039042bedd52c0cf7d15e8521/f679f/simon-agren.jpg","srcSet":"/static/bdc8525039042bedd52c0cf7d15e8521/f679f/simon-agren.jpg 150w,\n/static/bdc8525039042bedd52c0cf7d15e8521/78d3d/simon-agren.jpg 300w","sizes":"150px"},"sources":[{"srcSet":"/static/bdc8525039042bedd52c0cf7d15e8521/ae23d/simon-agren.webp 150w,\n/static/bdc8525039042bedd52c0cf7d15e8521/bd37b/simon-agren.webp 300w","type":"image/webp","sizes":"150px"}]},"width":150,"height":150}}},"thumbnail":{"__typename":"ImageSharp","ImageSharp_vertical":{"layout":"constrained","backgroundColor":"#080808","images":{"fallback":{"src":"/static/e5aceb9744ad9f189605a624aef5497e/19188/azcli-scopes.png","srcSet":"/static/e5aceb9744ad9f189605a624aef5497e/db297/azcli-scopes.png 190w,\n/static/e5aceb9744ad9f189605a624aef5497e/19188/azcli-scopes.png 380w","sizes":"(min-width: 380px) 380px, 100vw"},"sources":[{"srcSet":"/static/e5aceb9744ad9f189605a624aef5497e/228d6/azcli-scopes.webp 190w,\n/static/e5aceb9744ad9f189605a624aef5497e/6b99c/azcli-scopes.webp 380w","type":"image/webp","sizes":"(min-width: 380px) 380px, 100vw"}]},"width":380,"height":290},"ImageSharp_hero":{"layout":"constrained","backgroundColor":"#080808","images":{"fallback":{"src":"/static/e5aceb9744ad9f189605a624aef5497e/5fb32/azcli-scopes.png","srcSet":"/static/e5aceb9744ad9f189605a624aef5497e/739fd/azcli-scopes.png 600w,\n/static/e5aceb9744ad9f189605a624aef5497e/5fb32/azcli-scopes.png 1200w","sizes":"(min-width: 1200px) 1200px, 100vw"},"sources":[{"srcSet":"/static/e5aceb9744ad9f189605a624aef5497e/288e3/azcli-scopes.webp 600w,\n/static/e5aceb9744ad9f189605a624aef5497e/5b893/azcli-scopes.webp 1200w","type":"image/webp","sizes":"(min-width: 1200px) 1200px, 100vw"}]},"width":1600,"height":650.6666666666666}}},{"id":"b87724d8-ffb9-57d9-9309-93f77352d9a3","title":"Bot Framework in Node.js - Interruptions (Part 4)","slug":"/azurebot-nodejs-part4/","link":null,"excerpt":"The last post was long. It was a lot of explaining regarding the code, and hopefully, that put…","timeToRead":2,"featured":null,"thumbnailText":null,"date":"March 06, 2020","category":{"id":"64f10eaf-091c-555c-a28e-13a12e934b04","name":"Azure","slug":"/category/azure/","color":"#007fff","icon":"/static/660faf3683bb1a8489baa9402bf62165/azure.svg"},"author":{"id":"6f313320-531a-5f32-9a22-708cb7653896","name":"Simon Ågren","slug":"/author/simon-agren/","title":"CTA & Microsoft MVP","description":"Solving business problems with tech","skills":["Microsoft 365","Azure"],"social":[{"name":"Github","url":"https://github.com/simonagren"},{"name":"Twitter","url":"https://twitter.com/agrenpoint"},{"name":"Website","url":"https://agrenpoint.com"}],"thumbnail":{"__typename":"ImageSharp","ImageSharp_small":{"layout":"fixed","backgroundColor":"#f8f8f8","images":{"fallback":{"src":"/static/bdc8525039042bedd52c0cf7d15e8521/ac0cb/simon-agren.jpg","srcSet":"/static/bdc8525039042bedd52c0cf7d15e8521/ac0cb/simon-agren.jpg 48w,\n/static/bdc8525039042bedd52c0cf7d15e8521/73f48/simon-agren.jpg 96w","sizes":"48px"},"sources":[{"srcSet":"/static/bdc8525039042bedd52c0cf7d15e8521/a3542/simon-agren.webp 48w,\n/static/bdc8525039042bedd52c0cf7d15e8521/0f66d/simon-agren.webp 96w","type":"image/webp","sizes":"48px"}]},"width":48,"height":48},"ImageSharp_regular":{"layout":"fixed","backgroundColor":"#f8f8f8","images":{"fallback":{"src":"/static/bdc8525039042bedd52c0cf7d15e8521/f679f/simon-agren.jpg","srcSet":"/static/bdc8525039042bedd52c0cf7d15e8521/f679f/simon-agren.jpg 150w,\n/static/bdc8525039042bedd52c0cf7d15e8521/78d3d/simon-agren.jpg 300w","sizes":"150px"},"sources":[{"srcSet":"/static/bdc8525039042bedd52c0cf7d15e8521/ae23d/simon-agren.webp 150w,\n/static/bdc8525039042bedd52c0cf7d15e8521/bd37b/simon-agren.webp 300w","type":"image/webp","sizes":"150px"}]},"width":150,"height":150}}},"thumbnail":{"__typename":"ImageSharp","ImageSharp_vertical":{"layout":"constrained","backgroundColor":"#3898d8","images":{"fallback":{"src":"/static/63c21ada261fd07269bdde2634eb0641/19188/botframework4.png","srcSet":"/static/63c21ada261fd07269bdde2634eb0641/db297/botframework4.png 190w,\n/static/63c21ada261fd07269bdde2634eb0641/19188/botframework4.png 380w","sizes":"(min-width: 380px) 380px, 100vw"},"sources":[{"srcSet":"/static/63c21ada261fd07269bdde2634eb0641/228d6/botframework4.webp 190w,\n/static/63c21ada261fd07269bdde2634eb0641/6b99c/botframework4.webp 380w","type":"image/webp","sizes":"(min-width: 380px) 380px, 100vw"}]},"width":380,"height":290},"ImageSharp_hero":{"layout":"constrained","backgroundColor":"#3898d8","images":{"fallback":{"src":"/static/63c21ada261fd07269bdde2634eb0641/5fb32/botframework4.png","srcSet":"/static/63c21ada261fd07269bdde2634eb0641/739fd/botframework4.png 600w,\n/static/63c21ada261fd07269bdde2634eb0641/5fb32/botframework4.png 1200w","sizes":"(min-width: 1200px) 1200px, 100vw"},"sources":[{"srcSet":"/static/63c21ada261fd07269bdde2634eb0641/288e3/botframework4.webp 600w,\n/static/63c21ada261fd07269bdde2634eb0641/5b893/botframework4.webp 1200w","type":"image/webp","sizes":"(min-width: 1200px) 1200px, 100vw"}]},"width":1600,"height":650.6666666666666}}},{"id":"41732e06-3e2a-5b5c-93a7-e89f10c0bae6","title":"Bot Framework in Node.js - Dialogs (Part 3)","slug":"/azurebot-nodejs-part3/","link":null,"excerpt":"In the previous post, we tried the Bot in Microsoft Teams using  ngrok , and we also added a…","timeToRead":5,"featured":null,"thumbnailText":null,"date":"March 04, 2020","category":{"id":"64f10eaf-091c-555c-a28e-13a12e934b04","name":"Azure","slug":"/category/azure/","color":"#007fff","icon":"/static/660faf3683bb1a8489baa9402bf62165/azure.svg"},"author":{"id":"6f313320-531a-5f32-9a22-708cb7653896","name":"Simon Ågren","slug":"/author/simon-agren/","title":"CTA & Microsoft MVP","description":"Solving business problems with tech","skills":["Microsoft 365","Azure"],"social":[{"name":"Github","url":"https://github.com/simonagren"},{"name":"Twitter","url":"https://twitter.com/agrenpoint"},{"name":"Website","url":"https://agrenpoint.com"}],"thumbnail":{"__typename":"ImageSharp","ImageSharp_small":{"layout":"fixed","backgroundColor":"#f8f8f8","images":{"fallback":{"src":"/static/bdc8525039042bedd52c0cf7d15e8521/ac0cb/simon-agren.jpg","srcSet":"/static/bdc8525039042bedd52c0cf7d15e8521/ac0cb/simon-agren.jpg 48w,\n/static/bdc8525039042bedd52c0cf7d15e8521/73f48/simon-agren.jpg 96w","sizes":"48px"},"sources":[{"srcSet":"/static/bdc8525039042bedd52c0cf7d15e8521/a3542/simon-agren.webp 48w,\n/static/bdc8525039042bedd52c0cf7d15e8521/0f66d/simon-agren.webp 96w","type":"image/webp","sizes":"48px"}]},"width":48,"height":48},"ImageSharp_regular":{"layout":"fixed","backgroundColor":"#f8f8f8","images":{"fallback":{"src":"/static/bdc8525039042bedd52c0cf7d15e8521/f679f/simon-agren.jpg","srcSet":"/static/bdc8525039042bedd52c0cf7d15e8521/f679f/simon-agren.jpg 150w,\n/static/bdc8525039042bedd52c0cf7d15e8521/78d3d/simon-agren.jpg 300w","sizes":"150px"},"sources":[{"srcSet":"/static/bdc8525039042bedd52c0cf7d15e8521/ae23d/simon-agren.webp 150w,\n/static/bdc8525039042bedd52c0cf7d15e8521/bd37b/simon-agren.webp 300w","type":"image/webp","sizes":"150px"}]},"width":150,"height":150}}},"thumbnail":{"__typename":"ImageSharp","ImageSharp_vertical":{"layout":"constrained","backgroundColor":"#3898d8","images":{"fallback":{"src":"/static/f0bbb24c1a8bf567d48e95abd710cb89/19188/botframework3.png","srcSet":"/static/f0bbb24c1a8bf567d48e95abd710cb89/db297/botframework3.png 190w,\n/static/f0bbb24c1a8bf567d48e95abd710cb89/19188/botframework3.png 380w","sizes":"(min-width: 380px) 380px, 100vw"},"sources":[{"srcSet":"/static/f0bbb24c1a8bf567d48e95abd710cb89/228d6/botframework3.webp 190w,\n/static/f0bbb24c1a8bf567d48e95abd710cb89/6b99c/botframework3.webp 380w","type":"image/webp","sizes":"(min-width: 380px) 380px, 100vw"}]},"width":380,"height":290},"ImageSharp_hero":{"layout":"constrained","backgroundColor":"#3898d8","images":{"fallback":{"src":"/static/f0bbb24c1a8bf567d48e95abd710cb89/5fb32/botframework3.png","srcSet":"/static/f0bbb24c1a8bf567d48e95abd710cb89/739fd/botframework3.png 600w,\n/static/f0bbb24c1a8bf567d48e95abd710cb89/5fb32/botframework3.png 1200w","sizes":"(min-width: 1200px) 1200px, 100vw"},"sources":[{"srcSet":"/static/f0bbb24c1a8bf567d48e95abd710cb89/288e3/botframework3.webp 600w,\n/static/f0bbb24c1a8bf567d48e95abd710cb89/5b893/botframework3.webp 1200w","type":"image/webp","sizes":"(min-width: 1200px) 1200px, 100vw"}]},"width":1600,"height":650.6666666666666}}},{"id":"58c8f931-3998-52b8-a7eb-ae83f647df5b","title":"Azure Function migration from 2.0 to 3.0","slug":"/azfunc-migrate/","link":null,"excerpt":"Last time we visited Azure Functions, I did a brief introduction of Azure Functions 3.0 that now…","timeToRead":3,"featured":null,"thumbnailText":null,"date":"March 02, 2020","category":{"id":"64f10eaf-091c-555c-a28e-13a12e934b04","name":"Azure","slug":"/category/azure/","color":"#007fff","icon":"/static/660faf3683bb1a8489baa9402bf62165/azure.svg"},"author":{"id":"6f313320-531a-5f32-9a22-708cb7653896","name":"Simon Ågren","slug":"/author/simon-agren/","title":"CTA & Microsoft MVP","description":"Solving business problems with tech","skills":["Microsoft 365","Azure"],"social":[{"name":"Github","url":"https://github.com/simonagren"},{"name":"Twitter","url":"https://twitter.com/agrenpoint"},{"name":"Website","url":"https://agrenpoint.com"}],"thumbnail":{"__typename":"ImageSharp","ImageSharp_small":{"layout":"fixed","backgroundColor":"#f8f8f8","images":{"fallback":{"src":"/static/bdc8525039042bedd52c0cf7d15e8521/ac0cb/simon-agren.jpg","srcSet":"/static/bdc8525039042bedd52c0cf7d15e8521/ac0cb/simon-agren.jpg 48w,\n/static/bdc8525039042bedd52c0cf7d15e8521/73f48/simon-agren.jpg 96w","sizes":"48px"},"sources":[{"srcSet":"/static/bdc8525039042bedd52c0cf7d15e8521/a3542/simon-agren.webp 48w,\n/static/bdc8525039042bedd52c0cf7d15e8521/0f66d/simon-agren.webp 96w","type":"image/webp","sizes":"48px"}]},"width":48,"height":48},"ImageSharp_regular":{"layout":"fixed","backgroundColor":"#f8f8f8","images":{"fallback":{"src":"/static/bdc8525039042bedd52c0cf7d15e8521/f679f/simon-agren.jpg","srcSet":"/static/bdc8525039042bedd52c0cf7d15e8521/f679f/simon-agren.jpg 150w,\n/static/bdc8525039042bedd52c0cf7d15e8521/78d3d/simon-agren.jpg 300w","sizes":"150px"},"sources":[{"srcSet":"/static/bdc8525039042bedd52c0cf7d15e8521/ae23d/simon-agren.webp 150w,\n/static/bdc8525039042bedd52c0cf7d15e8521/bd37b/simon-agren.webp 300w","type":"image/webp","sizes":"150px"}]},"width":150,"height":150}}},"thumbnail":{"__typename":"ImageSharp","ImageSharp_vertical":{"layout":"constrained","backgroundColor":"#f8f8f8","images":{"fallback":{"src":"/static/af01378f495ff5b799014c0a3b4f66e3/19188/azfuncmigrate3.png","srcSet":"/static/af01378f495ff5b799014c0a3b4f66e3/db297/azfuncmigrate3.png 190w,\n/static/af01378f495ff5b799014c0a3b4f66e3/19188/azfuncmigrate3.png 380w","sizes":"(min-width: 380px) 380px, 100vw"},"sources":[{"srcSet":"/static/af01378f495ff5b799014c0a3b4f66e3/228d6/azfuncmigrate3.webp 190w,\n/static/af01378f495ff5b799014c0a3b4f66e3/6b99c/azfuncmigrate3.webp 380w","type":"image/webp","sizes":"(min-width: 380px) 380px, 100vw"}]},"width":380,"height":290},"ImageSharp_hero":{"layout":"constrained","backgroundColor":"#f8f8f8","images":{"fallback":{"src":"/static/af01378f495ff5b799014c0a3b4f66e3/5fb32/azfuncmigrate3.png","srcSet":"/static/af01378f495ff5b799014c0a3b4f66e3/739fd/azfuncmigrate3.png 600w,\n/static/af01378f495ff5b799014c0a3b4f66e3/5fb32/azfuncmigrate3.png 1200w","sizes":"(min-width: 1200px) 1200px, 100vw"},"sources":[{"srcSet":"/static/af01378f495ff5b799014c0a3b4f66e3/288e3/azfuncmigrate3.webp 600w,\n/static/af01378f495ff5b799014c0a3b4f66e3/5b893/azfuncmigrate3.webp 1200w","type":"image/webp","sizes":"(min-width: 1200px) 1200px, 100vw"}]},"width":1600,"height":650.6666666666666}}},{"id":"54a86ee3-5514-58df-b867-86dd8ae08655","title":"Bot Framework in Node.js - Microsoft Teams (Part 2)","slug":"/azurebot-nodejs-part2/","link":null,"excerpt":"In the  previous post , we built the Bot, tested it locally in the emulator, created all resources…","timeToRead":4,"featured":null,"thumbnailText":null,"date":"February 28, 2020","category":{"id":"64f10eaf-091c-555c-a28e-13a12e934b04","name":"Azure","slug":"/category/azure/","color":"#007fff","icon":"/static/660faf3683bb1a8489baa9402bf62165/azure.svg"},"author":{"id":"6f313320-531a-5f32-9a22-708cb7653896","name":"Simon Ågren","slug":"/author/simon-agren/","title":"CTA & Microsoft MVP","description":"Solving business problems with tech","skills":["Microsoft 365","Azure"],"social":[{"name":"Github","url":"https://github.com/simonagren"},{"name":"Twitter","url":"https://twitter.com/agrenpoint"},{"name":"Website","url":"https://agrenpoint.com"}],"thumbnail":{"__typename":"ImageSharp","ImageSharp_small":{"layout":"fixed","backgroundColor":"#f8f8f8","images":{"fallback":{"src":"/static/bdc8525039042bedd52c0cf7d15e8521/ac0cb/simon-agren.jpg","srcSet":"/static/bdc8525039042bedd52c0cf7d15e8521/ac0cb/simon-agren.jpg 48w,\n/static/bdc8525039042bedd52c0cf7d15e8521/73f48/simon-agren.jpg 96w","sizes":"48px"},"sources":[{"srcSet":"/static/bdc8525039042bedd52c0cf7d15e8521/a3542/simon-agren.webp 48w,\n/static/bdc8525039042bedd52c0cf7d15e8521/0f66d/simon-agren.webp 96w","type":"image/webp","sizes":"48px"}]},"width":48,"height":48},"ImageSharp_regular":{"layout":"fixed","backgroundColor":"#f8f8f8","images":{"fallback":{"src":"/static/bdc8525039042bedd52c0cf7d15e8521/f679f/simon-agren.jpg","srcSet":"/static/bdc8525039042bedd52c0cf7d15e8521/f679f/simon-agren.jpg 150w,\n/static/bdc8525039042bedd52c0cf7d15e8521/78d3d/simon-agren.jpg 300w","sizes":"150px"},"sources":[{"srcSet":"/static/bdc8525039042bedd52c0cf7d15e8521/ae23d/simon-agren.webp 150w,\n/static/bdc8525039042bedd52c0cf7d15e8521/bd37b/simon-agren.webp 300w","type":"image/webp","sizes":"150px"}]},"width":150,"height":150}}},"thumbnail":{"__typename":"ImageSharp","ImageSharp_vertical":{"layout":"constrained","backgroundColor":"#3898d8","images":{"fallback":{"src":"/static/a7f5cecfbea0980063335fbf2dda403f/19188/botframework2.png","srcSet":"/static/a7f5cecfbea0980063335fbf2dda403f/db297/botframework2.png 190w,\n/static/a7f5cecfbea0980063335fbf2dda403f/19188/botframework2.png 380w","sizes":"(min-width: 380px) 380px, 100vw"},"sources":[{"srcSet":"/static/a7f5cecfbea0980063335fbf2dda403f/228d6/botframework2.webp 190w,\n/static/a7f5cecfbea0980063335fbf2dda403f/6b99c/botframework2.webp 380w","type":"image/webp","sizes":"(min-width: 380px) 380px, 100vw"}]},"width":380,"height":290},"ImageSharp_hero":{"layout":"constrained","backgroundColor":"#3898d8","images":{"fallback":{"src":"/static/a7f5cecfbea0980063335fbf2dda403f/5fb32/botframework2.png","srcSet":"/static/a7f5cecfbea0980063335fbf2dda403f/739fd/botframework2.png 600w,\n/static/a7f5cecfbea0980063335fbf2dda403f/5fb32/botframework2.png 1200w","sizes":"(min-width: 1200px) 1200px, 100vw"},"sources":[{"srcSet":"/static/a7f5cecfbea0980063335fbf2dda403f/288e3/botframework2.webp 600w,\n/static/a7f5cecfbea0980063335fbf2dda403f/5b893/botframework2.webp 1200w","type":"image/webp","sizes":"(min-width: 1200px) 1200px, 100vw"}]},"width":1600,"height":650.6666666666666}}},{"id":"154f9ca8-d835-52d1-b615-b8055416049e","title":"A brief introduction to Azure Functions 3.x","slug":"/azfunc-v3/","link":null,"excerpt":"In this post, I will talk about Azure Functions 3.0 that has become generally available (GA) and was…","timeToRead":2,"featured":null,"thumbnailText":null,"date":"February 26, 2020","category":{"id":"64f10eaf-091c-555c-a28e-13a12e934b04","name":"Azure","slug":"/category/azure/","color":"#007fff","icon":"/static/660faf3683bb1a8489baa9402bf62165/azure.svg"},"author":{"id":"6f313320-531a-5f32-9a22-708cb7653896","name":"Simon Ågren","slug":"/author/simon-agren/","title":"CTA & Microsoft MVP","description":"Solving business problems with tech","skills":["Microsoft 365","Azure"],"social":[{"name":"Github","url":"https://github.com/simonagren"},{"name":"Twitter","url":"https://twitter.com/agrenpoint"},{"name":"Website","url":"https://agrenpoint.com"}],"thumbnail":{"__typename":"ImageSharp","ImageSharp_small":{"layout":"fixed","backgroundColor":"#f8f8f8","images":{"fallback":{"src":"/static/bdc8525039042bedd52c0cf7d15e8521/ac0cb/simon-agren.jpg","srcSet":"/static/bdc8525039042bedd52c0cf7d15e8521/ac0cb/simon-agren.jpg 48w,\n/static/bdc8525039042bedd52c0cf7d15e8521/73f48/simon-agren.jpg 96w","sizes":"48px"},"sources":[{"srcSet":"/static/bdc8525039042bedd52c0cf7d15e8521/a3542/simon-agren.webp 48w,\n/static/bdc8525039042bedd52c0cf7d15e8521/0f66d/simon-agren.webp 96w","type":"image/webp","sizes":"48px"}]},"width":48,"height":48},"ImageSharp_regular":{"layout":"fixed","backgroundColor":"#f8f8f8","images":{"fallback":{"src":"/static/bdc8525039042bedd52c0cf7d15e8521/f679f/simon-agren.jpg","srcSet":"/static/bdc8525039042bedd52c0cf7d15e8521/f679f/simon-agren.jpg 150w,\n/static/bdc8525039042bedd52c0cf7d15e8521/78d3d/simon-agren.jpg 300w","sizes":"150px"},"sources":[{"srcSet":"/static/bdc8525039042bedd52c0cf7d15e8521/ae23d/simon-agren.webp 150w,\n/static/bdc8525039042bedd52c0cf7d15e8521/bd37b/simon-agren.webp 300w","type":"image/webp","sizes":"150px"}]},"width":150,"height":150}}},"thumbnail":{"__typename":"ImageSharp","ImageSharp_vertical":{"layout":"constrained","backgroundColor":"#f8f8f8","images":{"fallback":{"src":"/static/52663bc6c0010d24966d5439cdc6f172/19188/azfunc3.png","srcSet":"/static/52663bc6c0010d24966d5439cdc6f172/db297/azfunc3.png 190w,\n/static/52663bc6c0010d24966d5439cdc6f172/19188/azfunc3.png 380w","sizes":"(min-width: 380px) 380px, 100vw"},"sources":[{"srcSet":"/static/52663bc6c0010d24966d5439cdc6f172/228d6/azfunc3.webp 190w,\n/static/52663bc6c0010d24966d5439cdc6f172/6b99c/azfunc3.webp 380w","type":"image/webp","sizes":"(min-width: 380px) 380px, 100vw"}]},"width":380,"height":290},"ImageSharp_hero":{"layout":"constrained","backgroundColor":"#f8f8f8","images":{"fallback":{"src":"/static/52663bc6c0010d24966d5439cdc6f172/5fb32/azfunc3.png","srcSet":"/static/52663bc6c0010d24966d5439cdc6f172/739fd/azfunc3.png 600w,\n/static/52663bc6c0010d24966d5439cdc6f172/5fb32/azfunc3.png 1200w","sizes":"(min-width: 1200px) 1200px, 100vw"},"sources":[{"srcSet":"/static/52663bc6c0010d24966d5439cdc6f172/288e3/azfunc3.webp 600w,\n/static/52663bc6c0010d24966d5439cdc6f172/5b893/azfunc3.webp 1200w","type":"image/webp","sizes":"(min-width: 1200px) 1200px, 100vw"}]},"width":1600,"height":650.6666666666666}}}],"pageInfo":{"pageCount":4,"hasPreviousPage":true,"hasNextPage":true,"currentPage":2},"totalCount":19}},"pageContext":{"slug":"/category/azure/","limit":6,"skip":6,"collectionType":"category","paginatePostsPage":true,"basePath":"/","services":{"algolia":true,"mailchimp":false,"disqus":false,"graphComment":true,"facebookComment":false},"siteUrl":"https://www.agrenpoint.com","mobileMenu":{"title":"Topics","items":[{"name":"Azure","slug":"/category/azure/"},{"name":"Endpoint management","slug":"/category/endpoint-management/"},{"name":"Microsoft 365","slug":"/category/microsoft-365/"}]},"darkMode":true,"includeExcerpt":true,"includeTimeToRead":true,"includeTableOfContents":true,"imageQuality":75,"currentDate":"2026-03-02"}},"staticQueryHashes":["1992822086","2409295108","2925947909"]}