{"componentChunkName":"component---packages-blog-gatsby-blog-core-src-templates-collection-author-js","path":"/author/simon-agren/page/11/","result":{"data":{"collectionInfo":{"id":"6f313320-531a-5f32-9a22-708cb7653896","name":"Simon Ågren","slug":"/author/simon-agren/","title":"CTA & Microsoft MVP","description":"Solving business problems with tech","skills":["Microsoft 365","Azure"],"social":[{"name":"Github","url":"https://github.com/simonagren"},{"name":"Twitter","url":"https://twitter.com/agrenpoint"},{"name":"Website","url":"https://agrenpoint.com"}],"thumbnail":{"__typename":"ImageSharp","ImageSharp_small":{"layout":"fixed","backgroundColor":"#f8f8f8","images":{"fallback":{"src":"/static/bdc8525039042bedd52c0cf7d15e8521/ac0cb/simon-agren.jpg","srcSet":"/static/bdc8525039042bedd52c0cf7d15e8521/ac0cb/simon-agren.jpg 48w,\n/static/bdc8525039042bedd52c0cf7d15e8521/73f48/simon-agren.jpg 96w","sizes":"48px"},"sources":[{"srcSet":"/static/bdc8525039042bedd52c0cf7d15e8521/a3542/simon-agren.webp 48w,\n/static/bdc8525039042bedd52c0cf7d15e8521/0f66d/simon-agren.webp 96w","type":"image/webp","sizes":"48px"}]},"width":48,"height":48},"ImageSharp_regular":{"layout":"fixed","backgroundColor":"#f8f8f8","images":{"fallback":{"src":"/static/bdc8525039042bedd52c0cf7d15e8521/f679f/simon-agren.jpg","srcSet":"/static/bdc8525039042bedd52c0cf7d15e8521/f679f/simon-agren.jpg 150w,\n/static/bdc8525039042bedd52c0cf7d15e8521/78d3d/simon-agren.jpg 300w","sizes":"150px"},"sources":[{"srcSet":"/static/bdc8525039042bedd52c0cf7d15e8521/ae23d/simon-agren.webp 150w,\n/static/bdc8525039042bedd52c0cf7d15e8521/bd37b/simon-agren.webp 300w","type":"image/webp","sizes":"150px"}]},"width":150,"height":150}}},"posts":{"nodes":[{"id":"154f9ca8-d835-52d1-b615-b8055416049e","title":"A brief introduction to Azure Functions 3.x","slug":"/azfunc-v3/","link":null,"excerpt":"In this post, I will talk about Azure Functions 3.0 that has become generally available (GA) and was…","timeToRead":2,"featured":null,"thumbnailText":null,"date":"February 26, 2020","category":{"id":"64f10eaf-091c-555c-a28e-13a12e934b04","name":"Azure","slug":"/category/azure/","color":"#007fff","icon":"/static/660faf3683bb1a8489baa9402bf62165/azure.svg"},"author":{"id":"6f313320-531a-5f32-9a22-708cb7653896","name":"Simon Ågren","slug":"/author/simon-agren/","title":"CTA & Microsoft MVP","description":"Solving business problems with tech","skills":["Microsoft 365","Azure"],"social":[{"name":"Github","url":"https://github.com/simonagren"},{"name":"Twitter","url":"https://twitter.com/agrenpoint"},{"name":"Website","url":"https://agrenpoint.com"}],"thumbnail":{"__typename":"ImageSharp","ImageSharp_small":{"layout":"fixed","backgroundColor":"#f8f8f8","images":{"fallback":{"src":"/static/bdc8525039042bedd52c0cf7d15e8521/ac0cb/simon-agren.jpg","srcSet":"/static/bdc8525039042bedd52c0cf7d15e8521/ac0cb/simon-agren.jpg 48w,\n/static/bdc8525039042bedd52c0cf7d15e8521/73f48/simon-agren.jpg 96w","sizes":"48px"},"sources":[{"srcSet":"/static/bdc8525039042bedd52c0cf7d15e8521/a3542/simon-agren.webp 48w,\n/static/bdc8525039042bedd52c0cf7d15e8521/0f66d/simon-agren.webp 96w","type":"image/webp","sizes":"48px"}]},"width":48,"height":48},"ImageSharp_regular":{"layout":"fixed","backgroundColor":"#f8f8f8","images":{"fallback":{"src":"/static/bdc8525039042bedd52c0cf7d15e8521/f679f/simon-agren.jpg","srcSet":"/static/bdc8525039042bedd52c0cf7d15e8521/f679f/simon-agren.jpg 150w,\n/static/bdc8525039042bedd52c0cf7d15e8521/78d3d/simon-agren.jpg 300w","sizes":"150px"},"sources":[{"srcSet":"/static/bdc8525039042bedd52c0cf7d15e8521/ae23d/simon-agren.webp 150w,\n/static/bdc8525039042bedd52c0cf7d15e8521/bd37b/simon-agren.webp 300w","type":"image/webp","sizes":"150px"}]},"width":150,"height":150}}},"thumbnail":{"__typename":"ImageSharp","ImageSharp_vertical":{"layout":"constrained","backgroundColor":"#f8f8f8","images":{"fallback":{"src":"/static/52663bc6c0010d24966d5439cdc6f172/19188/azfunc3.png","srcSet":"/static/52663bc6c0010d24966d5439cdc6f172/db297/azfunc3.png 190w,\n/static/52663bc6c0010d24966d5439cdc6f172/19188/azfunc3.png 380w","sizes":"(min-width: 380px) 380px, 100vw"},"sources":[{"srcSet":"/static/52663bc6c0010d24966d5439cdc6f172/228d6/azfunc3.webp 190w,\n/static/52663bc6c0010d24966d5439cdc6f172/6b99c/azfunc3.webp 380w","type":"image/webp","sizes":"(min-width: 380px) 380px, 100vw"}]},"width":380,"height":290},"ImageSharp_hero":{"layout":"constrained","backgroundColor":"#f8f8f8","images":{"fallback":{"src":"/static/52663bc6c0010d24966d5439cdc6f172/5fb32/azfunc3.png","srcSet":"/static/52663bc6c0010d24966d5439cdc6f172/739fd/azfunc3.png 600w,\n/static/52663bc6c0010d24966d5439cdc6f172/5fb32/azfunc3.png 1200w","sizes":"(min-width: 1200px) 1200px, 100vw"},"sources":[{"srcSet":"/static/52663bc6c0010d24966d5439cdc6f172/288e3/azfunc3.webp 600w,\n/static/52663bc6c0010d24966d5439cdc6f172/5b893/azfunc3.webp 1200w","type":"image/webp","sizes":"(min-width: 1200px) 1200px, 100vw"}]},"width":1600,"height":650.6666666666666}}},{"id":"1bfa9956-afa2-5564-bca6-18fc3636c4fa","title":"Bot Framework 4 ARM template Deploy with Key Vault","slug":"/azurebot-armtemplate-keyvault/","link":null,"excerpt":"This post assumes that you already have generated your Bot and you have ARM Templates available to…","timeToRead":2,"featured":null,"thumbnailText":null,"date":"February 24, 2020","category":{"id":"64f10eaf-091c-555c-a28e-13a12e934b04","name":"Azure","slug":"/category/azure/","color":"#007fff","icon":"/static/660faf3683bb1a8489baa9402bf62165/azure.svg"},"author":{"id":"6f313320-531a-5f32-9a22-708cb7653896","name":"Simon Ågren","slug":"/author/simon-agren/","title":"CTA & Microsoft MVP","description":"Solving business problems with tech","skills":["Microsoft 365","Azure"],"social":[{"name":"Github","url":"https://github.com/simonagren"},{"name":"Twitter","url":"https://twitter.com/agrenpoint"},{"name":"Website","url":"https://agrenpoint.com"}],"thumbnail":{"__typename":"ImageSharp","ImageSharp_small":{"layout":"fixed","backgroundColor":"#f8f8f8","images":{"fallback":{"src":"/static/bdc8525039042bedd52c0cf7d15e8521/ac0cb/simon-agren.jpg","srcSet":"/static/bdc8525039042bedd52c0cf7d15e8521/ac0cb/simon-agren.jpg 48w,\n/static/bdc8525039042bedd52c0cf7d15e8521/73f48/simon-agren.jpg 96w","sizes":"48px"},"sources":[{"srcSet":"/static/bdc8525039042bedd52c0cf7d15e8521/a3542/simon-agren.webp 48w,\n/static/bdc8525039042bedd52c0cf7d15e8521/0f66d/simon-agren.webp 96w","type":"image/webp","sizes":"48px"}]},"width":48,"height":48},"ImageSharp_regular":{"layout":"fixed","backgroundColor":"#f8f8f8","images":{"fallback":{"src":"/static/bdc8525039042bedd52c0cf7d15e8521/f679f/simon-agren.jpg","srcSet":"/static/bdc8525039042bedd52c0cf7d15e8521/f679f/simon-agren.jpg 150w,\n/static/bdc8525039042bedd52c0cf7d15e8521/78d3d/simon-agren.jpg 300w","sizes":"150px"},"sources":[{"srcSet":"/static/bdc8525039042bedd52c0cf7d15e8521/ae23d/simon-agren.webp 150w,\n/static/bdc8525039042bedd52c0cf7d15e8521/bd37b/simon-agren.webp 300w","type":"image/webp","sizes":"150px"}]},"width":150,"height":150}}},"thumbnail":{"__typename":"ImageSharp","ImageSharp_vertical":{"layout":"constrained","backgroundColor":"#3898d8","images":{"fallback":{"src":"/static/02ab72bfc11ec5246486d7c87731014f/19188/bot-keyvault.png","srcSet":"/static/02ab72bfc11ec5246486d7c87731014f/db297/bot-keyvault.png 190w,\n/static/02ab72bfc11ec5246486d7c87731014f/19188/bot-keyvault.png 380w","sizes":"(min-width: 380px) 380px, 100vw"},"sources":[{"srcSet":"/static/02ab72bfc11ec5246486d7c87731014f/228d6/bot-keyvault.webp 190w,\n/static/02ab72bfc11ec5246486d7c87731014f/6b99c/bot-keyvault.webp 380w","type":"image/webp","sizes":"(min-width: 380px) 380px, 100vw"}]},"width":380,"height":290},"ImageSharp_hero":{"layout":"constrained","backgroundColor":"#3898d8","images":{"fallback":{"src":"/static/02ab72bfc11ec5246486d7c87731014f/5fb32/bot-keyvault.png","srcSet":"/static/02ab72bfc11ec5246486d7c87731014f/739fd/bot-keyvault.png 600w,\n/static/02ab72bfc11ec5246486d7c87731014f/5fb32/bot-keyvault.png 1200w","sizes":"(min-width: 1200px) 1200px, 100vw"},"sources":[{"srcSet":"/static/02ab72bfc11ec5246486d7c87731014f/288e3/bot-keyvault.webp 600w,\n/static/02ab72bfc11ec5246486d7c87731014f/5b893/bot-keyvault.webp 1200w","type":"image/webp","sizes":"(min-width: 1200px) 1200px, 100vw"}]},"width":1600,"height":650.6666666666666}}},{"id":"a4b3b927-20a0-5119-ad68-8817a8754a91","title":"Bot Framework in Node.js - Let's begin (Part 1)","slug":"/azurebot-nodejs-part1/","link":null,"excerpt":"This is the first of a series of blog-posts regarding Bot Framework 4, Node.js and TypeScript. There…","timeToRead":3,"featured":null,"thumbnailText":null,"date":"February 24, 2020","category":{"id":"64f10eaf-091c-555c-a28e-13a12e934b04","name":"Azure","slug":"/category/azure/","color":"#007fff","icon":"/static/660faf3683bb1a8489baa9402bf62165/azure.svg"},"author":{"id":"6f313320-531a-5f32-9a22-708cb7653896","name":"Simon Ågren","slug":"/author/simon-agren/","title":"CTA & Microsoft MVP","description":"Solving business problems with tech","skills":["Microsoft 365","Azure"],"social":[{"name":"Github","url":"https://github.com/simonagren"},{"name":"Twitter","url":"https://twitter.com/agrenpoint"},{"name":"Website","url":"https://agrenpoint.com"}],"thumbnail":{"__typename":"ImageSharp","ImageSharp_small":{"layout":"fixed","backgroundColor":"#f8f8f8","images":{"fallback":{"src":"/static/bdc8525039042bedd52c0cf7d15e8521/ac0cb/simon-agren.jpg","srcSet":"/static/bdc8525039042bedd52c0cf7d15e8521/ac0cb/simon-agren.jpg 48w,\n/static/bdc8525039042bedd52c0cf7d15e8521/73f48/simon-agren.jpg 96w","sizes":"48px"},"sources":[{"srcSet":"/static/bdc8525039042bedd52c0cf7d15e8521/a3542/simon-agren.webp 48w,\n/static/bdc8525039042bedd52c0cf7d15e8521/0f66d/simon-agren.webp 96w","type":"image/webp","sizes":"48px"}]},"width":48,"height":48},"ImageSharp_regular":{"layout":"fixed","backgroundColor":"#f8f8f8","images":{"fallback":{"src":"/static/bdc8525039042bedd52c0cf7d15e8521/f679f/simon-agren.jpg","srcSet":"/static/bdc8525039042bedd52c0cf7d15e8521/f679f/simon-agren.jpg 150w,\n/static/bdc8525039042bedd52c0cf7d15e8521/78d3d/simon-agren.jpg 300w","sizes":"150px"},"sources":[{"srcSet":"/static/bdc8525039042bedd52c0cf7d15e8521/ae23d/simon-agren.webp 150w,\n/static/bdc8525039042bedd52c0cf7d15e8521/bd37b/simon-agren.webp 300w","type":"image/webp","sizes":"150px"}]},"width":150,"height":150}}},"thumbnail":{"__typename":"ImageSharp","ImageSharp_vertical":{"layout":"constrained","backgroundColor":"#3898d8","images":{"fallback":{"src":"/static/49487a686239d5774a56c02ff20851c3/19188/botframework1.png","srcSet":"/static/49487a686239d5774a56c02ff20851c3/db297/botframework1.png 190w,\n/static/49487a686239d5774a56c02ff20851c3/19188/botframework1.png 380w","sizes":"(min-width: 380px) 380px, 100vw"},"sources":[{"srcSet":"/static/49487a686239d5774a56c02ff20851c3/228d6/botframework1.webp 190w,\n/static/49487a686239d5774a56c02ff20851c3/6b99c/botframework1.webp 380w","type":"image/webp","sizes":"(min-width: 380px) 380px, 100vw"}]},"width":380,"height":290},"ImageSharp_hero":{"layout":"constrained","backgroundColor":"#3898d8","images":{"fallback":{"src":"/static/49487a686239d5774a56c02ff20851c3/5fb32/botframework1.png","srcSet":"/static/49487a686239d5774a56c02ff20851c3/739fd/botframework1.png 600w,\n/static/49487a686239d5774a56c02ff20851c3/5fb32/botframework1.png 1200w","sizes":"(min-width: 1200px) 1200px, 100vw"},"sources":[{"srcSet":"/static/49487a686239d5774a56c02ff20851c3/288e3/botframework1.webp 600w,\n/static/49487a686239d5774a56c02ff20851c3/5b893/botframework1.webp 1200w","type":"image/webp","sizes":"(min-width: 1200px) 1200px, 100vw"}]},"width":1600,"height":650.6666666666666}}},{"id":"e0dec6ac-7617-5591-93b4-01f9d7a42ea5","title":"Intro to Durable Functions in Node.js with PnPJs","slug":"/intro-durable/","link":null,"excerpt":"Durable functions are what Microsoft is calling \"orchestrator functions\". It's an extension of Azure…","timeToRead":5,"featured":null,"thumbnailText":null,"date":"November 25, 2019","category":{"id":"64f10eaf-091c-555c-a28e-13a12e934b04","name":"Azure","slug":"/category/azure/","color":"#007fff","icon":"/static/660faf3683bb1a8489baa9402bf62165/azure.svg"},"author":{"id":"6f313320-531a-5f32-9a22-708cb7653896","name":"Simon Ågren","slug":"/author/simon-agren/","title":"CTA & Microsoft MVP","description":"Solving business problems with tech","skills":["Microsoft 365","Azure"],"social":[{"name":"Github","url":"https://github.com/simonagren"},{"name":"Twitter","url":"https://twitter.com/agrenpoint"},{"name":"Website","url":"https://agrenpoint.com"}],"thumbnail":{"__typename":"ImageSharp","ImageSharp_small":{"layout":"fixed","backgroundColor":"#f8f8f8","images":{"fallback":{"src":"/static/bdc8525039042bedd52c0cf7d15e8521/ac0cb/simon-agren.jpg","srcSet":"/static/bdc8525039042bedd52c0cf7d15e8521/ac0cb/simon-agren.jpg 48w,\n/static/bdc8525039042bedd52c0cf7d15e8521/73f48/simon-agren.jpg 96w","sizes":"48px"},"sources":[{"srcSet":"/static/bdc8525039042bedd52c0cf7d15e8521/a3542/simon-agren.webp 48w,\n/static/bdc8525039042bedd52c0cf7d15e8521/0f66d/simon-agren.webp 96w","type":"image/webp","sizes":"48px"}]},"width":48,"height":48},"ImageSharp_regular":{"layout":"fixed","backgroundColor":"#f8f8f8","images":{"fallback":{"src":"/static/bdc8525039042bedd52c0cf7d15e8521/f679f/simon-agren.jpg","srcSet":"/static/bdc8525039042bedd52c0cf7d15e8521/f679f/simon-agren.jpg 150w,\n/static/bdc8525039042bedd52c0cf7d15e8521/78d3d/simon-agren.jpg 300w","sizes":"150px"},"sources":[{"srcSet":"/static/bdc8525039042bedd52c0cf7d15e8521/ae23d/simon-agren.webp 150w,\n/static/bdc8525039042bedd52c0cf7d15e8521/bd37b/simon-agren.webp 300w","type":"image/webp","sizes":"150px"}]},"width":150,"height":150}}},"thumbnail":{"__typename":"ImageSharp","ImageSharp_vertical":{"layout":"constrained","backgroundColor":"#f8f8f8","images":{"fallback":{"src":"/static/1a54320cc4d378a5d07eeb28b33dec88/144fe/architecture.jpg","srcSet":"/static/1a54320cc4d378a5d07eeb28b33dec88/9d7b9/architecture.jpg 190w,\n/static/1a54320cc4d378a5d07eeb28b33dec88/144fe/architecture.jpg 380w","sizes":"(min-width: 380px) 380px, 100vw"},"sources":[{"srcSet":"/static/1a54320cc4d378a5d07eeb28b33dec88/228d6/architecture.webp 190w,\n/static/1a54320cc4d378a5d07eeb28b33dec88/6b99c/architecture.webp 380w","type":"image/webp","sizes":"(min-width: 380px) 380px, 100vw"}]},"width":380,"height":290},"ImageSharp_hero":{"layout":"constrained","backgroundColor":"#f8f8f8","images":{"fallback":{"src":"/static/1a54320cc4d378a5d07eeb28b33dec88/061b3/architecture.jpg","srcSet":"/static/1a54320cc4d378a5d07eeb28b33dec88/fd7a7/architecture.jpg 605w,\n/static/1a54320cc4d378a5d07eeb28b33dec88/061b3/architecture.jpg 1209w","sizes":"(min-width: 1209px) 1209px, 100vw"},"sources":[{"srcSet":"/static/1a54320cc4d378a5d07eeb28b33dec88/6f4ef/architecture.webp 605w,\n/static/1a54320cc4d378a5d07eeb28b33dec88/2891d/architecture.webp 1209w","type":"image/webp","sizes":"(min-width: 1209px) 1209px, 100vw"}]},"width":1600,"height":649.7932175351531}}},{"id":"d68361d4-b0da-5903-a3f8-1a206a3e2e29","title":"Modern SharePoint site creation with site designs and REST","slug":"/sites-sitedesign-rest/","link":null,"excerpt":"In this post I will show you some REST operations to create modern SharePoint sites along with site…","timeToRead":3,"featured":null,"thumbnailText":null,"date":"February 25, 2019","category":{"id":"b0babac0-675d-51af-aa7a-ce603b3a7af4","name":"Microsoft 365","slug":"/category/microsoft-365/","color":"#f25022","icon":"/static/363fdd53d34303b727d9dab161b8e88b/microsoft365.svg"},"author":{"id":"6f313320-531a-5f32-9a22-708cb7653896","name":"Simon Ågren","slug":"/author/simon-agren/","title":"CTA & Microsoft MVP","description":"Solving business problems with tech","skills":["Microsoft 365","Azure"],"social":[{"name":"Github","url":"https://github.com/simonagren"},{"name":"Twitter","url":"https://twitter.com/agrenpoint"},{"name":"Website","url":"https://agrenpoint.com"}],"thumbnail":{"__typename":"ImageSharp","ImageSharp_small":{"layout":"fixed","backgroundColor":"#f8f8f8","images":{"fallback":{"src":"/static/bdc8525039042bedd52c0cf7d15e8521/ac0cb/simon-agren.jpg","srcSet":"/static/bdc8525039042bedd52c0cf7d15e8521/ac0cb/simon-agren.jpg 48w,\n/static/bdc8525039042bedd52c0cf7d15e8521/73f48/simon-agren.jpg 96w","sizes":"48px"},"sources":[{"srcSet":"/static/bdc8525039042bedd52c0cf7d15e8521/a3542/simon-agren.webp 48w,\n/static/bdc8525039042bedd52c0cf7d15e8521/0f66d/simon-agren.webp 96w","type":"image/webp","sizes":"48px"}]},"width":48,"height":48},"ImageSharp_regular":{"layout":"fixed","backgroundColor":"#f8f8f8","images":{"fallback":{"src":"/static/bdc8525039042bedd52c0cf7d15e8521/f679f/simon-agren.jpg","srcSet":"/static/bdc8525039042bedd52c0cf7d15e8521/f679f/simon-agren.jpg 150w,\n/static/bdc8525039042bedd52c0cf7d15e8521/78d3d/simon-agren.jpg 300w","sizes":"150px"},"sources":[{"srcSet":"/static/bdc8525039042bedd52c0cf7d15e8521/ae23d/simon-agren.webp 150w,\n/static/bdc8525039042bedd52c0cf7d15e8521/bd37b/simon-agren.webp 300w","type":"image/webp","sizes":"150px"}]},"width":150,"height":150}}},"thumbnail":{"__typename":"ImageSharp","ImageSharp_vertical":{"layout":"constrained","backgroundColor":"#f8f8f8","images":{"fallback":{"src":"/static/ff2b8fa9eecd9eb3cb337dceccaf0bb5/19188/sitescript.png","srcSet":"/static/ff2b8fa9eecd9eb3cb337dceccaf0bb5/db297/sitescript.png 190w,\n/static/ff2b8fa9eecd9eb3cb337dceccaf0bb5/19188/sitescript.png 380w","sizes":"(min-width: 380px) 380px, 100vw"},"sources":[{"srcSet":"/static/ff2b8fa9eecd9eb3cb337dceccaf0bb5/228d6/sitescript.webp 190w,\n/static/ff2b8fa9eecd9eb3cb337dceccaf0bb5/6b99c/sitescript.webp 380w","type":"image/webp","sizes":"(min-width: 380px) 380px, 100vw"}]},"width":380,"height":290},"ImageSharp_hero":{"layout":"constrained","backgroundColor":"#f8f8f8","images":{"fallback":{"src":"/static/ff2b8fa9eecd9eb3cb337dceccaf0bb5/5bdba/sitescript.png","srcSet":"/static/ff2b8fa9eecd9eb3cb337dceccaf0bb5/e6757/sitescript.png 499w,\n/static/ff2b8fa9eecd9eb3cb337dceccaf0bb5/5bdba/sitescript.png 998w","sizes":"(min-width: 998px) 998px, 100vw"},"sources":[{"srcSet":"/static/ff2b8fa9eecd9eb3cb337dceccaf0bb5/17534/sitescript.webp 499w,\n/static/ff2b8fa9eecd9eb3cb337dceccaf0bb5/54084/sitescript.webp 998w","type":"image/webp","sizes":"(min-width: 998px) 998px, 100vw"}]},"width":1600,"height":649.2985971943888}}},{"id":"800b7e77-e2aa-5a23-b50b-88680a16b735","title":"Findings from issues with SharePoint Starter Kit","slug":"/sp-starter-footer/","link":null,"excerpt":"I have been getting some questions about how to resolve some of the issues with the footer and links…","timeToRead":3,"featured":null,"thumbnailText":null,"date":"February 07, 2019","category":{"id":"b0babac0-675d-51af-aa7a-ce603b3a7af4","name":"Microsoft 365","slug":"/category/microsoft-365/","color":"#f25022","icon":"/static/363fdd53d34303b727d9dab161b8e88b/microsoft365.svg"},"author":{"id":"6f313320-531a-5f32-9a22-708cb7653896","name":"Simon Ågren","slug":"/author/simon-agren/","title":"CTA & Microsoft MVP","description":"Solving business problems with tech","skills":["Microsoft 365","Azure"],"social":[{"name":"Github","url":"https://github.com/simonagren"},{"name":"Twitter","url":"https://twitter.com/agrenpoint"},{"name":"Website","url":"https://agrenpoint.com"}],"thumbnail":{"__typename":"ImageSharp","ImageSharp_small":{"layout":"fixed","backgroundColor":"#f8f8f8","images":{"fallback":{"src":"/static/bdc8525039042bedd52c0cf7d15e8521/ac0cb/simon-agren.jpg","srcSet":"/static/bdc8525039042bedd52c0cf7d15e8521/ac0cb/simon-agren.jpg 48w,\n/static/bdc8525039042bedd52c0cf7d15e8521/73f48/simon-agren.jpg 96w","sizes":"48px"},"sources":[{"srcSet":"/static/bdc8525039042bedd52c0cf7d15e8521/a3542/simon-agren.webp 48w,\n/static/bdc8525039042bedd52c0cf7d15e8521/0f66d/simon-agren.webp 96w","type":"image/webp","sizes":"48px"}]},"width":48,"height":48},"ImageSharp_regular":{"layout":"fixed","backgroundColor":"#f8f8f8","images":{"fallback":{"src":"/static/bdc8525039042bedd52c0cf7d15e8521/f679f/simon-agren.jpg","srcSet":"/static/bdc8525039042bedd52c0cf7d15e8521/f679f/simon-agren.jpg 150w,\n/static/bdc8525039042bedd52c0cf7d15e8521/78d3d/simon-agren.jpg 300w","sizes":"150px"},"sources":[{"srcSet":"/static/bdc8525039042bedd52c0cf7d15e8521/ae23d/simon-agren.webp 150w,\n/static/bdc8525039042bedd52c0cf7d15e8521/bd37b/simon-agren.webp 300w","type":"image/webp","sizes":"150px"}]},"width":150,"height":150}}},"thumbnail":{"__typename":"ImageSharp","ImageSharp_vertical":{"layout":"constrained","backgroundColor":"#f8f8f8","images":{"fallback":{"src":"/static/a9c673011e6ee31cd62829d6065f636d/19188/default-front-page-contoso.png","srcSet":"/static/a9c673011e6ee31cd62829d6065f636d/db297/default-front-page-contoso.png 190w,\n/static/a9c673011e6ee31cd62829d6065f636d/19188/default-front-page-contoso.png 380w","sizes":"(min-width: 380px) 380px, 100vw"},"sources":[{"srcSet":"/static/a9c673011e6ee31cd62829d6065f636d/228d6/default-front-page-contoso.webp 190w,\n/static/a9c673011e6ee31cd62829d6065f636d/6b99c/default-front-page-contoso.webp 380w","type":"image/webp","sizes":"(min-width: 380px) 380px, 100vw"}]},"width":380,"height":290},"ImageSharp_hero":{"layout":"constrained","backgroundColor":"#f8f8f8","images":{"fallback":{"src":"/static/a9c673011e6ee31cd62829d6065f636d/dfc00/default-front-page-contoso.png","srcSet":"/static/a9c673011e6ee31cd62829d6065f636d/481ea/default-front-page-contoso.png 608w,\n/static/a9c673011e6ee31cd62829d6065f636d/dfc00/default-front-page-contoso.png 1216w","sizes":"(min-width: 1216px) 1216px, 100vw"},"sources":[{"srcSet":"/static/a9c673011e6ee31cd62829d6065f636d/e93b9/default-front-page-contoso.webp 608w,\n/static/a9c673011e6ee31cd62829d6065f636d/a4e5a/default-front-page-contoso.webp 1216w","type":"image/webp","sizes":"(min-width: 1216px) 1216px, 100vw"}]},"width":1600,"height":650}}}],"pageInfo":{"pageCount":12,"hasPreviousPage":true,"hasNextPage":true,"currentPage":11},"totalCount":72}},"pageContext":{"slug":"/author/simon-agren/","limit":6,"skip":60,"collectionType":"author","paginatePostsPage":true,"basePath":"/","services":{"algolia":true,"mailchimp":false,"disqus":false,"graphComment":true,"facebookComment":false},"siteUrl":"https://www.agrenpoint.com","mobileMenu":{"title":"Topics","items":[{"name":"Azure","slug":"/category/azure/"},{"name":"Endpoint management","slug":"/category/endpoint-management/"},{"name":"Microsoft 365","slug":"/category/microsoft-365/"}]},"darkMode":true,"includeExcerpt":true,"includeTimeToRead":true,"includeTableOfContents":true,"imageQuality":75,"currentDate":"2026-03-02"}},"staticQueryHashes":["1992822086","2409295108","2925947909"]}