{"componentChunkName":"component---packages-blog-gatsby-blog-core-src-templates-collection-tag-js","path":"/tag/powershell/page/4/","result":{"data":{"collectionInfo":{"id":"321da9ae-ab2b-531e-8eef-7345d17e4396","name":"powershell","slug":"/tag/powershell/"},"posts":{"nodes":[{"id":"7fceb2f9-988f-56bf-845e-8d9bd3521d17","title":"When n00bs Fiddle(r) with PowerShell","slug":"/when-n00bs-fiddler-with-powershell/","link":null,"excerpt":"My punny title is referencing to \"fiddle with something in an unskilled and unsuccessful effort\". I…","timeToRead":1,"featured":true,"thumbnailText":null,"date":"May 31, 2022","category":{"id":"b0babac0-675d-51af-aa7a-ce603b3a7af4","name":"Microsoft 365","slug":"/category/microsoft-365/","color":"#f25022","icon":"/static/363fdd53d34303b727d9dab161b8e88b/microsoft365.svg"},"author":{"id":"6f313320-531a-5f32-9a22-708cb7653896","name":"Simon Ågren","slug":"/author/simon-agren/","title":"CTA & Microsoft MVP","description":"Solving business problems with tech","skills":["Microsoft 365","Azure"],"social":[{"name":"Github","url":"https://github.com/simonagren"},{"name":"Twitter","url":"https://twitter.com/agrenpoint"},{"name":"Website","url":"https://agrenpoint.com"}],"thumbnail":{"__typename":"ImageSharp","ImageSharp_small":{"layout":"fixed","backgroundColor":"#f8f8f8","images":{"fallback":{"src":"/static/bdc8525039042bedd52c0cf7d15e8521/ac0cb/simon-agren.jpg","srcSet":"/static/bdc8525039042bedd52c0cf7d15e8521/ac0cb/simon-agren.jpg 48w,\n/static/bdc8525039042bedd52c0cf7d15e8521/73f48/simon-agren.jpg 96w","sizes":"48px"},"sources":[{"srcSet":"/static/bdc8525039042bedd52c0cf7d15e8521/a3542/simon-agren.webp 48w,\n/static/bdc8525039042bedd52c0cf7d15e8521/0f66d/simon-agren.webp 96w","type":"image/webp","sizes":"48px"}]},"width":48,"height":48},"ImageSharp_regular":{"layout":"fixed","backgroundColor":"#f8f8f8","images":{"fallback":{"src":"/static/bdc8525039042bedd52c0cf7d15e8521/f679f/simon-agren.jpg","srcSet":"/static/bdc8525039042bedd52c0cf7d15e8521/f679f/simon-agren.jpg 150w,\n/static/bdc8525039042bedd52c0cf7d15e8521/78d3d/simon-agren.jpg 300w","sizes":"150px"},"sources":[{"srcSet":"/static/bdc8525039042bedd52c0cf7d15e8521/ae23d/simon-agren.webp 150w,\n/static/bdc8525039042bedd52c0cf7d15e8521/bd37b/simon-agren.webp 300w","type":"image/webp","sizes":"150px"}]},"width":150,"height":150}}},"thumbnail":{"__typename":"ImageSharp","ImageSharp_vertical":{"layout":"constrained","backgroundColor":"#080808","images":{"fallback":{"src":"/static/0a32a043ebd375e280077b89e67a941d/144fe/image.jpg","srcSet":"/static/0a32a043ebd375e280077b89e67a941d/9d7b9/image.jpg 190w,\n/static/0a32a043ebd375e280077b89e67a941d/144fe/image.jpg 380w","sizes":"(min-width: 380px) 380px, 100vw"},"sources":[{"srcSet":"/static/0a32a043ebd375e280077b89e67a941d/228d6/image.webp 190w,\n/static/0a32a043ebd375e280077b89e67a941d/6b99c/image.webp 380w","type":"image/webp","sizes":"(min-width: 380px) 380px, 100vw"}]},"width":380,"height":290},"ImageSharp_hero":{"layout":"constrained","backgroundColor":"#080808","images":{"fallback":{"src":"/static/0a32a043ebd375e280077b89e67a941d/e9e14/image.jpg","srcSet":"/static/0a32a043ebd375e280077b89e67a941d/6df8b/image.jpg 640w,\n/static/0a32a043ebd375e280077b89e67a941d/e9e14/image.jpg 1280w","sizes":"(min-width: 1280px) 1280px, 100vw"},"sources":[{"srcSet":"/static/0a32a043ebd375e280077b89e67a941d/5f634/image.webp 640w,\n/static/0a32a043ebd375e280077b89e67a941d/f81d8/image.webp 1280w","type":"image/webp","sizes":"(min-width: 1280px) 1280px, 100vw"}]},"width":1600,"height":650}}},{"id":"ea226a81-1a26-5152-86d8-7fad9d2d92bb","title":"Manage Microsoft Teams Templates with PowerShell","slug":"/manage-microsoft-teams-templates-with-powershell/","link":null,"excerpt":"As stated in a previous post, you can manage only a few settings regarding Teams Templates from the…","timeToRead":2,"featured":true,"thumbnailText":null,"date":"February 14, 2022","category":{"id":"b0babac0-675d-51af-aa7a-ce603b3a7af4","name":"Microsoft 365","slug":"/category/microsoft-365/","color":"#f25022","icon":"/static/363fdd53d34303b727d9dab161b8e88b/microsoft365.svg"},"author":{"id":"6f313320-531a-5f32-9a22-708cb7653896","name":"Simon Ågren","slug":"/author/simon-agren/","title":"CTA & Microsoft MVP","description":"Solving business problems with tech","skills":["Microsoft 365","Azure"],"social":[{"name":"Github","url":"https://github.com/simonagren"},{"name":"Twitter","url":"https://twitter.com/agrenpoint"},{"name":"Website","url":"https://agrenpoint.com"}],"thumbnail":{"__typename":"ImageSharp","ImageSharp_small":{"layout":"fixed","backgroundColor":"#f8f8f8","images":{"fallback":{"src":"/static/bdc8525039042bedd52c0cf7d15e8521/ac0cb/simon-agren.jpg","srcSet":"/static/bdc8525039042bedd52c0cf7d15e8521/ac0cb/simon-agren.jpg 48w,\n/static/bdc8525039042bedd52c0cf7d15e8521/73f48/simon-agren.jpg 96w","sizes":"48px"},"sources":[{"srcSet":"/static/bdc8525039042bedd52c0cf7d15e8521/a3542/simon-agren.webp 48w,\n/static/bdc8525039042bedd52c0cf7d15e8521/0f66d/simon-agren.webp 96w","type":"image/webp","sizes":"48px"}]},"width":48,"height":48},"ImageSharp_regular":{"layout":"fixed","backgroundColor":"#f8f8f8","images":{"fallback":{"src":"/static/bdc8525039042bedd52c0cf7d15e8521/f679f/simon-agren.jpg","srcSet":"/static/bdc8525039042bedd52c0cf7d15e8521/f679f/simon-agren.jpg 150w,\n/static/bdc8525039042bedd52c0cf7d15e8521/78d3d/simon-agren.jpg 300w","sizes":"150px"},"sources":[{"srcSet":"/static/bdc8525039042bedd52c0cf7d15e8521/ae23d/simon-agren.webp 150w,\n/static/bdc8525039042bedd52c0cf7d15e8521/bd37b/simon-agren.webp 300w","type":"image/webp","sizes":"150px"}]},"width":150,"height":150}}},"thumbnail":{"__typename":"ImageSharp","ImageSharp_vertical":{"layout":"constrained","backgroundColor":"#083878","images":{"fallback":{"src":"/static/222f908826520672bdae64123db97710/144fe/image.jpg","srcSet":"/static/222f908826520672bdae64123db97710/9d7b9/image.jpg 190w,\n/static/222f908826520672bdae64123db97710/144fe/image.jpg 380w","sizes":"(min-width: 380px) 380px, 100vw"},"sources":[{"srcSet":"/static/222f908826520672bdae64123db97710/228d6/image.webp 190w,\n/static/222f908826520672bdae64123db97710/6b99c/image.webp 380w","type":"image/webp","sizes":"(min-width: 380px) 380px, 100vw"}]},"width":380,"height":290},"ImageSharp_hero":{"layout":"constrained","backgroundColor":"#083878","images":{"fallback":{"src":"/static/222f908826520672bdae64123db97710/582da/image.jpg","srcSet":"/static/222f908826520672bdae64123db97710/737e6/image.jpg 500w,\n/static/222f908826520672bdae64123db97710/582da/image.jpg 1000w","sizes":"(min-width: 1000px) 1000px, 100vw"},"sources":[{"srcSet":"/static/222f908826520672bdae64123db97710/e3a40/image.webp 500w,\n/static/222f908826520672bdae64123db97710/29b4f/image.webp 1000w","type":"image/webp","sizes":"(min-width: 1000px) 1000px, 100vw"}]},"width":1600,"height":649.6}}}],"pageInfo":{"pageCount":4,"hasPreviousPage":true,"hasNextPage":false,"currentPage":4},"totalCount":20}},"pageContext":{"slug":"/tag/powershell/","limit":6,"skip":18,"collectionType":"tags","paginatePostsPage":true,"basePath":"/","services":{"algolia":true,"mailchimp":false,"disqus":false,"graphComment":true,"facebookComment":false},"siteUrl":"https://www.agrenpoint.com","mobileMenu":{"title":"Topics","items":[{"name":"Azure","slug":"/category/azure/"},{"name":"Endpoint management","slug":"/category/endpoint-management/"},{"name":"Microsoft 365","slug":"/category/microsoft-365/"}]},"darkMode":true,"includeExcerpt":true,"includeTimeToRead":true,"includeTableOfContents":true,"imageQuality":75,"currentDate":"2026-03-02"}},"staticQueryHashes":["1992822086","2409295108","2925947909"]}