{"componentChunkName":"component---packages-blog-gatsby-blog-core-src-templates-collection-tag-js","path":"/tag/sharepoint/","result":{"data":{"collectionInfo":{"id":"a80e0145-ba14-5934-bb46-6906a002eab4","name":"sharepoint","slug":"/tag/sharepoint/"},"posts":{"nodes":[{"id":"bf90ac47-1787-5190-bf15-0d273af21d33","title":"Microsoft 365 Archive - A Comprehensive Guide","slug":"/microsoft-365-archive-a-comprehensive-guide/","link":null,"excerpt":"What is Microsoft 365 Archive? Microsoft 365 Archive provides a cost-effective solution for storing…","timeToRead":3,"featured":true,"thumbnailText":null,"date":"August 20, 2024","category":{"id":"b0babac0-675d-51af-aa7a-ce603b3a7af4","name":"Microsoft 365","slug":"/category/microsoft-365/","color":"#f25022","icon":"/static/363fdd53d34303b727d9dab161b8e88b/microsoft365.svg"},"author":{"id":"6f313320-531a-5f32-9a22-708cb7653896","name":"Simon Ågren","slug":"/author/simon-agren/","title":"CTA & Microsoft MVP","description":"Solving business problems with tech","skills":["Microsoft 365","Azure"],"social":[{"name":"Github","url":"https://github.com/simonagren"},{"name":"Twitter","url":"https://twitter.com/agrenpoint"},{"name":"Website","url":"https://agrenpoint.com"}],"thumbnail":{"__typename":"ImageSharp","ImageSharp_small":{"layout":"fixed","backgroundColor":"#f8f8f8","images":{"fallback":{"src":"/static/bdc8525039042bedd52c0cf7d15e8521/ac0cb/simon-agren.jpg","srcSet":"/static/bdc8525039042bedd52c0cf7d15e8521/ac0cb/simon-agren.jpg 48w,\n/static/bdc8525039042bedd52c0cf7d15e8521/73f48/simon-agren.jpg 96w","sizes":"48px"},"sources":[{"srcSet":"/static/bdc8525039042bedd52c0cf7d15e8521/a3542/simon-agren.webp 48w,\n/static/bdc8525039042bedd52c0cf7d15e8521/0f66d/simon-agren.webp 96w","type":"image/webp","sizes":"48px"}]},"width":48,"height":48},"ImageSharp_regular":{"layout":"fixed","backgroundColor":"#f8f8f8","images":{"fallback":{"src":"/static/bdc8525039042bedd52c0cf7d15e8521/f679f/simon-agren.jpg","srcSet":"/static/bdc8525039042bedd52c0cf7d15e8521/f679f/simon-agren.jpg 150w,\n/static/bdc8525039042bedd52c0cf7d15e8521/78d3d/simon-agren.jpg 300w","sizes":"150px"},"sources":[{"srcSet":"/static/bdc8525039042bedd52c0cf7d15e8521/ae23d/simon-agren.webp 150w,\n/static/bdc8525039042bedd52c0cf7d15e8521/bd37b/simon-agren.webp 300w","type":"image/webp","sizes":"150px"}]},"width":150,"height":150}}},"thumbnail":{"__typename":"ImageSharp","ImageSharp_vertical":{"layout":"constrained","backgroundColor":"#281838","images":{"fallback":{"src":"/static/021eb89692931d09b5c12cb439b33e50/144fe/image.jpg","srcSet":"/static/021eb89692931d09b5c12cb439b33e50/9d7b9/image.jpg 190w,\n/static/021eb89692931d09b5c12cb439b33e50/144fe/image.jpg 380w","sizes":"(min-width: 380px) 380px, 100vw"},"sources":[{"srcSet":"/static/021eb89692931d09b5c12cb439b33e50/228d6/image.webp 190w,\n/static/021eb89692931d09b5c12cb439b33e50/6b99c/image.webp 380w","type":"image/webp","sizes":"(min-width: 380px) 380px, 100vw"}]},"width":380,"height":290},"ImageSharp_hero":{"layout":"constrained","backgroundColor":"#281838","images":{"fallback":{"src":"/static/021eb89692931d09b5c12cb439b33e50/7a1ff/image.jpg","srcSet":"/static/021eb89692931d09b5c12cb439b33e50/a6b27/image.jpg 512w,\n/static/021eb89692931d09b5c12cb439b33e50/7a1ff/image.jpg 1024w","sizes":"(min-width: 1024px) 1024px, 100vw"},"sources":[{"srcSet":"/static/021eb89692931d09b5c12cb439b33e50/99476/image.webp 512w,\n/static/021eb89692931d09b5c12cb439b33e50/251f6/image.webp 1024w","type":"image/webp","sizes":"(min-width: 1024px) 1024px, 100vw"}]},"width":1600,"height":650}}},{"id":"794c3ec0-2ada-5da3-8a05-c9a74586d576","title":"Groupify a SharePoint site - the collection","slug":"/groupify-a-sharepoint-site-the-collection/","link":null,"excerpt":"Introduction It's been a long time since I worked in the classic experience in SharePoint or even…","timeToRead":2,"featured":false,"thumbnailText":null,"date":"September 10, 2022","category":{"id":"b0babac0-675d-51af-aa7a-ce603b3a7af4","name":"Microsoft 365","slug":"/category/microsoft-365/","color":"#f25022","icon":"/static/363fdd53d34303b727d9dab161b8e88b/microsoft365.svg"},"author":{"id":"6f313320-531a-5f32-9a22-708cb7653896","name":"Simon Ågren","slug":"/author/simon-agren/","title":"CTA & Microsoft MVP","description":"Solving business problems with tech","skills":["Microsoft 365","Azure"],"social":[{"name":"Github","url":"https://github.com/simonagren"},{"name":"Twitter","url":"https://twitter.com/agrenpoint"},{"name":"Website","url":"https://agrenpoint.com"}],"thumbnail":{"__typename":"ImageSharp","ImageSharp_small":{"layout":"fixed","backgroundColor":"#f8f8f8","images":{"fallback":{"src":"/static/bdc8525039042bedd52c0cf7d15e8521/ac0cb/simon-agren.jpg","srcSet":"/static/bdc8525039042bedd52c0cf7d15e8521/ac0cb/simon-agren.jpg 48w,\n/static/bdc8525039042bedd52c0cf7d15e8521/73f48/simon-agren.jpg 96w","sizes":"48px"},"sources":[{"srcSet":"/static/bdc8525039042bedd52c0cf7d15e8521/a3542/simon-agren.webp 48w,\n/static/bdc8525039042bedd52c0cf7d15e8521/0f66d/simon-agren.webp 96w","type":"image/webp","sizes":"48px"}]},"width":48,"height":48},"ImageSharp_regular":{"layout":"fixed","backgroundColor":"#f8f8f8","images":{"fallback":{"src":"/static/bdc8525039042bedd52c0cf7d15e8521/f679f/simon-agren.jpg","srcSet":"/static/bdc8525039042bedd52c0cf7d15e8521/f679f/simon-agren.jpg 150w,\n/static/bdc8525039042bedd52c0cf7d15e8521/78d3d/simon-agren.jpg 300w","sizes":"150px"},"sources":[{"srcSet":"/static/bdc8525039042bedd52c0cf7d15e8521/ae23d/simon-agren.webp 150w,\n/static/bdc8525039042bedd52c0cf7d15e8521/bd37b/simon-agren.webp 300w","type":"image/webp","sizes":"150px"}]},"width":150,"height":150}}},"thumbnail":{"__typename":"ImageSharp","ImageSharp_vertical":{"layout":"constrained","backgroundColor":"#a82828","images":{"fallback":{"src":"/static/b84fdeaa6d6ddfa3bba9145b83d179fc/144fe/image.jpg","srcSet":"/static/b84fdeaa6d6ddfa3bba9145b83d179fc/9d7b9/image.jpg 190w,\n/static/b84fdeaa6d6ddfa3bba9145b83d179fc/144fe/image.jpg 380w","sizes":"(min-width: 380px) 380px, 100vw"},"sources":[{"srcSet":"/static/b84fdeaa6d6ddfa3bba9145b83d179fc/228d6/image.webp 190w,\n/static/b84fdeaa6d6ddfa3bba9145b83d179fc/6b99c/image.webp 380w","type":"image/webp","sizes":"(min-width: 380px) 380px, 100vw"}]},"width":380,"height":290},"ImageSharp_hero":{"layout":"constrained","backgroundColor":"#a82828","images":{"fallback":{"src":"/static/b84fdeaa6d6ddfa3bba9145b83d179fc/5e493/image.jpg","srcSet":"/static/b84fdeaa6d6ddfa3bba9145b83d179fc/696c0/image.jpg 800w,\n/static/b84fdeaa6d6ddfa3bba9145b83d179fc/5e493/image.jpg 1600w","sizes":"(min-width: 1600px) 1600px, 100vw"},"sources":[{"srcSet":"/static/b84fdeaa6d6ddfa3bba9145b83d179fc/c9f06/image.webp 800w,\n/static/b84fdeaa6d6ddfa3bba9145b83d179fc/f47df/image.webp 1600w","type":"image/webp","sizes":"(min-width: 1600px) 1600px, 100vw"}]},"width":1600,"height":650}}},{"id":"10e371af-625c-5cd0-a411-b450635fb2b6","title":"Groupify a SharePoint Online Site using M365 CLI","slug":"/groupify-a-sharepoint-online-site-using-m365-cli/","link":null,"excerpt":"This post will explore connecting a new Microsoft 365 group with an existing SharePoint Online site…","timeToRead":1,"featured":false,"thumbnailText":null,"date":"September 09, 2022","category":{"id":"b0babac0-675d-51af-aa7a-ce603b3a7af4","name":"Microsoft 365","slug":"/category/microsoft-365/","color":"#f25022","icon":"/static/363fdd53d34303b727d9dab161b8e88b/microsoft365.svg"},"author":{"id":"6f313320-531a-5f32-9a22-708cb7653896","name":"Simon Ågren","slug":"/author/simon-agren/","title":"CTA & Microsoft MVP","description":"Solving business problems with tech","skills":["Microsoft 365","Azure"],"social":[{"name":"Github","url":"https://github.com/simonagren"},{"name":"Twitter","url":"https://twitter.com/agrenpoint"},{"name":"Website","url":"https://agrenpoint.com"}],"thumbnail":{"__typename":"ImageSharp","ImageSharp_small":{"layout":"fixed","backgroundColor":"#f8f8f8","images":{"fallback":{"src":"/static/bdc8525039042bedd52c0cf7d15e8521/ac0cb/simon-agren.jpg","srcSet":"/static/bdc8525039042bedd52c0cf7d15e8521/ac0cb/simon-agren.jpg 48w,\n/static/bdc8525039042bedd52c0cf7d15e8521/73f48/simon-agren.jpg 96w","sizes":"48px"},"sources":[{"srcSet":"/static/bdc8525039042bedd52c0cf7d15e8521/a3542/simon-agren.webp 48w,\n/static/bdc8525039042bedd52c0cf7d15e8521/0f66d/simon-agren.webp 96w","type":"image/webp","sizes":"48px"}]},"width":48,"height":48},"ImageSharp_regular":{"layout":"fixed","backgroundColor":"#f8f8f8","images":{"fallback":{"src":"/static/bdc8525039042bedd52c0cf7d15e8521/f679f/simon-agren.jpg","srcSet":"/static/bdc8525039042bedd52c0cf7d15e8521/f679f/simon-agren.jpg 150w,\n/static/bdc8525039042bedd52c0cf7d15e8521/78d3d/simon-agren.jpg 300w","sizes":"150px"},"sources":[{"srcSet":"/static/bdc8525039042bedd52c0cf7d15e8521/ae23d/simon-agren.webp 150w,\n/static/bdc8525039042bedd52c0cf7d15e8521/bd37b/simon-agren.webp 300w","type":"image/webp","sizes":"150px"}]},"width":150,"height":150}}},"thumbnail":{"__typename":"ImageSharp","ImageSharp_vertical":{"layout":"constrained","backgroundColor":"#080808","images":{"fallback":{"src":"/static/fbd187d766ca3c3fe34f18c0b145ab0c/19188/image.png","srcSet":"/static/fbd187d766ca3c3fe34f18c0b145ab0c/db297/image.png 190w,\n/static/fbd187d766ca3c3fe34f18c0b145ab0c/19188/image.png 380w","sizes":"(min-width: 380px) 380px, 100vw"},"sources":[{"srcSet":"/static/fbd187d766ca3c3fe34f18c0b145ab0c/228d6/image.webp 190w,\n/static/fbd187d766ca3c3fe34f18c0b145ab0c/6b99c/image.webp 380w","type":"image/webp","sizes":"(min-width: 380px) 380px, 100vw"}]},"width":380,"height":290},"ImageSharp_hero":{"layout":"constrained","backgroundColor":"#080808","images":{"fallback":{"src":"/static/fbd187d766ca3c3fe34f18c0b145ab0c/5fb32/image.png","srcSet":"/static/fbd187d766ca3c3fe34f18c0b145ab0c/739fd/image.png 600w,\n/static/fbd187d766ca3c3fe34f18c0b145ab0c/5fb32/image.png 1200w","sizes":"(min-width: 1200px) 1200px, 100vw"},"sources":[{"srcSet":"/static/fbd187d766ca3c3fe34f18c0b145ab0c/288e3/image.webp 600w,\n/static/fbd187d766ca3c3fe34f18c0b145ab0c/5b893/image.webp 1200w","type":"image/webp","sizes":"(min-width: 1200px) 1200px, 100vw"}]},"width":1600,"height":650.6666666666666}}},{"id":"89611302-1830-55b2-a6fe-97f9eb744016","title":"Groupify a SharePoint Online Site using PnP PowerShell","slug":"/groupify-a-sharepoint-online-site-using-pnp-powershell/","link":null,"excerpt":"This post will explore connecting a new Microsoft 365 group with an existing SharePoint Online site…","timeToRead":1,"featured":false,"thumbnailText":null,"date":"September 07, 2022","category":{"id":"b0babac0-675d-51af-aa7a-ce603b3a7af4","name":"Microsoft 365","slug":"/category/microsoft-365/","color":"#f25022","icon":"/static/363fdd53d34303b727d9dab161b8e88b/microsoft365.svg"},"author":{"id":"6f313320-531a-5f32-9a22-708cb7653896","name":"Simon Ågren","slug":"/author/simon-agren/","title":"CTA & Microsoft MVP","description":"Solving business problems with tech","skills":["Microsoft 365","Azure"],"social":[{"name":"Github","url":"https://github.com/simonagren"},{"name":"Twitter","url":"https://twitter.com/agrenpoint"},{"name":"Website","url":"https://agrenpoint.com"}],"thumbnail":{"__typename":"ImageSharp","ImageSharp_small":{"layout":"fixed","backgroundColor":"#f8f8f8","images":{"fallback":{"src":"/static/bdc8525039042bedd52c0cf7d15e8521/ac0cb/simon-agren.jpg","srcSet":"/static/bdc8525039042bedd52c0cf7d15e8521/ac0cb/simon-agren.jpg 48w,\n/static/bdc8525039042bedd52c0cf7d15e8521/73f48/simon-agren.jpg 96w","sizes":"48px"},"sources":[{"srcSet":"/static/bdc8525039042bedd52c0cf7d15e8521/a3542/simon-agren.webp 48w,\n/static/bdc8525039042bedd52c0cf7d15e8521/0f66d/simon-agren.webp 96w","type":"image/webp","sizes":"48px"}]},"width":48,"height":48},"ImageSharp_regular":{"layout":"fixed","backgroundColor":"#f8f8f8","images":{"fallback":{"src":"/static/bdc8525039042bedd52c0cf7d15e8521/f679f/simon-agren.jpg","srcSet":"/static/bdc8525039042bedd52c0cf7d15e8521/f679f/simon-agren.jpg 150w,\n/static/bdc8525039042bedd52c0cf7d15e8521/78d3d/simon-agren.jpg 300w","sizes":"150px"},"sources":[{"srcSet":"/static/bdc8525039042bedd52c0cf7d15e8521/ae23d/simon-agren.webp 150w,\n/static/bdc8525039042bedd52c0cf7d15e8521/bd37b/simon-agren.webp 300w","type":"image/webp","sizes":"150px"}]},"width":150,"height":150}}},"thumbnail":{"__typename":"ImageSharp","ImageSharp_vertical":{"layout":"constrained","backgroundColor":"#2878b8","images":{"fallback":{"src":"/static/62d18fa354fac9b087b2bd843ff58cb5/19188/image.png","srcSet":"/static/62d18fa354fac9b087b2bd843ff58cb5/db297/image.png 190w,\n/static/62d18fa354fac9b087b2bd843ff58cb5/19188/image.png 380w","sizes":"(min-width: 380px) 380px, 100vw"},"sources":[{"srcSet":"/static/62d18fa354fac9b087b2bd843ff58cb5/228d6/image.webp 190w,\n/static/62d18fa354fac9b087b2bd843ff58cb5/6b99c/image.webp 380w","type":"image/webp","sizes":"(min-width: 380px) 380px, 100vw"}]},"width":380,"height":290},"ImageSharp_hero":{"layout":"constrained","backgroundColor":"#2878b8","images":{"fallback":{"src":"/static/62d18fa354fac9b087b2bd843ff58cb5/5fb32/image.png","srcSet":"/static/62d18fa354fac9b087b2bd843ff58cb5/739fd/image.png 600w,\n/static/62d18fa354fac9b087b2bd843ff58cb5/5fb32/image.png 1200w","sizes":"(min-width: 1200px) 1200px, 100vw"},"sources":[{"srcSet":"/static/62d18fa354fac9b087b2bd843ff58cb5/288e3/image.webp 600w,\n/static/62d18fa354fac9b087b2bd843ff58cb5/5b893/image.webp 1200w","type":"image/webp","sizes":"(min-width: 1200px) 1200px, 100vw"}]},"width":1600,"height":650.6666666666666}}},{"id":"00bef739-c23a-527c-99b2-d839811a4ac4","title":"Groupify a SharePoint Online Site using PowerShell","slug":"/groupify-a-sharepoint-online-site-using-powershell/","link":null,"excerpt":"In this post, I will explain how to programmatically connect an existing top-level SharePoint Online…","timeToRead":1,"featured":false,"thumbnailText":null,"date":"September 04, 2022","category":{"id":"b0babac0-675d-51af-aa7a-ce603b3a7af4","name":"Microsoft 365","slug":"/category/microsoft-365/","color":"#f25022","icon":"/static/363fdd53d34303b727d9dab161b8e88b/microsoft365.svg"},"author":{"id":"6f313320-531a-5f32-9a22-708cb7653896","name":"Simon Ågren","slug":"/author/simon-agren/","title":"CTA & Microsoft MVP","description":"Solving business problems with tech","skills":["Microsoft 365","Azure"],"social":[{"name":"Github","url":"https://github.com/simonagren"},{"name":"Twitter","url":"https://twitter.com/agrenpoint"},{"name":"Website","url":"https://agrenpoint.com"}],"thumbnail":{"__typename":"ImageSharp","ImageSharp_small":{"layout":"fixed","backgroundColor":"#f8f8f8","images":{"fallback":{"src":"/static/bdc8525039042bedd52c0cf7d15e8521/ac0cb/simon-agren.jpg","srcSet":"/static/bdc8525039042bedd52c0cf7d15e8521/ac0cb/simon-agren.jpg 48w,\n/static/bdc8525039042bedd52c0cf7d15e8521/73f48/simon-agren.jpg 96w","sizes":"48px"},"sources":[{"srcSet":"/static/bdc8525039042bedd52c0cf7d15e8521/a3542/simon-agren.webp 48w,\n/static/bdc8525039042bedd52c0cf7d15e8521/0f66d/simon-agren.webp 96w","type":"image/webp","sizes":"48px"}]},"width":48,"height":48},"ImageSharp_regular":{"layout":"fixed","backgroundColor":"#f8f8f8","images":{"fallback":{"src":"/static/bdc8525039042bedd52c0cf7d15e8521/f679f/simon-agren.jpg","srcSet":"/static/bdc8525039042bedd52c0cf7d15e8521/f679f/simon-agren.jpg 150w,\n/static/bdc8525039042bedd52c0cf7d15e8521/78d3d/simon-agren.jpg 300w","sizes":"150px"},"sources":[{"srcSet":"/static/bdc8525039042bedd52c0cf7d15e8521/ae23d/simon-agren.webp 150w,\n/static/bdc8525039042bedd52c0cf7d15e8521/bd37b/simon-agren.webp 300w","type":"image/webp","sizes":"150px"}]},"width":150,"height":150}}},"thumbnail":{"__typename":"ImageSharp","ImageSharp_vertical":{"layout":"constrained","backgroundColor":"#083878","images":{"fallback":{"src":"/static/222f908826520672bdae64123db97710/144fe/image.jpg","srcSet":"/static/222f908826520672bdae64123db97710/9d7b9/image.jpg 190w,\n/static/222f908826520672bdae64123db97710/144fe/image.jpg 380w","sizes":"(min-width: 380px) 380px, 100vw"},"sources":[{"srcSet":"/static/222f908826520672bdae64123db97710/228d6/image.webp 190w,\n/static/222f908826520672bdae64123db97710/6b99c/image.webp 380w","type":"image/webp","sizes":"(min-width: 380px) 380px, 100vw"}]},"width":380,"height":290},"ImageSharp_hero":{"layout":"constrained","backgroundColor":"#083878","images":{"fallback":{"src":"/static/222f908826520672bdae64123db97710/582da/image.jpg","srcSet":"/static/222f908826520672bdae64123db97710/737e6/image.jpg 500w,\n/static/222f908826520672bdae64123db97710/582da/image.jpg 1000w","sizes":"(min-width: 1000px) 1000px, 100vw"},"sources":[{"srcSet":"/static/222f908826520672bdae64123db97710/e3a40/image.webp 500w,\n/static/222f908826520672bdae64123db97710/29b4f/image.webp 1000w","type":"image/webp","sizes":"(min-width: 1000px) 1000px, 100vw"}]},"width":1600,"height":649.6}}},{"id":"2f136041-27ae-5041-9736-f58066949a90","title":"30 min to a social media scheduling solution","slug":"/30-min-to-a-social-media-scheduling-solution/","link":null,"excerpt":"Have you ever wanted to schedule Twitter and LinkedIn posts without using a third-party solution…","timeToRead":2,"featured":true,"thumbnailText":null,"date":"May 25, 2022","category":{"id":"b0babac0-675d-51af-aa7a-ce603b3a7af4","name":"Microsoft 365","slug":"/category/microsoft-365/","color":"#f25022","icon":"/static/363fdd53d34303b727d9dab161b8e88b/microsoft365.svg"},"author":{"id":"6f313320-531a-5f32-9a22-708cb7653896","name":"Simon Ågren","slug":"/author/simon-agren/","title":"CTA & Microsoft MVP","description":"Solving business problems with tech","skills":["Microsoft 365","Azure"],"social":[{"name":"Github","url":"https://github.com/simonagren"},{"name":"Twitter","url":"https://twitter.com/agrenpoint"},{"name":"Website","url":"https://agrenpoint.com"}],"thumbnail":{"__typename":"ImageSharp","ImageSharp_small":{"layout":"fixed","backgroundColor":"#f8f8f8","images":{"fallback":{"src":"/static/bdc8525039042bedd52c0cf7d15e8521/ac0cb/simon-agren.jpg","srcSet":"/static/bdc8525039042bedd52c0cf7d15e8521/ac0cb/simon-agren.jpg 48w,\n/static/bdc8525039042bedd52c0cf7d15e8521/73f48/simon-agren.jpg 96w","sizes":"48px"},"sources":[{"srcSet":"/static/bdc8525039042bedd52c0cf7d15e8521/a3542/simon-agren.webp 48w,\n/static/bdc8525039042bedd52c0cf7d15e8521/0f66d/simon-agren.webp 96w","type":"image/webp","sizes":"48px"}]},"width":48,"height":48},"ImageSharp_regular":{"layout":"fixed","backgroundColor":"#f8f8f8","images":{"fallback":{"src":"/static/bdc8525039042bedd52c0cf7d15e8521/f679f/simon-agren.jpg","srcSet":"/static/bdc8525039042bedd52c0cf7d15e8521/f679f/simon-agren.jpg 150w,\n/static/bdc8525039042bedd52c0cf7d15e8521/78d3d/simon-agren.jpg 300w","sizes":"150px"},"sources":[{"srcSet":"/static/bdc8525039042bedd52c0cf7d15e8521/ae23d/simon-agren.webp 150w,\n/static/bdc8525039042bedd52c0cf7d15e8521/bd37b/simon-agren.webp 300w","type":"image/webp","sizes":"150px"}]},"width":150,"height":150}}},"thumbnail":{"__typename":"ImageSharp","ImageSharp_vertical":{"layout":"constrained","backgroundColor":"#f8f8f8","images":{"fallback":{"src":"/static/4ba09710d3905a1eb75d778be4285770/144fe/image.jpg","srcSet":"/static/4ba09710d3905a1eb75d778be4285770/9d7b9/image.jpg 190w,\n/static/4ba09710d3905a1eb75d778be4285770/144fe/image.jpg 380w","sizes":"(min-width: 380px) 380px, 100vw"},"sources":[{"srcSet":"/static/4ba09710d3905a1eb75d778be4285770/228d6/image.webp 190w,\n/static/4ba09710d3905a1eb75d778be4285770/6b99c/image.webp 380w","type":"image/webp","sizes":"(min-width: 380px) 380px, 100vw"}]},"width":380,"height":290},"ImageSharp_hero":{"layout":"constrained","backgroundColor":"#f8f8f8","images":{"fallback":{"src":"/static/4ba09710d3905a1eb75d778be4285770/0198c/image.jpg","srcSet":"/static/4ba09710d3905a1eb75d778be4285770/5603a/image.jpg 601w,\n/static/4ba09710d3905a1eb75d778be4285770/0198c/image.jpg 1201w","sizes":"(min-width: 1201px) 1201px, 100vw"},"sources":[{"srcSet":"/static/4ba09710d3905a1eb75d778be4285770/5d848/image.webp 601w,\n/static/4ba09710d3905a1eb75d778be4285770/923b8/image.webp 1201w","type":"image/webp","sizes":"(min-width: 1201px) 1201px, 100vw"}]},"width":1600,"height":650.1248959200667}}}],"pageInfo":{"pageCount":3,"hasPreviousPage":false,"hasNextPage":true,"currentPage":1},"totalCount":16}},"pageContext":{"slug":"/tag/sharepoint/","limit":6,"skip":0,"collectionType":"tags","paginatePostsPage":true,"basePath":"/","services":{"algolia":true,"mailchimp":false,"disqus":false,"graphComment":true,"facebookComment":false},"siteUrl":"https://www.agrenpoint.com","mobileMenu":{"title":"Topics","items":[{"name":"Azure","slug":"/category/azure/"},{"name":"Endpoint management","slug":"/category/endpoint-management/"},{"name":"Microsoft 365","slug":"/category/microsoft-365/"}]},"darkMode":true,"includeExcerpt":true,"includeTimeToRead":true,"includeTableOfContents":true,"imageQuality":75,"currentDate":"2026-03-02"}},"staticQueryHashes":["1992822086","2409295108","2925947909"]}